phoeniX.vcd
$date
	Mon Aug 21 12:58:36 2023
$end
$version
	Icarus Verilog
$end
$timescale
	1ns
$end
$scope module phoeniX_Testbench $end
$var wire 32 ! x0 [31:0] $end
$var wire 32 " x1 [31:0] $end
$var wire 32 # x10 [31:0] $end
$var wire 32 $ x11 [31:0] $end
$var wire 32 % x12 [31:0] $end
$var wire 32 & x13 [31:0] $end
$var wire 32 ' x14 [31:0] $end
$var wire 32 ( x15 [31:0] $end
$var wire 32 ) x16 [31:0] $end
$var wire 32 * x17 [31:0] $end
$var wire 32 + x18 [31:0] $end
$var wire 32 , x19 [31:0] $end
$var wire 32 - x2 [31:0] $end
$var wire 32 . x20 [31:0] $end
$var wire 32 / x21 [31:0] $end
$var wire 32 0 x22 [31:0] $end
$var wire 32 1 x23 [31:0] $end
$var wire 32 2 x24 [31:0] $end
$var wire 32 3 x25 [31:0] $end
$var wire 32 4 x26 [31:0] $end
$var wire 32 5 x27 [31:0] $end
$var wire 32 6 x28 [31:0] $end
$var wire 32 7 x29 [31:0] $end
$var wire 32 8 x3 [31:0] $end
$var wire 32 9 x30 [31:0] $end
$var wire 32 : x31 [31:0] $end
$var wire 32 ; x4 [31:0] $end
$var wire 32 < x5 [31:0] $end
$var wire 32 = x6 [31:0] $end
$var wire 32 > x7 [31:0] $end
$var wire 32 ? x8 [31:0] $end
$var wire 32 @ x9 [31:0] $end
$var reg 1 A CLK $end
$var reg 1 B CLK_MEM $end
$var reg 1 C reset $end
$var integer 32 D data_memory_file [31:0] $end
$scope module uut $end
$var wire 1 A CLK $end
$var wire 1 B CLK_MEM $end
$var wire 32 E bus_rs1_decode_wire [31:0] $end
$var wire 32 F bus_rs2_decode_wire [31:0] $end
$var wire 1 C reset $end
$var wire 32 G result_execute_wire [31:0] $end
$var wire 5 H write_index_decode_wire [4:0] $end
$var wire 1 I write_enable_decode_wire $end
$var wire 5 J read_index_2_decode_wire [4:0] $end
$var wire 5 K read_index_1_decode_wire [4:0] $end
$var wire 1 L read_enable_2_decode_wire $end
$var wire 1 M read_enable_1_decode_wire $end
$var wire 7 N opcode_decode_wire [6:0] $end
$var wire 32 O next_PC_wire [31:0] $end
$var wire 32 P load_data_memory_wire [31:0] $end
$var wire 1 Q jump_branch_enable_execute_wire $end
$var wire 3 R instruction_type_decode_wire [2:0] $end
$var wire 32 S instruction_fetch_wire [31:0] $end
$var wire 32 T immediate_decode_wire [31:0] $end
$var wire 7 U funct7_decode_wire [6:0] $end
$var wire 3 V funct3_decode_wire [2:0] $end
$var wire 32 W alu_output_execute_wire [31:0] $end
$var wire 32 X address_execute_wire [31:0] $end
$var wire 32 Y RF_source_2 [31:0] $end
$var wire 32 Z RF_source_1 [31:0] $end
$var parameter 32 [ RESET_ADDRESS $end
$var reg 32 \ PC_decode_reg [31:0] $end
$var reg 32 ] PC_execute_reg [31:0] $end
$var reg 32 ^ PC_fetch_reg [31:0] $end
$var reg 32 _ PC_memory_reg [31:0] $end
$var reg 32 ` PC_writeback_reg [31:0] $end
$var reg 32 a address_memory_reg [31:0] $end
$var reg 32 b bus_rs1 [31:0] $end
$var reg 32 c bus_rs2 [31:0] $end
$var reg 32 d bus_rs2_memory_reg [31:0] $end
$var reg 3 e funct3_execute_reg [2:0] $end
$var reg 3 f funct3_memory_reg [2:0] $end
$var reg 3 g funct3_writeback_reg [2:0] $end
$var reg 7 h funct7_execute_reg [6:0] $end
$var reg 7 i funct7_memory_reg [6:0] $end
$var reg 7 j funct7_writeback_reg [6:0] $end
$var reg 32 k immediate_execute_reg [31:0] $end
$var reg 32 l immediate_memory_reg [31:0] $end
$var reg 32 m immediate_writeback_reg [31:0] $end
$var reg 32 n instruction_decode_reg [31:0] $end
$var reg 3 o instruction_type_execute_reg [2:0] $end
$var reg 3 p instruction_type_memory_reg [2:0] $end
$var reg 3 q instruction_type_writeback_reg [2:0] $end
$var reg 1 r jump_branch_enable_memory_reg $end
$var reg 32 s load_data_writeback_reg [31:0] $end
$var reg 7 t opcode_execute_reg [6:0] $end
$var reg 7 u opcode_memory_reg [6:0] $end
$var reg 7 v opcode_writeback_reg [6:0] $end
$var reg 32 w result_memory_reg [31:0] $end
$var reg 32 x result_writeback_reg [31:0] $end
$var reg 32 y write_data_writeback_reg [31:0] $end
$var reg 1 z write_enable_execute_reg $end
$var reg 1 { write_enable_memory_reg $end
$var reg 1 | write_enable_writeback_reg $end
$var reg 5 } write_index_execute_reg [4:0] $end
$var reg 5 ~ write_index_memory_reg [4:0] $end
$var reg 5 !" write_index_writeback_reg [4:0] $end
$scope module Instruction_Decoder $end
$var wire 1 "" branch_signal $end
$var wire 32 #" instruction [31:0] $end
$var wire 1 $" instruction_type_i $end
$var wire 1 %" instruction_type_r $end
$var wire 1 &" instruction_type_s $end
$var wire 1 '" instruction_type_u $end
$var wire 5 (" write_index [4:0] $end
$var wire 5 )" read_index_2 [4:0] $end
$var wire 5 *" read_index_1 [4:0] $end
$var wire 7 +" opcode [6:0] $end
$var wire 1 ," instruction_type_j $end
$var wire 1 -" instruction_type_b $end
$var wire 3 ." instruction_type [2:0] $end
$var wire 7 /" funct7 [6:0] $end
$var wire 3 0" funct3 [2:0] $end
$var reg 1 M read_enable_1 $end
$var reg 1 L read_enable_2 $end
$var reg 1 I write_enable $end
$upscope $end
$scope module address_generator $end
$var wire 32 1" PC [31:0] $end
$var wire 32 2" immediate [31:0] $end
$var wire 7 3" opcode [6:0] $end
$var wire 32 4" rs1 [31:0] $end
$var wire 32 5" address [31:0] $end
$var reg 32 6" value [31:0] $end
$upscope $end
$scope module arithmetic_logic_unit $end
$var wire 32 7" PC [31:0] $end
$var wire 3 8" funct3 [2:0] $end
$var wire 7 9" funct7 [6:0] $end
$var wire 32 :" immediate [31:0] $end
$var wire 7 ;" opcode [6:0] $end
$var wire 32 <" rs1 [31:0] $end
$var wire 32 =" rs2 [31:0] $end
$var reg 32 >" alu_output [31:0] $end
$var reg 1 ?" mux1_select $end
$var reg 2 @" mux2_select [1:0] $end
$var reg 32 A" operand_1 [31:0] $end
$var reg 32 B" operand_2 [31:0] $end
$upscope $end
$scope module fetch_unit $end
$var wire 1 B CLK $end
$var wire 32 C" PC [31:0] $end
$var wire 32 D" address [31:0] $end
$var wire 1 E" enable $end
$var wire 1 r jump_branch_enable $end
$var wire 32 F" next_PC [31:0] $end
$var wire 32 G" fetched_instruction_wire [31:0] $end
$var wire 1 H" fetch_done $end
$var reg 32 I" fetched_instruction [31:0] $end
$scope module instruction_memory $end
$var wire 1 B CLK $end
$var wire 32 J" address [31:0] $end
$var wire 32 K" data [31:0] $end
$var wire 1 E" enable $end
$var wire 4 L" frame_mask [3:0] $end
$var wire 1 M" memory_state $end
$var parameter 4 N" B_0001 $end
$var parameter 4 O" B_0010 $end
$var parameter 4 P" B_0100 $end
$var parameter 4 Q" B_1000 $end
$var parameter 32 R" DEPTH $end
$var parameter 4 S" FINISH $end
$var parameter 4 T" H_0011_1 $end
$var parameter 4 U" H_0011_2 $end
$var parameter 4 V" H_1100_1 $end
$var parameter 4 W" H_1100_2 $end
$var parameter 1 X" READ $end
$var parameter 4 Y" STABLE $end
$var parameter 1 Z" WRITE $end
$var parameter 4 [" W_1111_1 $end
$var parameter 4 \" W_1111_2 $end
$var parameter 4 ]" W_1111_3 $end
$var parameter 4 ^" W_1111_4 $end
$var reg 32 _" data_in [31:0] $end
$var reg 1 H" memory_done $end
$var reg 4 `" next_state [3:0] $end
$var reg 4 a" state [3:0] $end
$upscope $end
$upscope $end
$scope module immediate_generator $end
$var wire 32 b" instruction [31:0] $end
$var wire 3 c" instruction_type [2:0] $end
$var reg 32 d" immediate [31:0] $end
$upscope $end
$scope module jump_branch_unit $end
$var wire 3 e" funct3 [2:0] $end
$var wire 7 f" funct7 [6:0] $end
$var wire 3 g" instruction_type [2:0] $end
$var wire 1 Q jump_branch_enable $end
$var wire 7 h" opcode [6:0] $end
$var wire 32 i" rs1 [31:0] $end
$var wire 32 j" rs2 [31:0] $end
$var reg 1 k" branch_enable $end
$var reg 3 l" branch_type [2:0] $end
$var reg 1 m" jump_enable $end
$upscope $end
$scope module load_store_unit $end
$var wire 1 B CLK $end
$var wire 32 n" address [31:0] $end
$var wire 32 o" data [31:0] $end
$var wire 3 p" funct3 [2:0] $end
$var wire 7 q" opcode [6:0] $end
$var wire 32 r" store_data [31:0] $end
$var wire 1 s" memory_done $end
$var reg 1 t" enable $end
$var reg 4 u" frame_mask [3:0] $end
$var reg 32 v" load_data [31:0] $end
$var reg 1 w" memory_state $end
$scope module data_memory $end
$var wire 1 B CLK $end
$var wire 32 x" address [31:0] $end
$var wire 32 y" data [31:0] $end
$var wire 1 t" enable $end
$var wire 4 z" frame_mask [3:0] $end
$var wire 1 w" memory_state $end
$var parameter 4 {" B_0001 $end
$var parameter 4 |" B_0010 $end
$var parameter 4 }" B_0100 $end
$var parameter 4 ~" B_1000 $end
$var parameter 32 !# DEPTH $end
$var parameter 4 "# FINISH $end
$var parameter 4 ## H_0011_1 $end
$var parameter 4 $# H_0011_2 $end
$var parameter 4 %# H_1100_1 $end
$var parameter 4 &# H_1100_2 $end
$var parameter 1 '# READ $end
$var parameter 4 (# STABLE $end
$var parameter 1 )# WRITE $end
$var parameter 4 *# W_1111_1 $end
$var parameter 4 +# W_1111_2 $end
$var parameter 4 ,# W_1111_3 $end
$var parameter 4 -# W_1111_4 $end
$var reg 32 .# data_in [31:0] $end
$var reg 1 s" memory_done $end
$var reg 4 /# next_state [3:0] $end
$var reg 4 0# state [3:0] $end
$upscope $end
$upscope $end
$scope module register_file $end
$var wire 1 A CLK $end
$var wire 1 M read_enable_1 $end
$var wire 1 L read_enable_2 $end
$var wire 5 1# read_index_1 [4:0] $end
$var wire 5 2# read_index_2 [4:0] $end
$var wire 1 C reset $end
$var wire 32 3# write_data [31:0] $end
$var wire 1 | write_enable $end
$var wire 5 4# write_index [4:0] $end
$var parameter 32 5# DEPTH $end
$var parameter 32 6# WIDTH $end
$var reg 32 7# read_data_1 [31:0] $end
$var reg 32 8# read_data_2 [31:0] $end
$var integer 32 9# i [31:0] $end
$upscope $end
$upscope $end
$scope begin $ivl_for_loop0 $end
$var integer 32 :# i [31:0] $end
$upscope $end
$upscope $end
$enddefinitions $end
$comment Show the parameter values. $end
$dumpall
b100000 6#
b101 5#
b1100 -#
b1011 ,#
b1010 +#
b1001 *#
1)#
b0 (#
0'#
b1000 &#
b111 %#
b110 $#
b101 ##
b1101 "#
b100000000 !#
b100 ~"
b11 }"
b10 |"
b1 {"
b1100 ^"
b1011 ]"
b1010 \"
b1001 ["
1Z"
b0 Y"
0X"
b1000 W"
b111 V"
b110 U"
b101 T"
b1101 S"
b100000000 R"
b100 Q"
b11 P"
b10 O"
b1 N"
b11111111111111111111111111111100 [
$end
#0
$dumpvars
bx :#
b100000 9#
bz 8#
bz 7#
bx 4#
bx 3#
bx 2#
bx 1#
b0 0#
bx /#
bz .#
bx z"
bx y"
bx00 x"
xw"
bx v"
bx u"
xt"
0s"
bx r"
bx q"
bx p"
bx o"
bx n"
0m"
bx l"
0k"
bx j"
bx i"
bx h"
bz g"
bx f"
bx e"
bz d"
bx c"
bx b"
b0 a"
b1001 `"
bz _"
0M"
b1111 L"
bz K"
b11111111111111111111111111111100 J"
bx I"
0H"
bz G"
bx F"
0E"
bx D"
b11111111111111111111111111111100 C"
bx B"
bx A"
bx @"
x?"
bx >"
bx ="
bx <"
bx ;"
bx :"
bx 9"
bx 8"
bx 7"
bx 6"
bx 5"
bx 4"
bx 3"
bx 2"
bx 1"
bx 0"
bx /"
bx ."
x-"
x,"
bx +"
bx *"
bx )"
bx ("
x'"
x&"
x%"
x$"
bx #"
x""
bx !"
bx ~
bx }
x|
x{
xz
bx y
bx x
bx w
bx v
bx u
bx t
bx s
xr
bx q
bx p
bz o
bx n
bx m
bx l
bx k
bx j
bx i
bx h
bx g
bx f
bx e
bx d
bx c
bx b
bx a
bx `
bx _
b11111111111111111111111111111100 ^
bx ]
bx \
bz Z
bz Y
bx X
bx W
bx V
bx U
bz T
bx S
bx R
0Q
bx P
bx O
bx N
xM
xL
bx K
bx J
xI
bx H
bx G
bz F
bz E
bx D
1C
1B
1A
b0 @
b0 ?
b0 >
b0 =
b0 <
b0 ;
b0 :
b0 9
b0 8
b0 7
b0 6
b0 5
b0 4
b0 3
b0 2
b0 1
b0 0
b0 /
b0 .
b0 -
b0 ,
b0 +
b0 *
b0 )
b0 (
b0 '
b0 &
b0 %
b0 $
b0 #
b0 "
b0 !
$end
#1
0B
#2
1B
#3
0B
#4
1B
#5
0B
#6
1B
0A
#7
0B
#8
1B
#9
0B
#10
1B
#11
0B
#12
b0 O
b0 F"
b0z 6"
0r
bz p
bz c
bz ="
bz j"
bz b
bz 4"
bz <"
bz i"
bx o
bx g"
bz k
bz 2"
bz :"
b11111111111111111111111111111100 \
1B
1A
#13
0B
#14
1B
#15
0B
#16
1B
#17
0B
#18
1B
0A
#19
0B
#20
1B
#21
0B
#22
1B
#23
0B
#24
bz o"
bz y"
b11111111111111111111111111111100 ]
b11111111111111111111111111111100 1"
b11111111111111111111111111111100 7"
bz d
bz r"
bx p
bz l
bz q
1B
1A
#25
0B
#26
1B
#27
0B
#28
1B
#29
0B
#30
1B
0A
#31
0B
#32
1B
#33
0B
#34
1B
#35
0B
#36
b1010 `"
b110zzzzzzzzzzzzzzzzzzzzzzzz G"
b110zzzzzzzzzzzzzzzzzzzzzzzz K"
b110zzzzzzzzzzzzzzzzzzzzzzzz _"
b100 O
b100 F"
b1001 a"
bx q
bz m
b11111111111111111111111111111100 _
b0 ^
b0 C"
b0 J"
1B
1A
1E"
0C
#37
0B
#38
b1011 `"
b11001010000zzzzzzzzzzzzzzzz G"
b11001010000zzzzzzzzzzzzzzzz K"
b11001010000zzzzzzzzzzzzzzzz _"
b1010 a"
1B
#39
0B
#40
b1100 `"
b1100101000000000110zzzzzzzz G"
b1100101000000000110zzzzzzzz K"
b1100101000000000110zzzzzzzz _"
b1011 a"
1B
#41
0B
#42
b1101 `"
b110010100000000011000010011 G"
b110010100000000011000010011 K"
b110010100000000011000010011 _"
b1100 a"
1B
0A
#43
0B
#44
b110010100000000011000010011 S
b110010100000000011000010011 I"
b0 `"
1H"
b1101 a"
1B
#45
0B
#46
b1001 `"
bz G"
bz K"
bz _"
0H"
b0 a"
1B
#47
0B
#48
b0 E
b0 Z
b0 7#
b1010 `"
b0zzzzzzzzzzzzzzzzzzzzzzzz G"
b0zzzzzzzzzzzzzzzzzzzzzzzz K"
b0zzzzzzzzzzzzzzzzzzzzzzzz _"
1I
0L
1M
b1100101 T
b1100101 d"
b0 R
b0 ."
b0 c"
1$"
0%"
0&"
0'"
b1000 O
b1000 F"
b10011 N
b10011 +"
0""
0-"
0,"
b11 U
b11 /"
b0 V
b0 0"
b0 K
b0 *"
b0 1#
b101 J
b101 )"
b101 2#
b1100 H
b1100 ("
b1001 a"
b100 ^
b100 C"
b100 J"
b0 \
b110010100000000011000010011 n
b110010100000000011000010011 #"
b110010100000000011000010011 b"
b11111111111111111111111111111100 `
1B
1A
#49
0B
#50
b1011 `"
b0zzzzzzzzzzzzzzzz G"
b0zzzzzzzzzzzzzzzz K"
b0zzzzzzzzzzzzzzzz _"
b1010 a"
1B
#51
0B
#52
b1100 `"
b110zzzzzzzz G"
b110zzzzzzzz K"
b110zzzzzzzz _"
b1011 a"
1B
#53
0B
#54
b1101 `"
b11010110011 G"
b11010110011 K"
b11010110011 _"
b1100 a"
1B
0A
#55
0B
#56
b11010110011 S
b11010110011 I"
b0 `"
1H"
b1101 a"
1B
#57
0B
#58
b1001 `"
bz G"
bz K"
bz _"
0H"
b0 a"
1B
#59
0B
#60
b0 F
b0 Y
b0 8#
b1010 `"
b0zzzzzzzzzzzzzzzzzzzzzzzz G"
b0zzzzzzzzzzzzzzzzzzzzzzzz K"
b0zzzzzzzzzzzzzzzzzzzzzzzz _"
1L
b101 R
b101 ."
b101 c"
0$"
b1100101 G
b1100101 W
b1100101 >"
b0 A"
1%"
b1100101 B"
b1 @"
0?"
b110011 N
b110011 +"
b0 U
b0 /"
b0 J
b0 )"
b0 2#
b1101 H
b1101 ("
bz T
bz d"
b1100 O
b1100 F"
b1001 a"
b0 b
b0 4"
b0 <"
b0 i"
1z
b1100 }
b0 o
b0 g"
b1100101 k
b1100101 2"
b1100101 :"
b11 h
b11 9"
b11 f"
b0 e
b0 8"
b0 e"
b10011 t
b10011 3"
b10011 ;"
b10011 h"
b0 ]
b0 1"
b0 7"
b100 \
b11010110011 n
b11010110011 #"
b11010110011 b"
b1000 ^
b1000 C"
b1000 J"
1B
1A
#61
0B
#62
b1011 `"
b0zzzzzzzzzzzzzzzz G"
b0zzzzzzzzzzzzzzzz K"
b0zzzzzzzzzzzzzzzz _"
b1010 a"
1B
#63
0B
#64
b1100 `"
b111zzzzzzzz G"
b111zzzzzzzz K"
b111zzzzzzzz _"
b1011 a"
1B
#65
0B
#66
b1101 `"
b11100110011 G"
b11100110011 K"
b11100110011 _"
b1100 a"
1B
0A
#67
0B
#68
b11100110011 S
b11100110011 I"
b0 `"
1H"
b1101 a"
1B
#69
0B
#70
b1001 `"
bz G"
bz K"
bz _"
0H"
b0 a"
1B
#71
0B
#72
b0 /#
b1010 `"
b0zzzzzzzzzzzzzzzzzzzzzzzz G"
b0zzzzzzzzzzzzzzzzzzzzzzzz K"
b0zzzzzzzzzzzzzzzzzzzzzzzz _"
b0 G
b0 W
b0 >"
b10000 O
b10000 F"
b1110 H
b1110 ("
b0 B"
b0 @"
0w"
b0 u"
b0 z"
0t"
b1001 a"
b1100 ^
b1100 C"
b1100 J"
b1000 \
b11100110011 n
b11100110011 #"
b11100110011 b"
b0 c
b0 ="
b0 j"
b1101 }
b101 o
b101 g"
bz k
bz 2"
bz :"
b0 h
b0 9"
b0 f"
b110011 t
b110011 3"
b110011 ;"
b110011 h"
b100 ]
b100 1"
b100 7"
b1100101 w
1{
b1100 ~
b0 p
b1100101 l
b11 i
b0 f
b0 p"
b10011 u
b10011 q"
b0 _
1B
1A
#73
0B
#74
b1011 `"
b11100110zzzzzzzzzzzzzzzz G"
b11100110zzzzzzzzzzzzzzzz K"
b11100110zzzzzzzzzzzzzzzz _"
b1010 a"
1B
#75
0B
#76
b1100 `"
b1110011010000111zzzzzzzz G"
b1110011010000111zzzzzzzz K"
b1110011010000111zzzzzzzz _"
b1011 a"
1B
#77
0B
#78
b1101 `"
b111001101000011100110011 G"
b111001101000011100110011 K"
b111001101000011100110011 _"
b1100 a"
1B
0A
#79
0B
#80
b111001101000011100110011 S
b111001101000011100110011 I"
b0 `"
1H"
b1101 a"
1B
#81
0B
#82
b1001 `"
bz G"
bz K"
bz _"
0H"
b0 a"
1B
#83
0B
#84
b1010 `"
b0zzzzzzzzzzzzzzzzzzzzzzzz G"
b0zzzzzzzzzzzzzzzzzzzzzzzz K"
b0zzzzzzzzzzzzzzzzzzzzzzzz _"
b1100101 y
b1100101 3#
0w"
b0 u"
b0 z"
b1101 K
b1101 *"
b1101 1#
b1110 J
b1110 )"
b1110 2#
b10100 O
b10100 F"
b1001 a"
b1100101 x
1|
b1100 !"
b1100 4#
b0 q
b1100101 m
b11 j
b0 g
b10011 v
b0 `
b0 w
b0 d
b0 r"
b1101 ~
b101 p
bz l
b0 i
b110011 u
b110011 q"
b100 _
b1110 }
b1000 ]
b1000 1"
b1000 7"
b1100 \
b111001101000011100110011 n
b111001101000011100110011 #"
b111001101000011100110011 b"
b10000 ^
b10000 C"
b10000 J"
1B
1A
#85
0B
#86
b1011 `"
b10110zzzzzzzzzzzzzzzz G"
b10110zzzzzzzzzzzzzzzz K"
b10110zzzzzzzzzzzzzzzz _"
b1010 a"
1B
#87
0B
#88
b1100 `"
b1011010000110zzzzzzzz G"
b1011010000110zzzzzzzz K"
b1011010000110zzzzzzzz _"
b1011 a"
1B
#89
0B
#90
b1101 `"
b101101000011010010011 G"
b101101000011010010011 K"
b101101000011010010011 _"
b1100 a"
b1100101 %
1B
0A
#91
0B
#92
b101101000011010010011 S
b101101000011010010011 I"
b0 `"
1H"
b1101 a"
1B
#93
0B
#94
b1001 `"
bz G"
bz K"
bz _"
0H"
b0 a"
1B
#95
0B
#96
bz F
bz Y
bz 8#
b1010 `"
b11111110zzzzzzzzzzzzzzzzzzzzzzzz G"
b11111110zzzzzzzzzzzzzzzzzzzzzzzz K"
b11111110zzzzzzzzzzzzzzzzzzzzzzzz _"
0L
b1 T
b1 d"
b0 R
b0 ."
b0 c"
1$"
0%"
b11000 O
b11000 F"
b10011 N
b10011 +"
b1 J
b1 )"
b1 2#
b1101 H
b1101 ("
b0 y
b0 3#
b1001 a"
b10100 ^
b10100 C"
b10100 J"
b10000 \
b101101000011010010011 n
b101101000011010010011 #"
b101101000011010010011 b"
b1100 ]
b1100 1"
b1100 7"
b1110 ~
b1000 _
b0 x
b1101 !"
b1101 4#
b101 q
bz m
b0 j
b110011 v
b100 `
1B
1A
#97
0B
#98
b1011 `"
b1111111011000110zzzzzzzzzzzzzzzz G"
b1111111011000110zzzzzzzzzzzzzzzz K"
b1111111011000110zzzzzzzzzzzzzzzz _"
b1010 a"
1B
#99
0B
#100
b1100 `"
b111111101100011011001100zzzzzzzz G"
b111111101100011011001100zzzzzzzz K"
b111111101100011011001100zzzzzzzz _"
b1011 a"
1B
#101
0B
#102
b1101 `"
b11111110110001101100110011100011 G"
b11111110110001101100110011100011 K"
b11111110110001101100110011100011 _"
b1100 a"
1B
0A
#103
0B
#104
b11111110110001101100110011100011 S
b11111110110001101100110011100011 I"
b0 `"
1H"
b1101 a"
1B
#105
0B
#106
b1001 `"
bz G"
bz K"
bz _"
0H"
b0 a"
1B
#107
0B
#108
b1100101 F
b1100101 Y
b1100101 8#
b1010 `"
b110zzzzzzzzzzzzzzzzzzzzzzzz G"
b110zzzzzzzzzzzzzzzzzzzzzzzz K"
b110zzzzzzzzzzzzzzzzzzzzzzzz _"
0I
1L
b1 R
b1 ."
b1 c"
0$"
b1 G
b1 W
b1 >"
b1 B"
b1 @"
b1100011 N
b1100011 +"
1""
1-"
b1111111 U
b1111111 /"
b100 V
b100 0"
b1100 J
b1100 )"
b1100 2#
b11001 H
b11001 ("
b11111111111111111111111111111000 T
b11111111111111111111111111111000 d"
b11100 O
b11100 F"
b1001 a"
b1110 !"
b1110 4#
b1000 `
b1100 _
bz c
bz ="
bz j"
b1101 }
b0 o
b0 g"
b1 k
b1 2"
b1 :"
b10011 t
b10011 3"
b10011 ;"
b10011 h"
b10000 ]
b10000 1"
b10000 7"
b10100 \
b11111110110001101100110011100011 n
b11111110110001101100110011100011 #"
b11111110110001101100110011100011 b"
b11000 ^
b11000 C"
b11000 J"
1B
1A
#109
0B
#110
b1011 `"
b11011100000zzzzzzzzzzzzzzzz G"
b11011100000zzzzzzzzzzzzzzzz K"
b11011100000zzzzzzzzzzzzzzzz _"
b1010 a"
1B
#111
0B
#112
b1100 `"
b1101110000000100010zzzzzzzz G"
b1101110000000100010zzzzzzzz K"
b1101110000000100010zzzzzzzz _"
b1011 a"
1B
#113
0B
#114
b1101 `"
b110111000000010001000100011 G"
b110111000000010001000100011 K"
b110111000000010001000100011 _"
b1100 a"
1B
0A
#115
0B
#116
b110111000000010001000100011 S
b110111000000010001000100011 I"
b0 `"
1H"
b1101 a"
1B
#117
0B
#118
b1001 `"
bz G"
bz K"
bz _"
0H"
b0 a"
1B
#119
0B
#120
b0 F
b0 Y
b0 8#
b1010 `"
bxzzzzzzzzzzzzzzzzzzzzzzzz G"
bxzzzzzzzzzzzzzzzzzzzzzzzz K"
bxzzzzzzzzzzzzzzzzzzzzzzzz _"
b10 R
b10 ."
b10 c"
1&"
1Q
b100000 O
b100000 F"
b100011 N
b100011 +"
0""
0-"
b11 U
b11 /"
b10 V
b10 0"
b0 K
b0 *"
b0 1#
b1110 J
b1110 )"
b1110 2#
b100 H
b100 ("
b1100100 T
b1100100 d"
b11111111111111111111111111111000 B"
bz G
bz W
bz >"
1k"
b10 l"
b1100 X
b1100 5"
b10100 6"
0w"
b0 u"
b0 z"
b1001 a"
b11100 ^
b11100 C"
b11100 J"
b11000 \
b110111000000010001000100011 n
b110111000000010001000100011 #"
b110111000000010001000100011 b"
b1100101 c
b1100101 ="
b1100101 j"
0z
b11001 }
b1 o
b1 g"
b11111111111111111111111111111000 k
b11111111111111111111111111111000 2"
b11111111111111111111111111111000 :"
b1111111 h
b1111111 9"
b1111111 f"
b100 e
b100 8"
b100 e"
b1100011 t
b1100011 3"
b1100011 ;"
b1100011 h"
b10100 ]
b10100 1"
b10100 7"
b1 w
bz d
bz r"
b1101 ~
b0 p
b1 l
b10011 u
b10011 q"
b10000 _
b1100 `
1B
1A
#121
0B
#122
b1011 `"
bxzzzzzzzzzzzzzzzz G"
bxzzzzzzzzzzzzzzzz K"
bxzzzzzzzzzzzzzzzz _"
b1010 a"
1B
#123
0B
#124
b1100 `"
bxzzzzzzzz G"
bxzzzzzzzz K"
bxzzzzzzzz _"
b1011 a"
1B
#125
0B
#126
b1101 `"
bx G"
bx K"
bx _"
b1100 a"
1B
0A
#127
0B
#128
bx S
bx I"
b0 `"
1H"
b1101 a"
1B
#129
0B
#130
b1001 `"
bz G"
bz K"
bz _"
0H"
b0 a"
1B
#131
0B
#132
bx F
bx Y
bx 8#
bx E
bx Z
bx 7#
b1010 `"
bxzzzzzzzzzzzzzzzzzzzzzzzz G"
bxzzzzzzzzzzzzzzzzzzzzzzzz K"
bxzzzzzzzzzzzzzzzzzzzzzzzz _"
bx R
bx ."
bx c"
0Q
x$"
x%"
x&"
x'"
b1 y
b1 3#
b1100 x"
0w"
b0 u"
b0 z"
b1100100 B"
0k"
b0 6"
bx N
bx +"
x""
x-"
x,"
bx U
bx /"
bx V
bx 0"
bx K
bx *"
bx 1#
bx J
bx )"
bx 2#
bx H
bx ("
bz T
bz d"
b1100 O
b1100 F"
b1001 a"
b1 x
b1101 !"
b1101 4#
b0 q
b1 m
b10011 v
b10000 `
1r
bz w
b1100101 d
b1100101 r"
b1100 a
b1100 D"
b1100 n"
0{
b11001 ~
b1 p
b11111111111111111111111111111000 l
b1111111 i
b100 f
b100 p"
b1100011 u
b1100011 q"
b10100 _
b0 c
b0 ="
b0 j"
b100 }
b10 o
b10 g"
b1100100 X
b1100100 5"
b1100100 k
b1100100 2"
b1100100 :"
b11 h
b11 9"
b11 f"
b10 e
b10 8"
b10 e"
b100011 t
b100011 3"
b100011 ;"
b100011 h"
b11000 ]
b11000 1"
b11000 7"
b11100 \
bx n
bx #"
bx b"
b100000 ^
b100000 C"
b100000 J"
1B
1A
#133
0B
#134
b1011 `"
bxzzzzzzzzzzzzzzzz G"
bxzzzzzzzzzzzzzzzz K"
bxzzzzzzzzzzzzzzzz _"
b1010 a"
1B
#135
0B
#136
b1100 `"
bxzzzzzzzz G"
bxzzzzzzzz K"
bxzzzzzzzz _"
b1011 a"
1B
#137
0B
#138
b1101 `"
bx G"
bx K"
bx _"
b1100 a"
b1 &
1B
0A
#139
0B
#140
b0 `"
1H"
b1101 a"
1B
#141
0B
#142
b1001 `"
bz G"
bz K"
bz _"
0H"
b0 a"
1B
#143
0B
#144
b1001 /#
b1010 `"
b0zzzzzzzzzzzzzzzzzzzzzzzz G"
b0zzzzzzzzzzzzzzzzzzzzzzzz K"
b0zzzzzzzzzzzzzzzzzzzzzzzz _"
bz B"
bx G
bx W
bx >"
b0z 6"
bx A"
b10000 O
b10000 F"
b1100100 x"
1w"
b1111 u"
b1111 z"
1t"
b0 o"
b0 y"
b1001 a"
b1100 ^
b1100 C"
b1100 J"
b100000 \
bx c
bx ="
bx j"
bx b
bx 4"
bx <"
bx i"
bx }
bx o
bx g"
bx X
bx 5"
bz k
bz 2"
bz :"
bx h
bx 9"
bx f"
bx e
bx 8"
bx e"
bx t
bx 3"
bx ;"
bx h"
b11100 ]
b11100 1"
b11100 7"
0r
b0 d
b0 r"
b1100100 a
b1100100 D"
b1100100 n"
b100 ~
b10 p
b1100100 l
b11 i
b10 f
b10 p"
b100011 u
b100011 q"
b11000 _
bz x
0|
b11001 !"
b11001 4#
b1 q
b11111111111111111111111111111000 m
b1111111 j
b100 g
b1100011 v
b10100 `
1B
1A
#145
0B
#146
b1010 /#
b1011 `"
b11100110zzzzzzzzzzzzzzzz G"
b11100110zzzzzzzzzzzzzzzz K"
b11100110zzzzzzzzzzzzzzzz _"
b1001 0#
b1010 a"
1B
#147
0B
#148
b1100 `"
b1110011010000111zzzzzzzz G"
b1110011010000111zzzzzzzz K"
b1110011010000111zzzzzzzz _"
b1011 /#
b1011 a"
b1010 0#
1B
#149
0B
#150
b1100 /#
b1101 `"
b111001101000011100110011 G"
b111001101000011100110011 K"
b111001101000011100110011 _"
b1011 0#
b1100 a"
1B
0A
#151
0B
#152
b111001101000011100110011 S
b111001101000011100110011 I"
b0 `"
1H"
b1101 /#
b1101 a"
b1100 0#
1B
#153
0B
#154
b0 /#
1s"
b1001 `"
bz G"
bz K"
bz _"
0H"
b1101 0#
b0 a"
1B
#155
0B
