phoeniX.vcd
$date
	Sun Aug 20 22:29:25 2023
$end
$version
	Icarus Verilog
$end
$timescale
	100ps
$end
$scope module phoeniX_Testbench $end
$var wire 32 ! x0 [31:0] $end
$var wire 32 " x1 [31:0] $end
$var wire 32 # x10 [31:0] $end
$var wire 32 $ x11 [31:0] $end
$var wire 32 % x12 [31:0] $end
$var wire 32 & x2 [31:0] $end
$var wire 32 ' x3 [31:0] $end
$var wire 32 ( x4 [31:0] $end
$var wire 32 ) x5 [31:0] $end
$var wire 32 * x6 [31:0] $end
$var wire 32 + x7 [31:0] $end
$var reg 1 , CLK $end
$var reg 1 - CLK_MEM $end
$var reg 1 . reset $end
$scope module uut $end
$var wire 1 , CLK $end
$var wire 1 - CLK_MEM $end
$var wire 32 / bus_rs1_decode_wire [31:0] $end
$var wire 32 0 bus_rs2_decode_wire [31:0] $end
$var wire 32 1 load_data_memory_wire [31:0] $end
$var wire 1 . reset $end
$var wire 32 2 result_execute_wire [31:0] $end
$var wire 5 3 write_index_decode_wire [4:0] $end
$var wire 1 4 write_enable_decode_wire $end
$var wire 5 5 read_index_2_decode_wire [4:0] $end
$var wire 5 6 read_index_1_decode_wire [4:0] $end
$var wire 1 7 read_enable_2_decode_wire $end
$var wire 1 8 read_enable_1_decode_wire $end
$var wire 7 9 opcode_decode_wire [6:0] $end
$var wire 32 : next_PC_wire [31:0] $end
$var wire 1 ; jump_branch_enable_execute_wire $end
$var wire 3 < instruction_type_decode_wire [2:0] $end
$var wire 32 = instruction_fetch_wire [31:0] $end
$var wire 32 > immediate_decode_wire [31:0] $end
$var wire 7 ? funct7_decode_wire [6:0] $end
$var wire 3 @ funct3_decode_wire [2:0] $end
$var wire 32 A alu_output_execute_wire [31:0] $end
$var wire 32 B address_execute_wire [31:0] $end
$var wire 32 C RF_source_2 [31:0] $end
$var wire 32 D RF_source_1 [31:0] $end
$var parameter 32 E RESET_ADDRESS $end
$var reg 32 F PC_decode_reg [31:0] $end
$var reg 32 G PC_execute_reg [31:0] $end
$var reg 32 H PC_fetch_reg [31:0] $end
$var reg 32 I PC_memory_reg [31:0] $end
$var reg 32 J PC_writeback_reg [31:0] $end
$var reg 32 K address_memory_reg [31:0] $end
$var reg 32 L bus_rs1 [31:0] $end
$var reg 32 M bus_rs2 [31:0] $end
$var reg 32 N bus_rs2_memory_reg [31:0] $end
$var reg 3 O funct3_execute_reg [2:0] $end
$var reg 3 P funct3_memory_reg [2:0] $end
$var reg 3 Q funct3_writeback_reg [2:0] $end
$var reg 7 R funct7_execute_reg [6:0] $end
$var reg 7 S funct7_memory_reg [6:0] $end
$var reg 7 T funct7_writeback_reg [6:0] $end
$var reg 32 U immediate_execute_reg [31:0] $end
$var reg 32 V immediate_memory_reg [31:0] $end
$var reg 32 W immediate_writeback_reg [31:0] $end
$var reg 32 X instruction_decode_reg [31:0] $end
$var reg 3 Y instruction_type_execute_reg [2:0] $end
$var reg 3 Z instruction_type_memory_reg [2:0] $end
$var reg 3 [ instruction_type_writeback_reg [2:0] $end
$var reg 1 \ jump_branch_enable_memory_reg $end
$var reg 32 ] load_data_writeback_reg [31:0] $end
$var reg 7 ^ opcode_execute_reg [6:0] $end
$var reg 7 _ opcode_memory_reg [6:0] $end
$var reg 7 ` opcode_writeback_reg [6:0] $end
$var reg 32 a result_memory_reg [31:0] $end
$var reg 32 b result_writeback_reg [31:0] $end
$var reg 32 c write_data_writeback_reg [31:0] $end
$var reg 1 d write_enable_execute_reg $end
$var reg 1 e write_enable_memory_reg $end
$var reg 1 f write_enable_writeback_reg $end
$var reg 5 g write_index_execute_reg [4:0] $end
$var reg 5 h write_index_memory_reg [4:0] $end
$var reg 5 i write_index_writeback_reg [4:0] $end
$scope module Instruction_Decoder $end
$var wire 1 j branch_signal $end
$var wire 32 k instruction [31:0] $end
$var wire 1 l instruction_type_i $end
$var wire 1 m instruction_type_r $end
$var wire 1 n instruction_type_s $end
$var wire 1 o instruction_type_u $end
$var wire 5 p write_index [4:0] $end
$var wire 5 q read_index_2 [4:0] $end
$var wire 5 r read_index_1 [4:0] $end
$var wire 7 s opcode [6:0] $end
$var wire 1 t instruction_type_j $end
$var wire 1 u instruction_type_b $end
$var wire 3 v instruction_type [2:0] $end
$var wire 7 w funct7 [6:0] $end
$var wire 3 x funct3 [2:0] $end
$var reg 1 8 read_enable_1 $end
$var reg 1 7 read_enable_2 $end
$var reg 1 4 write_enable $end
$upscope $end
$scope module address_generator $end
$var wire 32 y PC [31:0] $end
$var wire 32 z immediate [31:0] $end
$var wire 7 { opcode [6:0] $end
$var wire 32 | rs1 [31:0] $end
$var wire 32 } address [31:0] $end
$var reg 32 ~ value [31:0] $end
$upscope $end
$scope module arithmetic_logic_unit $end
$var wire 32 !" PC [31:0] $end
$var wire 3 "" funct3 [2:0] $end
$var wire 7 #" funct7 [6:0] $end
$var wire 32 $" immediate [31:0] $end
$var wire 7 %" opcode [6:0] $end
$var wire 32 &" rs1 [31:0] $end
$var wire 32 '" rs2 [31:0] $end
$var reg 32 (" alu_output [31:0] $end
$var reg 1 )" mux1_select $end
$var reg 2 *" mux2_select [1:0] $end
$var reg 32 +" operand_1 [31:0] $end
$var reg 32 ," operand_2 [31:0] $end
$upscope $end
$scope module fetch_unit $end
$var wire 1 - CLK $end
$var wire 32 -" PC [31:0] $end
$var wire 32 ." address [31:0] $end
$var wire 1 /" enable $end
$var wire 1 \ jump_branch_enable $end
$var wire 32 0" next_PC [31:0] $end
$var wire 32 1" fetched_instruction_wire [31:0] $end
$var wire 1 2" fetch_done $end
$var reg 32 3" fetched_instruction [31:0] $end
$scope module instruction_memory $end
$var wire 1 - CLK $end
$var wire 32 4" address [31:0] $end
$var wire 32 5" data [31:0] $end
$var wire 1 /" enable $end
$var wire 4 6" frame_mask [3:0] $end
$var wire 1 7" memory_state $end
$var parameter 4 8" B_0001 $end
$var parameter 4 9" B_0010 $end
$var parameter 4 :" B_0100 $end
$var parameter 4 ;" B_1000 $end
$var parameter 4 <" FINISH $end
$var parameter 4 =" H_0011_1 $end
$var parameter 4 >" H_0011_2 $end
$var parameter 4 ?" H_1100_1 $end
$var parameter 4 @" H_1100_2 $end
$var parameter 1 A" READ $end
$var parameter 4 B" STABLE $end
$var parameter 1 C" WRITE $end
$var parameter 4 D" W_1111_1 $end
$var parameter 4 E" W_1111_2 $end
$var parameter 4 F" W_1111_3 $end
$var parameter 4 G" W_1111_4 $end
$var reg 32 H" data_in [31:0] $end
$var reg 1 2" memory_done $end
$var reg 4 I" next_state [3:0] $end
$var reg 4 J" state [3:0] $end
$upscope $end
$upscope $end
$scope module immediate_generator $end
$var wire 32 K" instruction [31:0] $end
$var wire 3 L" instruction_type [2:0] $end
$var reg 32 M" immediate [31:0] $end
$upscope $end
$scope module jump_branch_unit $end
$var wire 3 N" funct3 [2:0] $end
$var wire 7 O" funct7 [6:0] $end
$var wire 3 P" instruction_type [2:0] $end
$var wire 1 ; jump_branch_enable $end
$var wire 7 Q" opcode [6:0] $end
$var wire 32 R" rs1 [31:0] $end
$var wire 32 S" rs2 [31:0] $end
$var reg 1 T" branch_enable $end
$var reg 3 U" branch_type [2:0] $end
$var reg 1 V" jump_enable $end
$upscope $end
$scope module register_file $end
$var wire 1 , CLK $end
$var wire 1 8 read_enable_1 $end
$var wire 1 7 read_enable_2 $end
$var wire 5 W" read_index_1 [4:0] $end
$var wire 5 X" read_index_2 [4:0] $end
$var wire 1 . reset $end
$var wire 32 Y" write_data [31:0] $end
$var wire 1 f write_enable $end
$var wire 5 Z" write_index [4:0] $end
$var parameter 32 [" DEPTH $end
$var parameter 32 \" WIDTH $end
$var reg 32 ]" read_data_1 [31:0] $end
$var reg 32 ^" read_data_2 [31:0] $end
$var integer 32 _" i [31:0] $end
$upscope $end
$upscope $end
$upscope $end
$enddefinitions $end
$comment Show the parameter values. $end
$dumpall
b100000 \"
b101 ["
b1100 G"
b1011 F"
b1010 E"
b1001 D"
1C"
b0 B"
0A"
b1000 @"
b111 ?"
b110 >"
b101 ="
b1101 <"
b100 ;"
b11 :"
b10 9"
b1 8"
b11111111111111111111111111111100 E
$end
#0
$dumpvars
b11111 _"
bz ^"
bz ]"
bx Z"
bx Y"
bx X"
bx W"
0V"
bx U"
0T"
bx S"
bx R"
bx Q"
bz P"
bx O"
bx N"
bz M"
bx L"
bx K"
b0 J"
b1001 I"
bz H"
07"
b1111 6"
bz 5"
b11111111111111111111111111111100 4"
bx 3"
02"
bz 1"
bx 0"
0/"
bx ."
b11111111111111111111111111111100 -"
bx ,"
bx +"
bx *"
x)"
bx ("
bx '"
bx &"
bx %"
bx $"
bx #"
bx ""
bx !"
bx ~
bx }
bx |
bx {
bx z
bx y
bx x
bx w
bx v
xu
xt
bx s
bx r
bx q
bx p
xo
xn
xm
xl
bx k
xj
bx i
bx h
bx g
xf
xe
xd
bx c
bx b
bx a
bx `
bx _
bx ^
bz ]
x\
bx [
bx Z
bz Y
bx X
bx W
bx V
bx U
bx T
bx S
bx R
bx Q
bx P
bx O
bx N
bx M
bx L
bx K
bx J
bx I
b11111111111111111111111111111100 H
bx G
bx F
bz D
bz C
bx B
bx A
bx @
bx ?
bz >
bx =
bx <
0;
bx :
bx 9
x8
x7
bx 6
bx 5
x4
bx 3
bx 2
bz 1
bz 0
bz /
1.
1-
1,
b0 +
b0 *
b0 )
b0 (
b0 '
b0 &
b0 %
b0 $
b0 #
b0 "
b0 !
$end
#10
0-
#20
1-
#30
0-
#40
1-
#50
0-
#60
1-
0,
#70
0-
#80
1-
#90
0-
#100
1-
#110
0-
#120
b0 :
b0 0"
b0z ~
0\
bz Z
bz M
bz '"
bz S"
bz L
bz |
bz &"
bz R"
bx Y
bx P"
bz U
bz z
bz $"
b11111111111111111111111111111100 F
1-
1,
#130
0-
#140
1-
#150
0-
#160
1-
#170
0-
#180
1-
0,
#190
0-
#200
1-
#210
0-
#220
1-
#230
0-
#240
b11111111111111111111111111111100 G
b11111111111111111111111111111100 y
b11111111111111111111111111111100 !"
bz N
bx Z
bz V
bz [
1-
1,
#250
0-
#260
1-
#270
0-
#280
1-
#290
0-
#300
1-
0,
#310
0-
#320
1-
#330
0-
#340
1-
#350
0-
#360
b1010 I"
b0zzzzzzzzzzzzzzzzzzzzzzzz 1"
b0zzzzzzzzzzzzzzzzzzzzzzzz 5"
b0zzzzzzzzzzzzzzzzzzzzzzzz H"
b100 :
b100 0"
b1001 J"
bx [
bz W
b11111111111111111111111111111100 I
b0 H
b0 -"
b0 4"
1-
1,
1/"
0.
#370
0-
#380
b1011 I"
b0zzzzzzzzzzzzzzzz 1"
b0zzzzzzzzzzzzzzzz 5"
b0zzzzzzzzzzzzzzzz H"
b1010 J"
1-
#390
0-
#400
b1100 I"
b0zzzzzzzz 1"
b0zzzzzzzz 5"
b0zzzzzzzz H"
b1011 J"
1-
#410
0-
#420
b1101 I"
b10110011 1"
b10110011 5"
b10110011 H"
b1100 J"
1-
0,
#430
0-
#440
b10110011 =
b10110011 3"
b0 I"
12"
b1101 J"
1-
#450
0-
#460
b1001 I"
bz 1"
bz 5"
bz H"
02"
b0 J"
1-
#470
0-
#480
b0 0
b0 C
b0 ^"
b0 /
b0 D
b0 ]"
b1010 I"
b0zzzzzzzzzzzzzzzzzzzzzzzz 1"
b0zzzzzzzzzzzzzzzzzzzzzzzz 5"
b0zzzzzzzzzzzzzzzzzzzzzzzz H"
14
17
18
b101 <
b101 v
b101 L"
0l
1m
0n
0o
b1000 :
b1000 0"
b110011 9
b110011 s
0j
0u
0t
b0 ?
b0 w
b0 @
b0 x
b0 6
b0 r
b0 W"
b0 5
b0 q
b0 X"
b1 3
b1 p
b1 Z"
b1001 J"
b100 H
b100 -"
b100 4"
b0 F
b10110011 X
b10110011 k
b10110011 K"
b11111111111111111111111111111100 J
1-
1,
#490
0-
#500
b1011 I"
b0zzzzzzzzzzzzzzzz 1"
b0zzzzzzzzzzzzzzzz 5"
b0zzzzzzzzzzzzzzzz H"
b1010 J"
1-
#510
0-
#520
b1100 I"
b11zzzzzzzz 1"
b11zzzzzzzz 5"
b11zzzzzzzz H"
b1011 J"
1-
#530
0-
#540
b1101 I"
b1110110011 1"
b1110110011 5"
b1110110011 H"
b1100 J"
1-
0,
#550
0-
#560
b1110110011 =
b1110110011 3"
b0 I"
12"
b1101 J"
1-
#570
0-
#580
b1001 I"
bz 1"
bz 5"
bz H"
02"
b0 J"
1-
#590
0-
#600
b1010 I"
b0zzzzzzzzzzzzzzzzzzzzzzzz 1"
b0zzzzzzzzzzzzzzzzzzzzzzzz 5"
b0zzzzzzzzzzzzzzzzzzzzzzzz H"
b0 2
b0 A
b0 ("
b0 +"
b0 ,"
b0 *"
0)"
b111 3
b111 p
b111 Z"
b1100 :
b1100 0"
b1001 J"
b0 M
b0 '"
b0 S"
b0 L
b0 |
b0 &"
b0 R"
1d
b1 g
b101 Y
b101 P"
b0 R
b0 #"
b0 O"
b0 O
b0 ""
b0 N"
b110011 ^
b110011 {
b110011 %"
b110011 Q"
b0 G
b0 y
b0 !"
b100 F
b1110110011 X
b1110110011 k
b1110110011 K"
b1000 H
b1000 -"
b1000 4"
1-
1,
#610
0-
#620
b1011 I"
b10000zzzzzzzzzzzzzzzz 1"
b10000zzzzzzzzzzzzzzzz 5"
b10000zzzzzzzzzzzzzzzz H"
b1010 J"
1-
#630
0-
#640
b1100 I"
b1000000000001zzzzzzzz 1"
b1000000000001zzzzzzzz 5"
b1000000000001zzzzzzzz H"
b1011 J"
1-
#650
0-
#660
b1101 I"
b100000000000100010011 1"
b100000000000100010011 5"
b100000000000100010011 H"
b1100 J"
1-
0,
#670
0-
#680
b100000000000100010011 =
b100000000000100010011 3"
b0 I"
12"
b1101 J"
1-
#690
0-
#700
b1001 I"
bz 1"
bz 5"
bz H"
02"
b0 J"
1-
#710
0-
#720
bz 0
bz C
bz ^"
b1010 I"
b0zzzzzzzzzzzzzzzzzzzzzzzz 1"
b0zzzzzzzzzzzzzzzzzzzzzzzz 5"
b0zzzzzzzzzzzzzzzzzzzzzzzz H"
07
b1 >
b1 M"
b0 <
b0 v
b0 L"
1l
0m
b10000 :
b10000 0"
b10011 9
b10011 s
b1 5
b1 q
b1 X"
b10 3
b10 p
b10 Z"
b1001 J"
b1100 H
b1100 -"
b1100 4"
b1000 F
b100000000000100010011 X
b100000000000100010011 k
b100000000000100010011 K"
b111 g
b100 G
b100 y
b100 !"
b0 a
b0 N
1e
b1 h
b101 Z
b0 S
b0 P
b110011 _
b0 I
1-
1,
#730
0-
#740
b1011 I"
b100000zzzzzzzzzzzzzzzz 1"
b100000zzzzzzzzzzzzzzzz 5"
b100000zzzzzzzzzzzzzzzz H"
b1010 J"
1-
#750
0-
#760
b1100 I"
b10000000000001zzzzzzzz 1"
b10000000000001zzzzzzzz 5"
b10000000000001zzzzzzzz H"
b1011 J"
1-
#770
0-
#780
b1101 I"
b1000000000000110010011 1"
b1000000000000110010011 5"
b1000000000000110010011 H"
b1100 J"
1-
0,
#790
0-
#800
b1000000000000110010011 =
b1000000000000110010011 3"
b0 I"
12"
b1101 J"
1-
#810
0-
#820
b1001 I"
bz 1"
bz 5"
bz H"
02"
b0 J"
1-
#830
0-
#840
b1010 I"
b0zzzzzzzzzzzzzzzzzzzzzzzz 1"
b0zzzzzzzzzzzzzzzzzzzzzzzz 5"
b0zzzzzzzzzzzzzzzzzzzzzzzz H"
b1 2
b1 A
b1 ("
b0 c
b0 Y"
b1 ,"
b1 *"
b10 5
b10 q
b10 X"
b11 3
b11 p
b11 Z"
b10 >
b10 M"
b10100 :
b10100 0"
b1001 J"
b0 b
1f
b1 i
b101 [
b0 T
b0 Q
b110011 `
b0 J
b111 h
b100 I
bz M
bz '"
bz S"
b10 g
b0 Y
b0 P"
b1 U
b1 z
b1 $"
b10011 ^
b10011 {
b10011 %"
b10011 Q"
b1000 G
b1000 y
b1000 !"
b1100 F
b1000000000000110010011 X
b1000000000000110010011 k
b1000000000000110010011 K"
b10000 H
b10000 -"
b10000 4"
1-
1,
#850
0-
#860
b1011 I"
b0zzzzzzzzzzzzzzzz 1"
b0zzzzzzzzzzzzzzzz 5"
b0zzzzzzzzzzzzzzzz H"
b1010 J"
1-
#870
0-
#880
b1100 I"
b0zzzzzzzz 1"
b0zzzzzzzz 5"
b0zzzzzzzz H"
b1011 J"
1-
#890
0-
#900
b1101 I"
b10011 1"
b10011 5"
b10011 H"
b1100 J"
1-
0,
#910
0-
#920
b10011 =
b10011 3"
b0 I"
12"
b1101 J"
1-
#930
0-
#940
b1001 I"
bz 1"
bz 5"
bz H"
02"
b0 J"
1-
#950
0-
#960
b1010 I"
b0zzzzzzzzzzzzzzzzzzzzzzzz 1"
b0zzzzzzzzzzzzzzzzzzzzzzzz 5"
b0zzzzzzzzzzzzzzzzzzzzzzzz H"
b10 2
b10 A
b10 ("
b11000 :
b11000 0"
b0 5
b0 q
b0 X"
b0 3
b0 p
b0 Z"
b0 >
b0 M"
b10 ,"
b1001 J"
b10100 H
b10100 -"
b10100 4"
b10000 F
b10011 X
b10011 k
b10011 K"
b11 g
b10 U
b10 z
b10 $"
b1100 G
b1100 y
b1100 !"
b1 a
bz N
b10 h
b0 Z
b1 V
b10011 _
b1000 I
b111 i
b100 J
1-
1,
#970
0-
#980
b1011 I"
b0zzzzzzzzzzzzzzzz 1"
b0zzzzzzzzzzzzzzzz 5"
b0zzzzzzzzzzzzzzzz H"
b1010 J"
1-
#990
0-
#1000
b1100 I"
b0zzzzzzzz 1"
b0zzzzzzzz 5"
b0zzzzzzzz H"
b1011 J"
1-
#1010
0-
#1020
b1101 I"
b10011 1"
b10011 5"
b10011 H"
b1100 J"
1-
0,
#1030
0-
#1040
b0 I"
12"
b1101 J"
1-
#1050
0-
#1060
b1001 I"
bz 1"
bz 5"
bz H"
02"
b0 J"
1-
#1070
0-
#1080
b1010 I"
b0zzzzzzzzzzzzzzzzzzzzzzzz 1"
b0zzzzzzzzzzzzzzzzzzzzzzzz 5"
b0zzzzzzzzzzzzzzzzzzzzzzzz H"
b0 2
b0 A
b0 ("
b1 c
b1 Y"
b0 ,"
b11100 :
b11100 0"
b1001 J"
b1 b
b10 i
b0 [
b1 W
b10011 `
b1000 J
b10 a
b11 h
b10 V
b1100 I
b0 g
b0 U
b0 z
b0 $"
b10000 G
b10000 y
b10000 !"
b10100 F
b11000 H
b11000 -"
b11000 4"
1-
1,
#1090
0-
#1100
b1011 I"
b110001zzzzzzzzzzzzzzzz 1"
b110001zzzzzzzzzzzzzzzz 5"
b110001zzzzzzzzzzzzzzzz H"
b1010 J"
1-
#1110
0-
#1120
b1100 I"
b11000100000010zzzzzzzz 1"
b11000100000010zzzzzzzz 5"
b11000100000010zzzzzzzz H"
b1011 J"
1-
#1130
0-
#1140
b1101 I"
b1100010000001000110011 1"
b1100010000001000110011 5"
b1100010000001000110011 H"
b1100 J"
1-
0,
#1150
0-
#1160
b1100010000001000110011 =
b1100010000001000110011 3"
b0 I"
12"
b1101 J"
1-
#1170
0-
#1180
b1001 I"
bz 1"
bz 5"
bz H"
02"
b0 J"
1-
#1190
0-
#1200
b0 0
b0 C
b0 ^"
b1010 I"
b0zzzzzzzzzzzzzzzzzzzzzzzz 1"
b0zzzzzzzzzzzzzzzzzzzzzzzz 5"
b0zzzzzzzzzzzzzzzzzzzzzzzz H"
17
b101 <
b101 v
b101 L"
0l
1m
b100000 :
b100000 0"
b110011 9
b110011 s
b10 6
b10 r
b10 W"
b11 5
b11 q
b11 X"
b100 3
b100 p
b100 Z"
bz >
bz M"
b10 c
b10 Y"
b1001 J"
b11100 H
b11100 -"
b11100 4"
b11000 F
b1100010000001000110011 X
b1100010000001000110011 k
b1100010000001000110011 K"
b10100 G
b10100 y
b10100 !"
b0 a
b0 h
b0 V
b10000 I
b10 b
b11 i
b10 W
b1100 J
1-
1,
#1210
0-
#1220
b1011 I"
b10zzzzzzzzzzzzzzzz 1"
b10zzzzzzzzzzzzzzzz 5"
b10zzzzzzzzzzzzzzzz H"
b1010 J"
1-
#1230
0-
#1240
b1100 I"
b1000100010zzzzzzzz 1"
b1000100010zzzzzzzz 5"
b1000100010zzzzzzzz H"
b1011 J"
1-
#1250
0-
#1260
b1101 I"
b100010001010000011 1"
b100010001010000011 5"
b100010001010000011 H"
b1100 J"
b10 (
1-
0,
#1270
0-
#1280
b100010001010000011 =
b100010001010000011 3"
b0 I"
12"
b1101 J"
1-
#1290
0-
#1300
b1001 I"
bz 1"
bz 5"
bz H"
02"
b0 J"
1-
#1310
0-
#1320
bz 0
bz C
bz ^"
b10 /
b10 D
b10 ]"
b1010 I"
b11111110zzzzzzzzzzzzzzzzzzzzzzzz 1"
b11111110zzzzzzzzzzzzzzzzzzzzzzzz 5"
b11111110zzzzzzzzzzzzzzzzzzzzzzzz H"
07
b0 >
b0 M"
b0 <
b0 v
b0 L"
1l
0m
b0 c
b0 Y"
b0 *"
b11 9
b11 s
b10 @
b10 x
b100 6
b100 r
b100 W"
b0 5
b0 q
b0 X"
b101 3
b101 p
b101 Z"
b100100 :
b100100 0"
b1001 J"
b0 b
b0 i
b0 W
b10000 J
b10100 I
b0 M
b0 '"
b0 S"
b100 g
b101 Y
b101 P"
bz U
bz z
bz $"
b110011 ^
b110011 {
b110011 %"
b110011 Q"
b11000 G
b11000 y
b11000 !"
b11100 F
b100010001010000011 X
b100010001010000011 k
b100010001010000011 K"
b100000 H
b100000 -"
b100000 4"
1-
1,
#1330
0-
#1340
b1011 I"
b1111111000110001zzzzzzzzzzzzzzzz 1"
b1111111000110001zzzzzzzzzzzzzzzz 5"
b1111111000110001zzzzzzzzzzzzzzzz H"
b1010 J"
1-
#1350
0-
#1360
b1100 I"
b111111100011000100000100zzzzzzzz 1"
b111111100011000100000100zzzzzzzz 5"
b111111100011000100000100zzzzzzzz H"
b1011 J"
1-
#1370
0-
#1380
b1101 I"
b11111110001100010000010011100011 1"
b11111110001100010000010011100011 5"
b11111110001100010000010011100011 H"
b1100 J"
1-
0,
#1390
0-
#1400
b11111110001100010000010011100011 =
b11111110001100010000010011100011 3"
b0 I"
12"
b1101 J"
1-
#1410
0-
#1420
b1001 I"
bz 1"
bz 5"
bz H"
02"
b0 J"
1-
#1430
0-
#1440
b0 0
b0 C
b0 ^"
b0 /
b0 D
b0 ]"
b1010 I"
bxzzzzzzzzzzzzzzzzzzzzzzzz 1"
bxzzzzzzzzzzzzzzzzzzzzzzzz 5"
bxzzzzzzzzzzzzzzzzzzzzzzzz H"
04
17
b1 <
b1 v
b1 L"
0l
b101000 :
b101000 0"
b1100011 9
b1100011 s
1j
1u
b1111111 ?
b1111111 w
b0 @
b0 x
b10 6
b10 r
b10 W"
b11 5
b11 q
b11 X"
b1001 3
b1001 p
b1001 Z"
b11111111111111111111111111101000 >
b11111111111111111111111111101000 M"
bz ,"
bz 2
bz A
bz ("
b10 B
b10 }
b10 ~
b10 +"
b1001 J"
b100100 H
b100100 -"
b100100 4"
b100000 F
b11111110001100010000010011100011 X
b11111110001100010000010011100011 k
b11111110001100010000010011100011 K"
bz M
bz '"
bz S"
b10 L
b10 |
b10 &"
b10 R"
b101 g
b0 Y
b0 P"
b0 U
b0 z
b0 $"
b10 O
b10 ""
b10 N"
b11 ^
b11 {
b11 %"
b11 Q"
b11100 G
b11100 y
b11100 !"
b0 N
b100 h
b101 Z
bz V
b110011 _
b11000 I
b10100 J
1-
1,
#1450
0-
#1460
b1011 I"
bxzzzzzzzzzzzzzzzz 1"
bxzzzzzzzzzzzzzzzz 5"
bxzzzzzzzzzzzzzzzz H"
b1010 J"
1-
#1470
0-
#1480
b1100 I"
bxzzzzzzzz 1"
bxzzzzzzzz 5"
bxzzzzzzzz H"
b1011 J"
1-
#1490
0-
#1500
b1101 I"
bx 1"
bx 5"
bx H"
b1100 J"
1-
0,
#1510
0-
#1520
bx =
bx 3"
b0 I"
12"
b1101 J"
1-
#1530
0-
#1540
b1001 I"
bz 1"
bz 5"
bz H"
02"
b0 J"
1-
#1550
0-
#1560
bx 0
bx C
bx ^"
bx /
bx D
bx ]"
b1010 I"
bxzzzzzzzzzzzzzzzzzzzzzzzz 1"
bxzzzzzzzzzzzzzzzzzzzzzzzz 5"
bxzzzzzzzzzzzzzzzzzzzzzzzz H"
bx <
bx v
bx L"
1;
xl
xm
xn
xo
b0 ,"
1T"
b0 U"
b100000 ~
b0 +"
bx 9
bx s
xj
xu
xt
bx ?
bx w
bx @
bx x
bx 6
bx r
bx W"
bx 5
bx q
bx X"
bx 3
bx p
bx Z"
bz >
bz M"
b101100 :
b101100 0"
b1001 J"
b100 i
b101 [
bz W
b110011 `
b11000 J
bz a
bz N
b10 K
b10 ."
b101 h
b0 Z
b0 V
b10 P
b11 _
b11100 I
b0 M
b0 '"
b0 S"
b0 L
b0 |
b0 &"
b0 R"
0d
b1001 g
b1 Y
b1 P"
b1000 B
b1000 }
b11111111111111111111111111101000 U
b11111111111111111111111111101000 z
b11111111111111111111111111101000 $"
b1111111 R
b1111111 #"
b1111111 O"
b0 O
b0 ""
b0 N"
b1100011 ^
b1100011 {
b1100011 %"
b1100011 Q"
b100000 G
b100000 y
b100000 !"
b100100 F
bx X
bx k
bx K"
b101000 H
b101000 -"
b101000 4"
1-
1,
#1570
0-
#1580
b1011 I"
bxzzzzzzzzzzzzzzzz 1"
bxzzzzzzzzzzzzzzzz 5"
bxzzzzzzzzzzzzzzzz H"
b1010 J"
1-
#1590
0-
#1600
b1100 I"
bxzzzzzzzz 1"
bxzzzzzzzz 5"
bxzzzzzzzz H"
b1011 J"
1-
#1610
0-
#1620
b1101 I"
bx 1"
bx 5"
bx H"
b1100 J"
1-
0,
#1630
0-
#1640
b0 I"
12"
b1101 J"
1-
#1650
0-
#1660
b1001 I"
bz 1"
bz 5"
bz H"
02"
b0 J"
1-
#1670
0-
#1680
b1010 I"
bxzzzzzzzzzzzzzzzzzzzzzzzz 1"
bxzzzzzzzzzzzzzzzzzzzzzzzz 5"
bxzzzzzzzzzzzzzzzzzzzzzzzz H"
0;
bx ,"
bx 2
bx A
bx ("
0T"
b0z ~
bx +"
b1000 :
b1000 0"
bz c
bz Y"
b1001 J"
b101100 H
b101100 -"
b101100 4"
b101000 F
bx M
bx '"
bx S"
bx L
bx |
bx &"
bx R"
bx g
bx Y
bx P"
bx B
bx }
bz U
bz z
bz $"
bx R
bx #"
bx O"
bx O
bx ""
bx N"
bx ^
bx {
bx %"
bx Q"
b100100 G
b100100 y
b100100 !"
1\
b0 N
b1000 K
b1000 ."
0e
b1001 h
b1 Z
b11111111111111111111111111101000 V
b1111111 S
b0 P
b1100011 _
b100000 I
bz b
b101 i
b0 [
b0 W
b10 Q
b11 `
b11100 J
1-
1,
#1690
0-
#1700
b1011 I"
bxzzzzzzzzzzzzzzzz 1"
bxzzzzzzzzzzzzzzzz 5"
bxzzzzzzzzzzzzzzzz H"
b1010 J"
1-
#1710
0-
#1720
b1100 I"
bxzzzzzzzz 1"
bxzzzzzzzz 5"
bxzzzzzzzz H"
b1011 J"
1-
#1730
0-
#1740
b1101 I"
bx 1"
bx 5"
bx H"
b1100 J"
1-
0,
#1750
0-
#1760
b0 I"
12"
b1101 J"
1-
#1770
0-
#1780
b1001 I"
bz 1"
bz 5"
bz H"
02"
b0 J"
1-
#1790
0-
#1800
b1010 I"
b0zzzzzzzzzzzzzzzzzzzzzzzz 1"
b0zzzzzzzzzzzzzzzzzzzzzzzz 5"
b0zzzzzzzzzzzzzzzzzzzzzzzz H"
b1100 :
b1100 0"
b1001 J"
0f
b1001 i
b1 [
b11111111111111111111111111101000 W
b1111111 T
b0 Q
b1100011 `
b100000 J
0\
bx a
bx N
bx K
bx ."
bx h
bx Z
bz V
bx S
bx P
bx _
b100100 I
b101000 G
b101000 y
b101000 !"
b101100 F
b1000 H
b1000 -"
b1000 4"
1-
1,
#1810
0-
#1820
b1011 I"
b10000zzzzzzzzzzzzzzzz 1"
b10000zzzzzzzzzzzzzzzz 5"
b10000zzzzzzzzzzzzzzzz H"
b1010 J"
1-
#1830
0-
#1840
b1100 I"
b1000000000001zzzzzzzz 1"
b1000000000001zzzzzzzz 5"
b1000000000001zzzzzzzz H"
b1011 J"
1-
#1850
0-
#1860
b1101 I"
b100000000000100010011 1"
b100000000000100010011 5"
b100000000000100010011 H"
b1100 J"
1-
0,
#1870
0-
#1880
b100000000000100010011 =
b100000000000100010011 3"
b0 I"
12"
b1101 J"
1-
#1890
0-
#1900
b1001 I"
bz 1"
bz 5"
bz H"
02"
b0 J"
1-
#1910
0-
#1920
bz 0
bz C
bz ^"
b0 /
b0 D
b0 ]"
b1010 I"
b0zzzzzzzzzzzzzzzzzzzzzzzz 1"
b0zzzzzzzzzzzzzzzzzzzzzzzz 5"
b0zzzzzzzzzzzzzzzzzzzzzzzz H"
14
07
b1 >
b1 M"
b0 <
b0 v
b0 L"
1l
0m
0n
0o
b10000 :
b10000 0"
b10011 9
b10011 s
0j
0u
0t
b0 ?
b0 w
b0 @
b0 x
b0 6
b0 r
b0 W"
b1 5
b1 q
b1 X"
b10 3
b10 p
b10 Z"
b1001 J"
b1100 H
b1100 -"
b1100 4"
b1000 F
b100000000000100010011 X
b100000000000100010011 k
b100000000000100010011 K"
b101100 G
b101100 y
b101100 !"
b101000 I
bx b
bx i
bx [
bz W
bx T
bx Q
bx `
b100100 J
1-
1,
#1930
0-
#1940
b1011 I"
b100000zzzzzzzzzzzzzzzz 1"
b100000zzzzzzzzzzzzzzzz 5"
b100000zzzzzzzzzzzzzzzz H"
b1010 J"
1-
#1950
0-
#1960
b1100 I"
b10000000000001zzzzzzzz 1"
b10000000000001zzzzzzzz 5"
b10000000000001zzzzzzzz H"
b1011 J"
1-
#1970
0-
