phoeniX.vcd
$date
	Sat Sep 02 09:51:49 2023
$end
$version
	Icarus Verilog
$end
$timescale
	1ns
$end
$scope module phoeniX_Testbench $end
$var wire 32 ! data_memory_interface_data [31:0] $end
$var wire 32 " x0_zero [31:0] $end
$var wire 32 # x10_a0 [31:0] $end
$var wire 32 $ x11_a1 [31:0] $end
$var wire 32 % x12_a2 [31:0] $end
$var wire 32 & x13_a3 [31:0] $end
$var wire 32 ' x14_a4 [31:0] $end
$var wire 32 ( x15_a5 [31:0] $end
$var wire 32 ) x16_a6 [31:0] $end
$var wire 32 * x17_a7 [31:0] $end
$var wire 32 + x18_s2 [31:0] $end
$var wire 32 , x19_s3 [31:0] $end
$var wire 32 - x1_ra [31:0] $end
$var wire 32 . x20_s4 [31:0] $end
$var wire 32 / x21_s5 [31:0] $end
$var wire 32 0 x22_s6 [31:0] $end
$var wire 32 1 x23_s7 [31:0] $end
$var wire 32 2 x24_s8 [31:0] $end
$var wire 32 3 x25_s9 [31:0] $end
$var wire 32 4 x26_s10 [31:0] $end
$var wire 32 5 x27_s11 [31:0] $end
$var wire 32 6 x28_t3 [31:0] $end
$var wire 32 7 x29_t4 [31:0] $end
$var wire 32 8 x2_sp [31:0] $end
$var wire 32 9 x30_t5 [31:0] $end
$var wire 32 : x31_t6 [31:0] $end
$var wire 32 ; x3_gp [31:0] $end
$var wire 32 < x4_tp [31:0] $end
$var wire 32 = x5_t0 [31:0] $end
$var wire 32 > x6_t1 [31:0] $end
$var wire 32 ? x7_t2 [31:0] $end
$var wire 32 @ x8_s0 [31:0] $end
$var wire 32 A x9_s1 [31:0] $end
$var wire 1 B instruction_memory_interface_state $end
$var wire 4 C instruction_memory_interface_frame_mask [3:0] $end
$var wire 1 D instruction_memory_interface_enable $end
$var wire 32 E instruction_memory_interface_address [31:0] $end
$var wire 1 F data_memory_interface_state $end
$var wire 4 G data_memory_interface_frame_mask [3:0] $end
$var wire 1 H data_memory_interface_enable $end
$var wire 32 I data_memory_interface_address [31:0] $end
$var parameter 1 J READ $end
$var parameter 1 K WRITE $end
$var reg 1 L CLK $end
$var reg 32 M data_memory_interface_data_reg [31:0] $end
$var reg 32 N instruction_memory_interface_data [31:0] $end
$var reg 1 O reset $end
$scope module uut $end
$var wire 1 L CLK $end
$var wire 32 P data_memory_interface_data [31:0] $end
$var wire 32 Q instruction_memory_interface_data [31:0] $end
$var wire 1 O reset $end
$var wire 32 R result_execute_wire [31:0] $end
$var wire 5 S write_index_decode_wire [4:0] $end
$var wire 1 T write_enable_decode_wire $end
$var wire 5 U read_index_2_decode_wire [4:0] $end
$var wire 5 V read_index_1_decode_wire [4:0] $end
$var wire 1 W read_enable_2_decode_wire $end
$var wire 1 X read_enable_1_decode_wire $end
$var wire 7 Y opcode_decode_wire [6:0] $end
$var wire 32 Z next_PC_wire [31:0] $end
$var wire 32 [ load_data_memory_wire [31:0] $end
$var wire 1 \ jump_branch_enable_execute_wire $end
$var wire 3 ] instruction_type_decode_wire [2:0] $end
$var wire 1 B instruction_memory_interface_state $end
$var wire 4 ^ instruction_memory_interface_frame_mask [3:0] $end
$var wire 1 D instruction_memory_interface_enable $end
$var wire 32 _ instruction_memory_interface_address [31:0] $end
$var wire 32 ` immediate_decode_wire [31:0] $end
$var wire 7 a funct7_decode_wire [6:0] $end
$var wire 3 b funct3_decode_wire [2:0] $end
$var wire 12 c funct12_decode_wire [11:0] $end
$var wire 1 F data_memory_interface_state $end
$var wire 4 d data_memory_interface_frame_mask [3:0] $end
$var wire 1 H data_memory_interface_enable $end
$var wire 32 e data_memory_interface_address [31:0] $end
$var wire 32 f bus_rs2_decode_wire [31:0] $end
$var wire 32 g bus_rs1_decode_wire [31:0] $end
$var wire 32 h alu_output_execute_wire [31:0] $end
$var wire 32 i address_execute_wire [31:0] $end
$var wire 32 j RF_source_2 [31:0] $end
$var wire 32 k RF_source_1 [31:0] $end
$var wire 32 l FW_source_2 [31:0] $end
$var wire 32 m FW_source_1 [31:0] $end
$var wire 1 n FW_enable_2 $end
$var wire 1 o FW_enable_1 $end
$var parameter 32 p RESET_ADDRESS $end
$var reg 32 q PC_decode_reg [31:0] $end
$var reg 32 r PC_execute_reg [31:0] $end
$var reg 32 s PC_fetch_reg [31:0] $end
$var reg 32 t PC_memory_reg [31:0] $end
$var reg 32 u PC_stall_address [31:0] $end
$var reg 32 v PC_writeback_reg [31:0] $end
$var reg 32 w address_memory_reg [31:0] $end
$var reg 32 x bus_rs1 [31:0] $end
$var reg 32 y bus_rs2 [31:0] $end
$var reg 32 z bus_rs2_memory_reg [31:0] $end
$var reg 12 { funct12_execute_reg [11:0] $end
$var reg 12 | funct12_memory_reg [11:0] $end
$var reg 12 } funct12_writeback_reg [11:0] $end
$var reg 3 ~ funct3_execute_reg [2:0] $end
$var reg 3 !" funct3_memory_reg [2:0] $end
$var reg 3 "" funct3_writeback_reg [2:0] $end
$var reg 7 #" funct7_execute_reg [6:0] $end
$var reg 7 $" funct7_memory_reg [6:0] $end
$var reg 7 %" funct7_writeback_reg [6:0] $end
$var reg 32 &" immediate_execute_reg [31:0] $end
$var reg 32 '" immediate_memory_reg [31:0] $end
$var reg 32 (" immediate_writeback_reg [31:0] $end
$var reg 32 )" instruction_decode_reg [31:0] $end
$var reg 32 *" instruction_execute_reg [31:0] $end
$var reg 32 +" instruction_memory_reg [31:0] $end
$var reg 3 ," instruction_type_execute_reg [2:0] $end
$var reg 3 -" instruction_type_memory_reg [2:0] $end
$var reg 3 ." instruction_type_writeback_reg [2:0] $end
$var reg 32 /" instruction_writeback_reg [31:0] $end
$var reg 1 0" jump_branch_enable_memory_reg $end
$var reg 32 1" load_data_writeback_reg [31:0] $end
$var reg 7 2" opcode_execute_reg [6:0] $end
$var reg 7 3" opcode_memory_reg [6:0] $end
$var reg 7 4" opcode_writeback_reg [6:0] $end
$var reg 32 5" result_memory_reg [31:0] $end
$var reg 32 6" result_writeback_reg [31:0] $end
$var reg 1 7" stall $end
$var reg 32 8" write_data [31:0] $end
$var reg 32 9" write_data_writeback_reg [31:0] $end
$var reg 1 :" write_enable $end
$var reg 1 ;" write_enable_execute_reg $end
$var reg 1 <" write_enable_memory_reg $end
$var reg 1 =" write_enable_writeback_reg $end
$var reg 5 >" write_index [4:0] $end
$var reg 5 ?" write_index_execute_reg [4:0] $end
$var reg 5 @" write_index_memory_reg [4:0] $end
$var reg 5 A" write_index_writeback_reg [4:0] $end
$scope module Instruction_Decoder $end
$var wire 32 B" instruction [31:0] $end
$var wire 1 C" instruction_type_i $end
$var wire 1 D" instruction_type_r $end
$var wire 1 E" instruction_type_s $end
$var wire 1 F" instruction_type_u $end
$var wire 5 G" write_index [4:0] $end
$var wire 5 H" read_index_2 [4:0] $end
$var wire 5 I" read_index_1 [4:0] $end
$var wire 7 J" opcode [6:0] $end
$var wire 1 K" instruction_type_j $end
$var wire 1 L" instruction_type_b $end
$var wire 3 M" instruction_type [2:0] $end
$var wire 7 N" funct7 [6:0] $end
$var wire 3 O" funct3 [2:0] $end
$var wire 12 P" funct12 [11:0] $end
$var reg 1 X read_enable_1 $end
$var reg 1 W read_enable_2 $end
$var reg 1 T write_enable $end
$upscope $end
$scope module address_generator $end
$var wire 32 Q" PC [31:0] $end
$var wire 32 R" immediate [31:0] $end
$var wire 7 S" opcode [6:0] $end
$var wire 32 T" rs1 [31:0] $end
$var reg 32 U" address [31:0] $end
$var reg 32 V" value [31:0] $end
$upscope $end
$scope module arithmetic_logic_unit $end
$var wire 32 W" PC [31:0] $end
$var wire 3 X" funct3 [2:0] $end
$var wire 7 Y" funct7 [6:0] $end
$var wire 32 Z" immediate [31:0] $end
$var wire 7 [" opcode [6:0] $end
$var wire 32 \" rs1 [31:0] $end
$var wire 32 ]" rs2 [31:0] $end
$var reg 32 ^" alu_output [31:0] $end
$var reg 1 _" mux1_select $end
$var reg 2 `" mux2_select [1:0] $end
$var reg 32 a" operand_1 [31:0] $end
$var reg 32 b" operand_2 [31:0] $end
$upscope $end
$scope module fetch_unit $end
$var wire 32 c" PC [31:0] $end
$var wire 32 d" address [31:0] $end
$var wire 1 e" enable $end
$var wire 32 f" next_PC [31:0] $end
$var wire 1 \ jump_branch_enable $end
$var parameter 1 g" READ $end
$var parameter 1 h" WRITE $end
$var reg 32 i" memory_interface_address [31:0] $end
$var reg 1 D memory_interface_enable $end
$var reg 4 j" memory_interface_frame_mask [3:0] $end
$var reg 1 B memory_interface_state $end
$upscope $end
$scope module hazard_forward_unit_source_1 $end
$var wire 32 k" data_1 [31:0] $end
$var wire 32 l" data_2 [31:0] $end
$var wire 32 m" data_3 [31:0] $end
$var wire 5 n" destination_index_1 [4:0] $end
$var wire 5 o" destination_index_2 [4:0] $end
$var wire 5 p" destination_index_3 [4:0] $end
$var wire 1 ;" enable_1 $end
$var wire 1 <" enable_2 $end
$var wire 1 =" enable_3 $end
$var wire 5 q" source_index [4:0] $end
$var reg 32 r" forward_data [31:0] $end
$var reg 1 o forward_enable $end
$upscope $end
$scope module hazard_forward_unit_source_2 $end
$var wire 32 s" data_1 [31:0] $end
$var wire 32 t" data_2 [31:0] $end
$var wire 32 u" data_3 [31:0] $end
$var wire 5 v" destination_index_1 [4:0] $end
$var wire 5 w" destination_index_2 [4:0] $end
$var wire 5 x" destination_index_3 [4:0] $end
$var wire 1 ;" enable_1 $end
$var wire 1 <" enable_2 $end
$var wire 1 =" enable_3 $end
$var wire 5 y" source_index [4:0] $end
$var reg 32 z" forward_data [31:0] $end
$var reg 1 n forward_enable $end
$upscope $end
$scope module immediate_generator $end
$var wire 32 {" instruction [31:0] $end
$var wire 3 |" instruction_type [2:0] $end
$var reg 32 }" immediate [31:0] $end
$upscope $end
$scope module jump_branch_unit $end
$var wire 3 ~" funct3 [2:0] $end
$var wire 3 !# instruction_type [2:0] $end
$var wire 1 \ jump_branch_enable $end
$var wire 7 "# opcode [6:0] $end
$var wire 32 ## rs1 [31:0] $end
$var wire 32 $# rs2 [31:0] $end
$var reg 1 %# branch_enable $end
$var reg 1 &# jump_enable $end
$upscope $end
$scope module load_store_unit $end
$var wire 32 '# address [31:0] $end
$var wire 3 (# funct3 [2:0] $end
$var wire 32 )# memory_interface_data [31:0] $end
$var wire 7 *# opcode [6:0] $end
$var wire 32 +# store_data [31:0] $end
$var parameter 1 ,# READ $end
$var parameter 1 -# WRITE $end
$var reg 32 .# load_data [31:0] $end
$var reg 32 /# memory_interface_address [31:0] $end
$var reg 1 H memory_interface_enable $end
$var reg 4 0# memory_interface_frame_mask [3:0] $end
$var reg 1 F memory_interface_state $end
$var reg 32 1# store_data_reg [31:0] $end
$upscope $end
$scope module register_file $end
$var wire 1 L CLK $end
$var wire 1 X read_enable_1 $end
$var wire 1 W read_enable_2 $end
$var wire 5 2# read_index_1 [4:0] $end
$var wire 5 3# read_index_2 [4:0] $end
$var wire 1 O reset $end
$var wire 32 4# write_data [31:0] $end
$var wire 1 :" write_enable $end
$var wire 5 5# write_index [4:0] $end
$var parameter 32 6# DEPTH $end
$var parameter 32 7# WIDTH $end
$var reg 32 8# read_data_1 [31:0] $end
$var reg 32 9# read_data_2 [31:0] $end
$var integer 32 :# i [31:0] $end
$upscope $end
$upscope $end
$upscope $end
$enddefinitions $end
$comment Show the parameter values. $end
$dumpall
b100000 7#
b101 6#
1-#
0,#
1h"
0g"
b11111111111111111111111111111100 p
1K
0J
$end
#0
$dumpvars
b100000 :#
bz 9#
bz 8#
bx 5#
bx 4#
bx 3#
bx 2#
bz 1#
bx 0#
bx /#
bx .#
bx +#
bx *#
bx )#
bx (#
bx '#
0&#
0%#
bx $#
bx ##
bx "#
bz !#
bx ~"
bz }"
bx |"
bx {"
bx z"
bx y"
bx x"
bx w"
bx v"
bx u"
bx t"
bx s"
bx r"
bx q"
bx p"
bx o"
bx n"
bx m"
bx l"
bx k"
b1111 j"
b11111111111111111111111111111100 i"
b0 f"
0e"
bx d"
b11111111111111111111111111111100 c"
bx b"
bx a"
bx `"
x_"
bx ^"
bx ]"
bx \"
bx ["
bx Z"
bx Y"
bx X"
bx W"
bx V"
bx U"
bx T"
bx S"
bx R"
bx Q"
bx P"
bx O"
bx N"
bx M"
xL"
xK"
bx J"
bx I"
bx H"
bx G"
xF"
xE"
xD"
xC"
bx B"
bx A"
bx @"
bx ?"
bx >"
x="
x<"
x;"
x:"
bx 9"
bx 8"
x7"
bx 6"
bx 5"
bx 4"
bx 3"
bx 2"
bx 1"
x0"
bx /"
bx ."
bx -"
bz ,"
bx +"
bx *"
bx )"
bx ("
bx '"
bx &"
bx %"
bx $"
bx #"
bx ""
bx !"
bx ~
bx }
bx |
bx {
bx z
bx y
bx x
bx w
bx v
bx u
bx t
b11111111111111111111111111111100 s
bx r
bx q
xo
xn
bx m
bx l
bz k
bz j
bx i
bx h
bx g
bx f
bx e
bx d
bx c
bx b
bx a
bz `
b11111111111111111111111111111100 _
b1111 ^
bx ]
0\
bx [
b0 Z
bx Y
xX
xW
bx V
bx U
xT
bx S
bx R
bx Q
bx P
1O
bx N
bx M
1L
bx I
xH
bx G
xF
b11111111111111111111111111111100 E
0D
b1111 C
0B
b0 A
b0 @
b0 ?
b0 >
b0 =
b0 <
b0 ;
b0 :
b0 9
b0 8
b0 7
b0 6
b0 5
b0 4
b0 3
b0 2
b0 1
b0 0
b0 /
b0 .
b0 -
b0 ,
b0 +
b0 *
b0 )
b0 (
b0 '
b0 &
b0 %
b0 $
b0 #
b0 "
bx !
$end
#6
0L
#12
b0z V"
bz u
07"
bz N
bz Q
00"
bz -"
bx ,"
bx !#
bz &"
bz R"
bz Z"
b11111111111111111111111111111100 q
1L
#18
0L
#24
bz g
bz f
0o
bz m
bz r"
0n
bz l
bz z"
bz Y
bz J"
bz a
bz N"
bz b
bz O"
bz c
bz P"
bz V
bz I"
bz q"
bz 2#
bz U
bz H"
bz y"
bz 3#
bz S
bz G"
bz )"
bz B"
bz {"
b11111111111111111111111111111100 r
b11111111111111111111111111111100 Q"
b11111111111111111111111111111100 W"
bx -"
bz '"
bz ."
1L
#30
0L
#36
bx ."
bz ("
b11111111111111111111111111111100 t
bz y
bz ]"
bz $#
bz x
bz T"
bz \"
bz ##
bz ?"
bz n"
bz v"
bz {
bz #"
bz Y"
bz ~
bz X"
bz ~"
bz 2"
bz S"
bz ["
bz "#
bz *"
1L
#42
0L
#48
bz [
bz .#
0F
b0 G
b0 d
b0 0#
bz I
bz e
bz /#
0H
bz z
bz +#
bz @"
bz o"
bz w"
bz |
bz $"
bz !"
bz (#
bz 3"
bz *#
bz +"
b11111111111111111111111111111100 v
1L
#54
0L
#60
1D
bz >"
bz 5#
1e"
0O
bz !
bz P
bz )#
bz M
bz 1"
bz A"
bz p"
bz x"
bz }
bz %"
bz ""
bz 4"
bz /"
1L
#66
0L
#72
b0 E
b0 _
b0 i"
b100 Z
b100 f"
b0 s
b0 c"
bx N
bx Q
1L
#78
0L
#84
bx Y
bx J"
bx a
bx N"
bx b
bx O"
bx c
bx P"
bx V
bx I"
bx q"
bx 2#
bx U
bx H"
bx y"
bx 3#
bx S
bx G"
b100 E
b100 _
b100 i"
b1000 Z
b1000 f"
b10000100110111 N
b10000100110111 Q
bx )"
bx B"
bx {"
b0 q
b100 s
b100 c"
1L
#90
0L
#96
1T
0W
0X
b10000000000000 `
b10000000000000 }"
b100 ]
b100 M"
b100 |"
0C"
0D"
0E"
1F"
b1000 E
b1000 _
b1000 i"
b1100 Z
b1100 f"
0L"
0K"
b110111 Y
b110111 J"
b0 a
b0 N"
b10 b
b10 O"
b0 c
b0 P"
b0 V
b0 I"
b0 q"
b0 2#
b0 U
b0 H"
b0 y"
b0 3#
b10 S
b10 G"
b1000 s
b1000 c"
b10000100110111 )"
b10000100110111 B"
b10000100110111 {"
b100 q
bx ?"
bx n"
bx v"
bx {
bx #"
bx Y"
bx ~
bx X"
bx ~"
bx 2"
bx S"
bx ["
bx "#
bx *"
b0 r
b0 Q"
b0 W"
b10000000100010011 N
b10000000100010011 Q
1L
#102
0L
#108
b10000000000000 g
b0 k
b0 8#
1o
b10000000000000 m
b10000000000000 r"
1X
b1 ]
b1 M"
b1 |"
1C"
0F"
0F
b0 G
b0 d
b0 0#
b10000000000000 k"
b10000000000000 s"
bz R
bz h
bz ^"
b10000000000000 8"
b10000000000000 4#
b10 >"
b10 5#
1:"
b10011 Y
b10011 J"
b0 b
b0 O"
b10 V
b10 I"
b10 q"
b10 2#
b0 `
b0 }"
b1100 E
b1100 _
b1100 i"
b10000 Z
b10000 f"
b11111110000000010000000100010011 N
b11111110000000010000000100010011 Q
bx @"
bx o"
bx w"
bx |
bx $"
bx !"
bx (#
bx 3"
bx *#
bx +"
b0 t
b10 ?"
b10 n"
b10 v"
b100 ,"
b100 !#
b10000000000000 &"
b10000000000000 R"
b10000000000000 Z"
b0 {
b0 #"
b0 Y"
b10 ~
b10 X"
b10 ~"
b110111 2"
b110111 S"
b110111 ["
b110111 "#
1;"
b10000100110111 *"
b100 r
b100 Q"
b100 W"
b10000000100010011 )"
b10000000100010011 B"
b10000000100010011 {"
b1000 q
b1100 s
b1100 c"
1L
#114
b10000000000000 k
b10000000000000 8#
b10000000000000 8
0L
#120
b10000000000000 m
b10000000000000 r"
b10000000000000 a"
b10000 E
b10000 _
b10000 i"
b10100 Z
b10100 f"
b1111111 a
b1111111 N"
b111111100000 c
b111111100000 P"
b11111111111111111111111111100000 `
b11111111111111111111111111100000 }"
b0 b"
b10000000000000 k"
b10000000000000 s"
b10000000000000 R
b10000000000000 h
b10000000000000 ^"
b1 `"
0_"
bz l"
bz t"
0F
b0 G
b0 d
b0 0#
bx 8"
bx 4#
bx >"
bx 5#
x:"
b10000 s
b10000 c"
b11111110000000010000000100010011 )"
b11111110000000010000000100010011 B"
b11111110000000010000000100010011 {"
b1100 q
b10000000000000 x
b10000000000000 T"
b10000000000000 \"
b10000000000000 ##
b1 ,"
b1 !#
b0 &"
b0 R"
b0 Z"
b0 ~
b0 X"
b0 ~"
b10011 2"
b10011 S"
b10011 ["
b10011 "#
b10000000100010011 *"
b1000 r
b1000 Q"
b1000 W"
bz 5"
1<"
b10 @"
b10 o"
b10 w"
b100 -"
b10000000000000 '"
b0 |
b0 $"
b10 !"
b10 (#
b110111 3"
b110111 *#
b10000100110111 +"
b100 t
bx A"
bx p"
bx x"
bx }
bx %"
bx ""
bx 4"
bx /"
b0 v
b100000010010111000100011 N
b100000010010111000100011 Q
1L
#126
0L
#132
b0 f
b1111111100000 g
b0 j
b0 9#
b1111111100000 m
b1111111100000 r"
0T
1W
b10 ]
b10 M"
b10 |"
0C"
b1111111100000 k"
b1111111100000 s"
b10000000000000 8"
b10000000000000 4#
b1111111100000 R
b1111111100000 h
b1111111100000 ^"
1E"
b10000000000000 9"
b10000000000000 m"
b10000000000000 u"
b10000000000000 l"
b10000000000000 t"
0F
b0 G
b0 d
b0 0#
b11111111111111111111111111100000 b"
b10 >"
b10 5#
1:"
b100011 Y
b100011 J"
b0 a
b0 N"
b10 b
b10 O"
b1000 c
b1000 P"
b1000 U
b1000 H"
b1000 y"
b1000 3#
b11100 S
b11100 G"
b11100 `
b11100 }"
b10100 E
b10100 _
b10100 i"
b11000 Z
b11000 f"
b10000000010000010000010011 N
b10000000010000010000010011 Q
bz 6"
1="
b10 A"
b10 p"
b10 x"
b100 ."
b10000000000000 ("
b0 }
b0 %"
b10 ""
b110111 4"
b10000100110111 /"
b100 v
b10000000000000 5"
b1 -"
b0 '"
b0 !"
b0 (#
b10011 3"
b10011 *#
b10000000100010011 +"
b1000 t
b11111111111111111111111111100000 &"
b11111111111111111111111111100000 R"
b11111111111111111111111111100000 Z"
b111111100000 {
b1111111 #"
b1111111 Y"
b11111110000000010000000100010011 *"
b1100 r
b1100 Q"
b1100 W"
b100000010010111000100011 )"
b100000010010111000100011 B"
b100000010010111000100011 {"
b10000 q
b10100 s
b10100 c"
1L
#138
0L
#144
bz f
bz j
bz 9#
1T
0W
b1 ]
b1 M"
b1 |"
1C"
0E"
bz k"
bz s"
b11000 E
b11000 _
b11000 i"
b11100 Z
b11100 f"
b10011 Y
b10011 J"
b1 a
b1 N"
b0 b
b0 O"
b100000 c
b100000 P"
b0 U
b0 H"
b0 y"
b0 3#
b1000 S
b1000 G"
b100000 `
b100000 }"
b11100 b"
bz R
bz h
bz ^"
b1111111111100 i
b1111111111100 U"
b1111111111100 d"
b1111111100000 V"
b1111111100000 a"
b1111111100000 l"
b1111111100000 t"
b11000 s
b11000 c"
b10000000010000010000010011 )"
b10000000010000010000010011 B"
b10000000010000010000010011 {"
b10100 q
b0 y
b0 ]"
b0 $#
b1111111100000 x
b1111111100000 T"
b1111111100000 \"
b1111111100000 ##
b11100 ?"
b11100 n"
b11100 v"
b10 ,"
b10 !#
b11100 &"
b11100 R"
b11100 Z"
b1000 {
b0 #"
b0 Y"
b10 ~
b10 X"
b10 ~"
b100011 2"
b100011 S"
b100011 ["
b100011 "#
0;"
b100000010010111000100011 *"
b10000 r
b10000 Q"
b10000 W"
b1111111100000 5"
b11111111111111111111111111100000 '"
b111111100000 |
b1111111 $"
b11111110000000010000000100010011 +"
b1100 t
b10000000000000 6"
b1 ."
b0 ("
b0 ""
b10011 4"
b10000000100010011 /"
b1000 v
b11111110000001000010011000100011 N
b11111110000001000010011000100011 Q
1L
#150
0L
#156
b0 f
b0 !
b0 P
b0 )#
b10000000000000 g
b0 j
b0 9#
b0 k
b0 8#
b0 1#
b10000000000000 m
b10000000000000 r"
0T
1W
b10 ]
b10 M"
b10 |"
0C"
b1111111100000 8"
b1111111100000 4#
b10000000000000 k"
b10000000000000 s"
1E"
b1111111100000 9"
b1111111100000 m"
b1111111100000 u"
bz l"
bz t"
1F
b1111 G
b1111 d
b1111 0#
b1111111111100 I
b1111111111100 e
b1111111111100 /#
1H
b100000 b"
b10000000000000 R
b10000000000000 h
b10000000000000 ^"
bx i
bx U"
bx d"
b0z V"
b100011 Y
b100011 J"
b1111111 a
b1111111 N"
b10 b
b10 O"
b111111100000 c
b111111100000 P"
b1000 V
b1000 I"
b1000 q"
b1000 2#
b1100 S
b1100 G"
b11111111111111111111111111101100 `
b11111111111111111111111111101100 }"
b11100 E
b11100 _
b11100 i"
b100000 Z
b100000 f"
b11111110000001000010010000100011 N
b11111110000001000010010000100011 Q
b1111111100000 6"
b11111111111111111111111111100000 ("
b111111100000 }
b1111111 %"
b11111110000000010000000100010011 /"
b1100 v
bz 5"
b0 z
b0 +#
b1111111111100 w
b1111111111100 '#
0<"
b11100 @"
b11100 o"
b11100 w"
b10 -"
b11100 '"
b1000 |
b0 $"
b10 !"
b10 (#
b100011 3"
b100011 *#
b100000010010111000100011 +"
b10000 t
bz y
bz ]"
bz $#
b1000 ?"
b1000 n"
b1000 v"
b1 ,"
b1 !#
b100000 &"
b100000 R"
b100000 Z"
b100000 {
b1 #"
b1 Y"
b0 ~
b0 X"
b0 ~"
b10011 2"
b10011 S"
b10011 ["
b10011 "#
1;"
b10000000010000010000010011 *"
b10100 r
b10100 Q"
b10100 W"
b11111110000001000010011000100011 )"
b11111110000001000010011000100011 B"
b11111110000001000010011000100011 {"
b11000 q
b11100 s
b11100 c"
1L
#162
b1111111100000 8
0L
#168
bz 1#
b10000000000000 m
b10000000000000 r"
bz k"
bz s"
b100000 E
b100000 _
b100000 i"
b100100 Z
b100100 f"
b1000 S
b1000 G"
b11111111111111111111111111101000 `
b11111111111111111111111111101000 }"
b11111111111111111111111111101100 b"
bz R
bz h
bz ^"
b1111111101100 i
b1111111101100 U"
b1111111101100 d"
b10000000000000 V"
b10000000000000 a"
b10000000000000 l"
b10000000000000 t"
0F
b0 G
b0 d
b0 0#
bz I
bz e
bz /#
0H
bz !
bz P
bz )#
b11100 >"
b11100 5#
0:"
b100000 s
b100000 c"
b11111110000001000010010000100011 )"
b11111110000001000010010000100011 B"
b11111110000001000010010000100011 {"
b11100 q
b0 y
b0 ]"
b0 $#
b10000000000000 x
b10000000000000 T"
b10000000000000 \"
b10000000000000 ##
b1100 ?"
b1100 n"
b1100 v"
b10 ,"
b10 !#
b11111111111111111111111111101100 &"
b11111111111111111111111111101100 R"
b11111111111111111111111111101100 Z"
b111111100000 {
b1111111 #"
b1111111 Y"
b10 ~
b10 X"
b10 ~"
b100011 2"
b100011 S"
b100011 ["
b100011 "#
0;"
b11111110000001000010011000100011 *"
b11000 r
b11000 Q"
b11000 W"
b10000000000000 5"
bz z
bz +#
bx w
bx '#
1<"
b1000 @"
b1000 o"
b1000 w"
b1 -"
b100000 '"
b100000 |
b1 $"
b0 !"
b0 (#
b10011 3"
b10011 *#
b10000000010000010000010011 +"
b10100 t
bz 6"
0="
b11100 A"
b11100 p"
b11100 x"
b10 ."
b11100 ("
b1000 }
b0 %"
b10 ""
b100011 4"
b100000010010111000100011 /"
b10000 v
b10000000000000000001101111 N
b10000000000000000001101111 Q
1L
#174
0L
#180
bz f
b0 !
b0 P
b0 )#
bz g
bz j
bz 9#
bz k
bz 8#
b0 1#
0o
bz m
bz r"
0T
0W
0X
b101 ]
b101 M"
b101 |"
b10000000000000 8"
b10000000000000 4#
0E"
b10000000000000 9"
b10000000000000 m"
b10000000000000 u"
bz l"
bz t"
1F
b1111 G
b1111 d
b1111 0#
b1111111101100 I
b1111111101100 e
b1111111101100 /#
1H
b11111111111111111111111111101000 b"
b1000 >"
b1000 5#
1:"
b1111111101000 i
b1111111101000 U"
b1111111101000 d"
1K"
b1101111 Y
b1101111 J"
b1 a
b1 N"
b0 b
b0 O"
b100000 c
b100000 P"
b0 V
b0 I"
b0 q"
b0 2#
b0 S
b0 G"
b100000 `
b100000 }"
b100100 E
b100100 _
b100100 i"
b101000 Z
b101000 f"
b11111110110001000010011100000011 N
b11111110110001000010011100000011 Q
b10000000000000 6"
1="
b1000 A"
b1000 p"
b1000 x"
b1 ."
b100000 ("
b100000 }
b1 %"
b0 ""
b10011 4"
b10000000010000010000010011 /"
b10100 v
bz 5"
b0 z
b0 +#
b1111111101100 w
b1111111101100 '#
0<"
b1100 @"
b1100 o"
b1100 w"
b10 -"
b11111111111111111111111111101100 '"
b111111100000 |
b1111111 $"
b10 !"
b10 (#
b100011 3"
b100011 *#
b11111110000001000010011000100011 +"
b11000 t
b1000 ?"
b1000 n"
b1000 v"
b11111111111111111111111111101000 &"
b11111111111111111111111111101000 R"
b11111111111111111111111111101000 Z"
b11111110000001000010010000100011 *"
b11100 r
b11100 Q"
b11100 W"
b10000000000000000001101111 )"
b10000000000000000001101111 B"
b10000000000000000001101111 {"
b100000 q
b100100 s
b100100 c"
1L
#186
b10000000000000 @
0L
#192
b10000000000000 g
b10000000000000 k
b10000000000000 8#
1X
b1 ]
b1 M"
b1 |"
1C"
1T
b100100 k"
b100100 s"
1\
b101000 E
b101000 _
b101000 i"
b1000000 Z
b1000000 f"
0K"
b11 Y
b11 J"
b1111111 a
b1111111 N"
b10 b
b10 O"
b111111101100 c
b111111101100 P"
b1000 V
b1000 I"
b1000 q"
b1000 2#
b1100 U
b1100 H"
b1100 y"
b1100 3#
b1110 S
b1110 G"
b11111111111111111111111111101100 `
b11111111111111111111111111101100 }"
b100 b"
b100100 R
b100100 h
b100100 ^"
b10 `"
1_"
1&#
b1000000 i
b1000000 U"
b1000000 d"
b100000 V"
b100000 a"
1F
b1111 G
b1111 d
b1111 0#
b1111111101000 I
b1111111101000 e
b1111111101000 /#
b1100 >"
b1100 5#
0:"
b101000 s
b101000 c"
b11111110110001000010011100000011 )"
b11111110110001000010011100000011 B"
b11111110110001000010011100000011 {"
b100100 q
bz y
bz ]"
bz $#
bz x
bz T"
bz \"
bz ##
b0 ?"
b0 n"
b0 v"
b101 ,"
b101 !#
b100000 &"
b100000 R"
b100000 Z"
b100000 {
b1 #"
b1 Y"
b0 ~
b0 X"
b0 ~"
b1101111 2"
b1101111 S"
b1101111 ["
b1101111 "#
b10000000000000000001101111 *"
b100000 r
b100000 Q"
b100000 W"
b1111111101000 w
b1111111101000 '#
b1000 @"
b1000 o"
b1000 w"
b11111111111111111111111111101000 '"
b11111110000001000010010000100011 +"
b11100 t
bz 6"
0="
b1100 A"
b1100 p"
b1100 x"
b10 ."
b11111111111111111111111111101100 ("
b111111100000 }
b1111111 %"
b10 ""
b100011 4"
b11111110000001000010011000100011 /"
b11000 v
b11111110100001000010011110000011 N
b11111110100001000010011110000011 Q
1L
#198
0L
