phoeniX.vcd
$date
	Wed Aug 23 00:09:40 2023
$end
$version
	Icarus Verilog
$end
$timescale
	1ns
$end
$scope module phoeniX_Testbench $end
$var wire 32 ! x0_zero [31:0] $end
$var wire 32 " x10_a0 [31:0] $end
$var wire 32 # x11_a1 [31:0] $end
$var wire 32 $ x12_a2 [31:0] $end
$var wire 32 % x13_a3 [31:0] $end
$var wire 32 & x14_a4 [31:0] $end
$var wire 32 ' x15_a5 [31:0] $end
$var wire 32 ( x16_a6 [31:0] $end
$var wire 32 ) x17_a7 [31:0] $end
$var wire 32 * x18_s2 [31:0] $end
$var wire 32 + x19_s3 [31:0] $end
$var wire 32 , x1_ra [31:0] $end
$var wire 32 - x20_s4 [31:0] $end
$var wire 32 . x21_s5 [31:0] $end
$var wire 32 / x22_s6 [31:0] $end
$var wire 32 0 x23_s7 [31:0] $end
$var wire 32 1 x24_s8 [31:0] $end
$var wire 32 2 x25_s9 [31:0] $end
$var wire 32 3 x26_s10 [31:0] $end
$var wire 32 4 x27_s11 [31:0] $end
$var wire 32 5 x28_t3 [31:0] $end
$var wire 32 6 x29_t4 [31:0] $end
$var wire 32 7 x2_sp [31:0] $end
$var wire 32 8 x30_t5 [31:0] $end
$var wire 32 9 x31_t6 [31:0] $end
$var wire 32 : x3_gp [31:0] $end
$var wire 32 ; x4_tp [31:0] $end
$var wire 32 < x5_t0 [31:0] $end
$var wire 32 = x6_t1 [31:0] $end
$var wire 32 > x7_t2 [31:0] $end
$var wire 32 ? x8_s0 [31:0] $end
$var wire 32 @ x9_s1 [31:0] $end
$var parameter 32 A ADDRESS_WIDTH $end
$var reg 1 B CLK $end
$var reg 1 C CLK_MEM $end
$var reg 1 D reset $end
$var integer 32 E data_memory_file [31:0] $end
$scope module uut $end
$var wire 1 B CLK $end
$var wire 1 C CLK_MEM $end
$var wire 1 D reset $end
$var wire 32 F result_execute_wire [31:0] $end
$var wire 5 G write_index_decode_wire [4:0] $end
$var wire 1 H write_enable_decode_wire $end
$var wire 5 I read_index_2_decode_wire [4:0] $end
$var wire 5 J read_index_1_decode_wire [4:0] $end
$var wire 1 K read_enable_2_decode_wire $end
$var wire 1 L read_enable_1_decode_wire $end
$var wire 7 M opcode_decode_wire [6:0] $end
$var wire 32 N next_PC_wire [31:0] $end
$var wire 32 O load_data_memory_wire [31:0] $end
$var wire 1 P jump_branch_enable_execute_wire $end
$var wire 3 Q instruction_type_decode_wire [2:0] $end
$var wire 32 R instruction_fetch_wire [31:0] $end
$var wire 32 S immediate_decode_wire [31:0] $end
$var wire 7 T funct7_decode_wire [6:0] $end
$var wire 3 U funct3_decode_wire [2:0] $end
$var wire 32 V bus_rs2_decode_wire [31:0] $end
$var wire 32 W bus_rs1_decode_wire [31:0] $end
$var wire 32 X alu_output_execute_wire [31:0] $end
$var wire 32 Y address_execute_wire [31:0] $end
$var wire 32 Z RF_source_2 [31:0] $end
$var wire 32 [ RF_source_1 [31:0] $end
$var wire 32 \ FW_source_2 [31:0] $end
$var wire 32 ] FW_source_1 [31:0] $end
$var wire 1 ^ FW_enable_2 $end
$var wire 1 _ FW_enable_1 $end
$var parameter 32 ` ADDRESS_WIDTH $end
$var parameter 32 a RESET_ADDRESS $end
$var reg 32 b PC_decode_reg [31:0] $end
$var reg 32 c PC_execute_reg [31:0] $end
$var reg 32 d PC_fetch_reg [31:0] $end
$var reg 32 e PC_memory_reg [31:0] $end
$var reg 32 f PC_writeback_reg [31:0] $end
$var reg 32 g address_memory_reg [31:0] $end
$var reg 32 h bus_rs1 [31:0] $end
$var reg 32 i bus_rs2 [31:0] $end
$var reg 32 j bus_rs2_memory_reg [31:0] $end
$var reg 3 k funct3_execute_reg [2:0] $end
$var reg 3 l funct3_memory_reg [2:0] $end
$var reg 3 m funct3_writeback_reg [2:0] $end
$var reg 7 n funct7_execute_reg [6:0] $end
$var reg 7 o funct7_memory_reg [6:0] $end
$var reg 7 p funct7_writeback_reg [6:0] $end
$var reg 32 q immediate_execute_reg [31:0] $end
$var reg 32 r immediate_memory_reg [31:0] $end
$var reg 32 s immediate_writeback_reg [31:0] $end
$var reg 32 t instruction_decode_reg [31:0] $end
$var reg 32 u instruction_execute_reg [31:0] $end
$var reg 32 v instruction_memory_reg [31:0] $end
$var reg 3 w instruction_type_execute_reg [2:0] $end
$var reg 3 x instruction_type_memory_reg [2:0] $end
$var reg 3 y instruction_type_writeback_reg [2:0] $end
$var reg 32 z instruction_writeback_reg [31:0] $end
$var reg 1 { jump_branch_enable_memory_reg $end
$var reg 32 | load_data_writeback_reg [31:0] $end
$var reg 7 } opcode_execute_reg [6:0] $end
$var reg 7 ~ opcode_memory_reg [6:0] $end
$var reg 7 !" opcode_writeback_reg [6:0] $end
$var reg 32 "" result_memory_reg [31:0] $end
$var reg 32 #" result_writeback_reg [31:0] $end
$var reg 32 $" write_data_writeback_reg [31:0] $end
$var reg 1 %" write_enable_execute_reg $end
$var reg 1 &" write_enable_memory_reg $end
$var reg 1 '" write_enable_writeback_reg $end
$var reg 5 (" write_index_execute_reg [4:0] $end
$var reg 5 )" write_index_memory_reg [4:0] $end
$var reg 5 *" write_index_writeback_reg [4:0] $end
$scope module Instruction_Decoder $end
$var wire 1 +" branch_signal $end
$var wire 32 ," instruction [31:0] $end
$var wire 1 -" instruction_type_i $end
$var wire 1 ." instruction_type_r $end
$var wire 1 /" instruction_type_s $end
$var wire 1 0" instruction_type_u $end
$var wire 5 1" write_index [4:0] $end
$var wire 5 2" read_index_2 [4:0] $end
$var wire 5 3" read_index_1 [4:0] $end
$var wire 7 4" opcode [6:0] $end
$var wire 1 5" instruction_type_j $end
$var wire 1 6" instruction_type_b $end
$var wire 3 7" instruction_type [2:0] $end
$var wire 7 8" funct7 [6:0] $end
$var wire 3 9" funct3 [2:0] $end
$var reg 1 L read_enable_1 $end
$var reg 1 K read_enable_2 $end
$var reg 1 H write_enable $end
$upscope $end
$scope module address_generator $end
$var wire 32 :" PC [31:0] $end
$var wire 32 ;" immediate [31:0] $end
$var wire 7 <" opcode [6:0] $end
$var wire 32 =" rs1 [31:0] $end
$var wire 32 >" address [31:0] $end
$var reg 32 ?" value [31:0] $end
$upscope $end
$scope module arithmetic_logic_unit $end
$var wire 32 @" PC [31:0] $end
$var wire 3 A" funct3 [2:0] $end
$var wire 7 B" funct7 [6:0] $end
$var wire 32 C" immediate [31:0] $end
$var wire 7 D" opcode [6:0] $end
$var wire 32 E" rs1 [31:0] $end
$var wire 32 F" rs2 [31:0] $end
$var reg 32 G" alu_output [31:0] $end
$var reg 1 H" mux1_select $end
$var reg 2 I" mux2_select [1:0] $end
$var reg 32 J" operand_1 [31:0] $end
$var reg 32 K" operand_2 [31:0] $end
$upscope $end
$scope module fetch_unit $end
$var wire 1 C CLK $end
$var wire 32 L" PC [31:0] $end
$var wire 32 M" address [31:0] $end
$var wire 1 N" enable $end
$var wire 1 { jump_branch_enable $end
$var wire 32 O" next_PC [31:0] $end
$var wire 32 P" fetched_instruction_wire [31:0] $end
$var wire 1 Q" fetch_done $end
$var parameter 32 R" ADDRESS_WIDTH $end
$var reg 32 S" fetched_instruction [31:0] $end
$scope module instruction_memory $end
$var wire 1 C CLK $end
$var wire 32 T" address [31:0] $end
$var wire 32 U" data [31:0] $end
$var wire 1 N" enable $end
$var wire 4 V" frame_mask [3:0] $end
$var wire 1 W" memory_state $end
$var parameter 4 X" B_0001 $end
$var parameter 4 Y" B_0010 $end
$var parameter 4 Z" B_0100 $end
$var parameter 4 [" B_1000 $end
$var parameter 32 \" DEPTH $end
$var parameter 4 ]" FINISH $end
$var parameter 4 ^" H_0011_1 $end
$var parameter 4 _" H_0011_2 $end
$var parameter 4 `" H_1100_1 $end
$var parameter 4 a" H_1100_2 $end
$var parameter 1 b" READ $end
$var parameter 4 c" STABLE $end
$var parameter 1 d" WRITE $end
$var parameter 4 e" W_1111_1 $end
$var parameter 4 f" W_1111_2 $end
$var parameter 4 g" W_1111_3 $end
$var parameter 4 h" W_1111_4 $end
$var reg 32 i" data_in [31:0] $end
$var reg 1 Q" memory_done $end
$var reg 4 j" next_state [3:0] $end
$var reg 4 k" state [3:0] $end
$upscope $end
$upscope $end
$scope module hazard_forward_unit_source_1 $end
$var wire 32 l" data_1 [31:0] $end
$var wire 32 m" data_2 [31:0] $end
$var wire 32 n" data_3 [31:0] $end
$var wire 5 o" destination_index_1 [4:0] $end
$var wire 5 p" destination_index_2 [4:0] $end
$var wire 5 q" destination_index_3 [4:0] $end
$var wire 1 %" enable_1 $end
$var wire 1 &" enable_2 $end
$var wire 1 '" enable_3 $end
$var wire 5 r" source_index [4:0] $end
$var reg 32 s" forward_data [31:0] $end
$var reg 1 _ forward_enable $end
$upscope $end
$scope module hazard_forward_unit_source_2 $end
$var wire 32 t" data_1 [31:0] $end
$var wire 32 u" data_2 [31:0] $end
$var wire 32 v" data_3 [31:0] $end
$var wire 5 w" destination_index_1 [4:0] $end
$var wire 5 x" destination_index_2 [4:0] $end
$var wire 5 y" destination_index_3 [4:0] $end
$var wire 1 %" enable_1 $end
$var wire 1 &" enable_2 $end
$var wire 1 '" enable_3 $end
$var wire 5 z" source_index [4:0] $end
$var reg 32 {" forward_data [31:0] $end
$var reg 1 ^ forward_enable $end
$upscope $end
$scope module immediate_generator $end
$var wire 32 |" instruction [31:0] $end
$var wire 3 }" instruction_type [2:0] $end
$var reg 32 ~" immediate [31:0] $end
$upscope $end
$scope module jump_branch_unit $end
$var wire 3 !# funct3 [2:0] $end
$var wire 7 "# funct7 [6:0] $end
$var wire 3 ## instruction_type [2:0] $end
$var wire 1 P jump_branch_enable $end
$var wire 7 $# opcode [6:0] $end
$var wire 32 %# rs1 [31:0] $end
$var wire 32 &# rs2 [31:0] $end
$var reg 1 '# branch_enable $end
$var reg 3 (# branch_type [2:0] $end
$var reg 1 )# jump_enable $end
$upscope $end
$scope module load_store_unit $end
$var wire 1 C CLK $end
$var wire 32 *# address [31:0] $end
$var wire 32 +# data [31:0] $end
$var wire 3 ,# funct3 [2:0] $end
$var wire 7 -# opcode [6:0] $end
$var wire 32 .# store_data [31:0] $end
$var wire 1 /# memory_done $end
$var parameter 32 0# ADDRESS_WIDTH $end
$var reg 1 1# enable $end
$var reg 4 2# frame_mask [3:0] $end
$var reg 32 3# load_data [31:0] $end
$var reg 1 4# memory_state $end
$scope module data_memory $end
$var wire 1 C CLK $end
$var wire 32 5# address [31:0] $end
$var wire 32 6# data [31:0] $end
$var wire 1 1# enable $end
$var wire 4 7# frame_mask [3:0] $end
$var wire 1 4# memory_state $end
$var parameter 4 8# B_0001 $end
$var parameter 4 9# B_0010 $end
$var parameter 4 :# B_0100 $end
$var parameter 4 ;# B_1000 $end
$var parameter 32 <# DEPTH $end
$var parameter 4 =# FINISH $end
$var parameter 4 ># H_0011_1 $end
$var parameter 4 ?# H_0011_2 $end
$var parameter 4 @# H_1100_1 $end
$var parameter 4 A# H_1100_2 $end
$var parameter 1 B# READ $end
$var parameter 4 C# STABLE $end
$var parameter 1 D# WRITE $end
$var parameter 4 E# W_1111_1 $end
$var parameter 4 F# W_1111_2 $end
$var parameter 4 G# W_1111_3 $end
$var parameter 4 H# W_1111_4 $end
$var reg 32 I# data_in [31:0] $end
$var reg 1 /# memory_done $end
$var reg 4 J# next_state [3:0] $end
$var reg 4 K# state [3:0] $end
$upscope $end
$upscope $end
$scope module register_file $end
$var wire 1 B CLK $end
$var wire 1 L read_enable_1 $end
$var wire 1 K read_enable_2 $end
$var wire 5 L# read_index_1 [4:0] $end
$var wire 5 M# read_index_2 [4:0] $end
$var wire 1 D reset $end
$var wire 32 N# write_data [31:0] $end
$var wire 1 O# write_enable $end
$var wire 5 P# write_index [4:0] $end
$var parameter 32 Q# DEPTH $end
$var parameter 32 R# WIDTH $end
$var reg 32 S# read_data_1 [31:0] $end
$var reg 32 T# read_data_2 [31:0] $end
$var integer 32 U# i [31:0] $end
$upscope $end
$upscope $end
$scope begin $ivl_for_loop0 $end
$var integer 32 V# i [31:0] $end
$upscope $end
$upscope $end
$enddefinitions $end
$comment Show the parameter values. $end
$dumpall
b100000 R#
b101 Q#
b1100 H#
b1011 G#
b1010 F#
b1001 E#
1D#
b0 C#
0B#
b1000 A#
b111 @#
b110 ?#
b101 >#
b1101 =#
b10000000000 <#
b100 ;#
b11 :#
b10 9#
b1 8#
b1010 0#
b1100 h"
b1011 g"
b1010 f"
b1001 e"
1d"
b0 c"
0b"
b1000 a"
b111 `"
b110 _"
b101 ^"
b1101 ]"
b10000000000 \"
b100 ["
b11 Z"
b10 Y"
b1 X"
b1010 R"
b11111111111111111111111111111100 a
b1010 `
b1010 A
$end
#0
$dumpvars
bx V#
b100000 U#
bz T#
bz S#
bx P#
xO#
bx N#
bx M#
bx L#
b0 K#
bx J#
bz I#
bx 7#
bx 6#
bx00 5#
x4#
bx 3#
bx 2#
x1#
0/#
bx .#
bx -#
bx ,#
bx +#
bx *#
0)#
bx (#
0'#
bx &#
bx %#
bx $#
bz ##
bx "#
bx !#
bz ~"
bx }"
bx |"
bx {"
bx z"
bx y"
bx x"
bx w"
bx v"
bx u"
bx t"
bx s"
bx r"
bx q"
bx p"
bx o"
bx n"
bx m"
bx l"
b0 k"
b1001 j"
bz i"
0W"
b1111 V"
bz U"
b11111111111111111111111111111100 T"
bx S"
0Q"
bz P"
bx O"
0N"
bx M"
b11111111111111111111111111111100 L"
bx K"
bx J"
bx I"
xH"
bx G"
bx F"
bx E"
bx D"
bx C"
bx B"
bx A"
bx @"
bx ?"
bx >"
bx ="
bx <"
bx ;"
bx :"
bx 9"
bx 8"
bx 7"
x6"
x5"
bx 4"
bx 3"
bx 2"
bx 1"
x0"
x/"
x."
x-"
bx ,"
x+"
bx *"
bx )"
bx ("
x'"
x&"
x%"
bx $"
bx #"
bx ""
bx !"
bx ~
bx }
bx |
x{
bx z
bx y
bx x
bz w
bx v
bx u
bx t
bx s
bx r
bx q
bx p
bx o
bx n
bx m
bx l
bx k
bx j
bx i
bx h
bx g
bx f
bx e
b11111111111111111111111111111100 d
bx c
bx b
x_
x^
bx ]
bx \
bz [
bz Z
bx Y
bx X
bx W
bx V
bx U
bx T
bz S
bx R
bx Q
0P
bx O
bx N
bx M
xL
xK
bx J
bx I
xH
bx G
bx F
bx E
1D
1C
1B
b0 @
b0 ?
b0 >
b0 =
b0 <
b0 ;
b0 :
b0 9
b0 8
b0 7
b0 6
b0 5
b0 4
b0 3
b0 2
b0 1
b0 0
b0 /
b0 .
b0 -
b0 ,
b0 +
b0 *
b0 )
b0 (
b0 '
b0 &
b0 %
b0 $
b0 #
b0 "
b0 !
$end
#1
0C
#2
1C
#3
0C
#4
1C
#5
0C
#6
1C
0B
#7
0C
#8
1C
#9
0C
#10
1C
#11
0C
#12
b0 N
b0 O"
0{
bz x
bx w
bx ##
bz q
bz ;"
bz C"
b11111111111111111111111111111100 b
1C
1B
#13
0C
#14
1C
#15
0C
#16
1C
#17
0C
#18
1C
0B
#19
0C
#20
1C
#21
0C
#22
1C
#23
0C
#24
b0z ?"
b11111111111111111111111111111100 c
b11111111111111111111111111111100 :"
b11111111111111111111111111111100 @"
bx x
bz r
bz y
1C
1B
#25
0C
#26
1C
#27
0C
#28
1C
#29
0C
#30
1C
0B
#31
0C
#32
1C
#33
0C
#34
1C
#35
0C
#36
b1010 j"
b100000zzzzzzzzzzzzzzzzzzzzzzzz P"
b100000zzzzzzzzzzzzzzzzzzzzzzzz U"
b100000zzzzzzzzzzzzzzzzzzzzzzzz i"
b100 N
b100 O"
b1001 k"
bx y
bz s
b11111111111111111111111111111100 e
b0 d
b0 L"
b0 T"
1C
1B
1N"
0D
#37
0C
#38
b1011 j"
b10000000000000zzzzzzzzzzzzzzzz P"
b10000000000000zzzzzzzzzzzzzzzz U"
b10000000000000zzzzzzzzzzzzzzzz i"
b1010 k"
1C
#39
0C
#40
b1100 j"
b1000000000000000000001zzzzzzzz P"
b1000000000000000000001zzzzzzzz U"
b1000000000000000000001zzzzzzzz i"
b1011 k"
1C
#41
0C
#42
b1101 j"
b100000000000000000000100010011 P"
b100000000000000000000100010011 U"
b100000000000000000000100010011 i"
b1100 k"
1C
0B
#43
0C
#44
b100000000000000000000100010011 R
b100000000000000000000100010011 S"
b0 j"
1Q"
b1101 k"
1C
#45
0C
#46
b1001 j"
bz P"
bz U"
bz i"
0Q"
b0 k"
1C
#47
0C
#48
b0 W
bz V
b0 [
b0 S#
0_
bz ]
bz s"
0^
bz \
bz {"
b1010 j"
b11111101zzzzzzzzzzzzzzzzzzzzzzzz P"
b11111101zzzzzzzzzzzzzzzzzzzzzzzz U"
b11111101zzzzzzzzzzzzzzzzzzzzzzzz i"
1H
0K
1L
b1000000000 S
b1000000000 ~"
b1 Q
b1 7"
b1 }"
1-"
0."
0/"
00"
b1000 N
b1000 O"
b10011 M
b10011 4"
0+"
06"
05"
b10000 T
b10000 8"
b0 U
b0 9"
b0 J
b0 3"
b0 r"
b0 L#
b0 I
b0 2"
b0 z"
b0 M#
b10 G
b10 1"
b1001 k"
b100 d
b100 L"
b100 T"
b0 b
b100000000000000000000100010011 t
b100000000000000000000100010011 ,"
b100000000000000000000100010011 |"
b11111111111111111111111111111100 f
1C
1B
#49
0C
#50
b1011 j"
b1111110100000001zzzzzzzzzzzzzzzz P"
b1111110100000001zzzzzzzzzzzzzzzz U"
b1111110100000001zzzzzzzzzzzzzzzz i"
b1010 k"
1C
#51
0C
#52
b1100 j"
b111111010000000100000001zzzzzzzz P"
b111111010000000100000001zzzzzzzz U"
b111111010000000100000001zzzzzzzz i"
b1011 k"
1C
#53
0C
#54
b1101 j"
b11111101000000010000000100010011 P"
b11111101000000010000000100010011 U"
b11111101000000010000000100010011 i"
b1100 k"
1C
0B
#55
0C
#56
b11111101000000010000000100010011 R
b11111101000000010000000100010011 S"
b0 j"
1Q"
b1101 k"
1C
#57
0C
#58
b1001 j"
bz P"
bz U"
bz i"
0Q"
b0 k"
1C
#59
0C
#60
b1000000000 W
1_
b1000000000 ]
b1000000000 s"
b1010 j"
b11zzzzzzzzzzzzzzzzzzzzzzzz P"
b11zzzzzzzzzzzzzzzzzzzzzzzz U"
b11zzzzzzzzzzzzzzzzzzzzzzzz i"
b1000000000 F
b1000000000 l"
b1000000000 t"
b1000000000 X
b1000000000 G"
b0 J"
b1000000000 K"
b1 I"
0H"
b1111110 T
b1111110 8"
b10 J
b10 3"
b10 r"
b10 L#
b10000 I
b10000 2"
b10000 z"
b10000 M#
b11111111111111111111111111010000 S
b11111111111111111111111111010000 ~"
b1100 N
b1100 O"
b1001 k"
bz i
bz F"
bz &#
b0 h
b0 ="
b0 E"
b0 %#
1%"
b10 ("
b10 o"
b10 w"
b1 w
b1 ##
b1000000000 q
b1000000000 ;"
b1000000000 C"
b10000 n
b10000 B"
b10000 "#
b0 k
b0 A"
b0 !#
b10011 }
b10011 <"
b10011 D"
b10011 $#
b100000000000000000000100010011 u
b0 c
b0 :"
b0 @"
b100 b
b11111101000000010000000100010011 t
b11111101000000010000000100010011 ,"
b11111101000000010000000100010011 |"
b1000 d
b1000 L"
b1000 T"
1C
1B
#61
0C
#62
b1011 j"
b1100000001zzzzzzzzzzzzzzzz P"
b1100000001zzzzzzzzzzzzzzzz U"
b1100000001zzzzzzzzzzzzzzzz i"
b1010 k"
1C
#63
0C
#64
b1100 j"
b110000000100000100zzzzzzzz P"
b110000000100000100zzzzzzzz U"
b110000000100000100zzzzzzzz i"
b1011 k"
1C
#65
0C
#66
b1101 j"
b11000000010000010000010011 P"
b11000000010000010000010011 U"
b11000000010000010000010011 i"
b1100 k"
1C
0B
#67
0C
#68
b11000000010000010000010011 R
b11000000010000010000010011 S"
b0 j"
1Q"
b1101 k"
1C
#69
0C
#70
b1001 j"
bz P"
bz U"
bz i"
0Q"
b0 k"
1C
#71
0C
#72
b111010000 W
b111010000 ]
b111010000 s"
b0 J#
b1010 j"
b0zzzzzzzzzzzzzzzzzzzzzzzz P"
b0zzzzzzzzzzzzzzzzzzzzzzzz U"
b0zzzzzzzzzzzzzzzzzzzzzzzz i"
b10000 N
b10000 O"
b1 T
b1 8"
b1000 G
b1000 1"
b110000 S
b110000 ~"
b11111111111111111111111111010000 K"
b111010000 F
b111010000 l"
b111010000 t"
b111010000 X
b111010000 G"
b1000000000 J"
b1000000000 m"
b1000000000 u"
04#
b0 2#
b0 7#
01#
bz +#
bz 6#
b1001 k"
b1100 d
b1100 L"
b1100 T"
b1000 b
b11000000010000010000010011 t
b11000000010000010000010011 ,"
b11000000010000010000010011 |"
b1000000000 h
b1000000000 ="
b1000000000 E"
b1000000000 %#
b11111111111111111111111111010000 q
b11111111111111111111111111010000 ;"
b11111111111111111111111111010000 C"
b1111110 n
b1111110 B"
b1111110 "#
b11111101000000010000000100010011 u
b100 c
b100 :"
b100 @"
b1000000000 ""
bz j
bz .#
1&"
b10 )"
b10 p"
b10 x"
b1 x
b1000000000 r
b10000 o
b0 l
b0 ,#
b10011 ~
b10011 -#
b100000000000000000000100010011 v
b0 e
1C
1B
#73
0C
#74
b1011 j"
b10100000zzzzzzzzzzzzzzzz P"
b10100000zzzzzzzzzzzzzzzz U"
b10100000zzzzzzzzzzzzzzzz i"
b1010 k"
1C
#75
0C
#76
b1100 j"
b1010000000000111zzzzzzzz P"
b1010000000000111zzzzzzzz U"
b1010000000000111zzzzzzzz i"
b1011 k"
1C
#77
0C
#78
b1101 j"
b101000000000011110010011 P"
b101000000000011110010011 U"
b101000000000011110010011 i"
b1100 k"
1C
0B
#79
0C
#80
b101000000000011110010011 R
b101000000000011110010011 S"
b0 j"
1Q"
b1101 k"
1C
#81
0C
#82
b1001 j"
bz P"
bz U"
bz i"
0Q"
b0 k"
1C
#83
0C
#84
b0 W
0_
bz ]
bz s"
b1010 j"
b11111100zzzzzzzzzzzzzzzzzzzzzzzz P"
b11111100zzzzzzzzzzzzzzzzzzzzzzzz U"
b11111100zzzzzzzzzzzzzzzzzzzzzzzz i"
b1000000000 N#
1O#
b10 P#
b1000000000 $"
b1000000000 n"
b1000000000 v"
b111010000 m"
b111010000 u"
b110000 K"
b1000000000 F
b1000000000 l"
b1000000000 t"
b1000000000 X
b1000000000 G"
b111010000 J"
b0 T
b0 8"
b0 J
b0 3"
b0 r"
b0 L#
b1010 I
b1010 2"
b1010 z"
b1010 M#
b1111 G
b1111 1"
b1010 S
b1010 ~"
b10100 N
b10100 O"
b1001 k"
b1000000000 #"
1'"
b10 *"
b10 q"
b10 y"
b1 y
b1000000000 s
b10000 p
b0 m
b10011 !"
b100000000000000000000100010011 z
b0 f
b111010000 ""
b11111111111111111111111111010000 r
b1111110 o
b11111101000000010000000100010011 v
b100 e
b111010000 h
b111010000 ="
b111010000 E"
b111010000 %#
b1000 ("
b1000 o"
b1000 w"
b110000 q
b110000 ;"
b110000 C"
b1 n
b1 B"
b1 "#
b11000000010000010000010011 u
b1000 c
b1000 :"
b1000 @"
b1100 b
b101000000000011110010011 t
b101000000000011110010011 ,"
b101000000000011110010011 |"
b10000 d
b10000 L"
b10000 T"
1C
1B
#85
0C
#86
b1011 j"
b1111110011110100zzzzzzzzzzzzzzzz P"
b1111110011110100zzzzzzzzzzzzzzzz U"
b1111110011110100zzzzzzzzzzzzzzzz i"
b1010 k"
1C
#87
0C
#88
b1100 j"
b111111001111010000101000zzzzzzzz P"
b111111001111010000101000zzzzzzzz U"
b111111001111010000101000zzzzzzzz i"
b1011 k"
1C
#89
0C
#90
b1101 j"
b11111100111101000010100000100011 P"
b11111100111101000010100000100011 U"
b11111100111101000010100000100011 i"
b1100 k"
b1000000000 7
1C
0B
#91
0C
#92
b11111100111101000010100000100011 R
b11111100111101000010100000100011 S"
b0 j"
1Q"
b1101 k"
1C
#93
0C
#94
b1001 j"
bz P"
bz U"
bz i"
0Q"
b0 k"
1C
#95
0C
#96
b1000000000 W
b1010 V
b0 Z
b0 T#
1_
b1000000000 ]
b1000000000 s"
1^
b1010 \
b1010 {"
b1010 j"
b10100zzzzzzzzzzzzzzzzzzzzzzzz P"
b10100zzzzzzzzzzzzzzzzzzzzzzzz U"
b10100zzzzzzzzzzzzzzzzzzzzzzzz i"
0H
1K
b10 Q
b10 7"
b10 }"
0-"
1/"
b111010000 N#
b11000 N
b11000 O"
b100011 M
b100011 4"
b1111110 T
b1111110 8"
b10 U
b10 9"
b1000 J
b1000 3"
b1000 r"
b1000 L#
b1111 I
b1111 2"
b1111 z"
b1111 M#
b10000 G
b10000 1"
b11111111111111111111111111010000 S
b11111111111111111111111111010000 ~"
b1010 K"
b1010 F
b1010 l"
b1010 t"
b1010 X
b1010 G"
b0 J"
b1000000000 m"
b1000000000 u"
b111010000 $"
b111010000 n"
b111010000 v"
b1001 k"
b10100 d
b10100 L"
b10100 T"
b10000 b
b11111100111101000010100000100011 t
b11111100111101000010100000100011 ,"
b11111100111101000010100000100011 |"
b0 h
b0 ="
b0 E"
b0 %#
b1111 ("
b1111 o"
b1111 w"
b1010 q
b1010 ;"
b1010 C"
b0 n
b0 B"
b0 "#
b101000000000011110010011 u
b1100 c
b1100 :"
b1100 @"
b1000000000 ""
b1000 )"
b1000 p"
b1000 x"
b110000 r
b1 o
b11000000010000010000010011 v
b1000 e
b111010000 #"
b11111111111111111111111111010000 s
b1111110 p
b11111101000000010000000100010011 z
b100 f
1C
1B
#97
0C
#98
b1011 j"
b1010001000000zzzzzzzzzzzzzzzz P"
b1010001000000zzzzzzzzzzzzzzzz U"
b1010001000000zzzzzzzzzzzzzzzz i"
b1010 k"
1C
#99
0C
#100
b1100 j"
b101000100000000000111zzzzzzzz P"
b101000100000000000111zzzzzzzz U"
b101000100000000000111zzzzzzzz i"
b1011 k"
1C
#101
0C
#102
b1101 j"
b10100010000000000011110010011 P"
b10100010000000000011110010011 U"
b10100010000000000011110010011 i"
b1100 k"
b111010000 7
1C
0B
#103
0C
#104
b10100010000000000011110010011 R
b10100010000000000011110010011 S"
b0 j"
1Q"
b1101 k"
1C
#105
0C
#106
b1001 j"
bz P"
bz U"
bz i"
0Q"
b0 k"
1C
#107
0C
#108
b0 W
bz V
bz Z
bz T#
0_
bz ]
bz s"
0^
bz \
bz {"
b1010 j"
b11111100zzzzzzzzzzzzzzzzzzzzzzzz P"
b11111100zzzzzzzzzzzzzzzzzzzzzzzz U"
b11111100zzzzzzzzzzzzzzzzzzzzzzzz i"
1H
0K
b1 Q
b1 7"
b1 }"
1-"
b1000000000 N#
0/"
b1000 P#
b1000000000 $"
b1000000000 n"
b1000000000 v"
b1010 m"
b1010 u"
b11111111111111111111111111010000 K"
bz F
bz l"
bz t"
bz X
bz G"
b111010000 Y
b111010000 >"
b1000000000 ?"
b1000000000 J"
b10011 M
b10011 4"
b1010 T
b1010 8"
b0 U
b0 9"
b0 J
b0 3"
b0 r"
b0 L#
b100 I
b100 2"
b100 z"
b100 M#
b1111 G
b1111 1"
b101000100 S
b101000100 ~"
b11100 N
b11100 O"
b1001 k"
b1000000000 #"
b1000 *"
b1000 q"
b1000 y"
b110000 s
b1 p
b11000000010000010000010011 z
b1000 f
b1010 ""
b1111 )"
b1111 p"
b1111 x"
b1010 r
b0 o
b101000000000011110010011 v
b1100 e
b1010 i
b1010 F"
b1010 &#
b1000000000 h
b1000000000 ="
b1000000000 E"
b1000000000 %#
0%"
b10000 ("
b10000 o"
b10000 w"
b10 w
b10 ##
b11111111111111111111111111010000 q
b11111111111111111111111111010000 ;"
b11111111111111111111111111010000 C"
b1111110 n
b1111110 B"
b1111110 "#
b10 k
b10 A"
b10 !#
b100011 }
b100011 <"
b100011 D"
b100011 $#
b11111100111101000010100000100011 u
b10000 c
b10000 :"
b10000 @"
b10100 b
b10100010000000000011110010011 t
b10100010000000000011110010011 ,"
b10100010000000000011110010011 |"
b11000 d
b11000 L"
b11000 T"
1C
1B
#109
0C
#110
b1011 j"
b1111110011110100zzzzzzzzzzzzzzzz P"
b1111110011110100zzzzzzzzzzzzzzzz U"
b1111110011110100zzzzzzzzzzzzzzzz i"
b1010 k"
1C
#111
0C
#112
b1100 j"
b111111001111010000101010zzzzzzzz P"
b111111001111010000101010zzzzzzzz U"
b111111001111010000101010zzzzzzzz i"
b1011 k"
1C
#113
0C
#114
b1101 j"
b11111100111101000010101000100011 P"
b11111100111101000010101000100011 U"
b11111100111101000010101000100011 i"
b1100 k"
b1000000000 ?
1C
0B
#115
0C
#116
b11111100111101000010101000100011 R
b11111100111101000010101000100011 S"
b0 j"
1Q"
b1101 k"
1C
#117
0C
#118
b1001 j"
bz P"
bz U"
bz i"
0Q"
b0 k"
1C
#119
0C
