phoeniX.vcd
$date
	Sun Aug 27 09:55:03 2023
$end
$version
	Icarus Verilog
$end
$timescale
	1ns
$end
$scope module phoeniX_Testbench $end
$var wire 32 ! x0_zero [31:0] $end
$var wire 32 " x10_a0 [31:0] $end
$var wire 32 # x11_a1 [31:0] $end
$var wire 32 $ x12_a2 [31:0] $end
$var wire 32 % x13_a3 [31:0] $end
$var wire 32 & x14_a4 [31:0] $end
$var wire 32 ' x15_a5 [31:0] $end
$var wire 32 ( x16_a6 [31:0] $end
$var wire 32 ) x17_a7 [31:0] $end
$var wire 32 * x18_s2 [31:0] $end
$var wire 32 + x19_s3 [31:0] $end
$var wire 32 , x1_ra [31:0] $end
$var wire 32 - x20_s4 [31:0] $end
$var wire 32 . x21_s5 [31:0] $end
$var wire 32 / x22_s6 [31:0] $end
$var wire 32 0 x23_s7 [31:0] $end
$var wire 32 1 x24_s8 [31:0] $end
$var wire 32 2 x25_s9 [31:0] $end
$var wire 32 3 x26_s10 [31:0] $end
$var wire 32 4 x27_s11 [31:0] $end
$var wire 32 5 x28_t3 [31:0] $end
$var wire 32 6 x29_t4 [31:0] $end
$var wire 32 7 x2_sp [31:0] $end
$var wire 32 8 x30_t5 [31:0] $end
$var wire 32 9 x31_t6 [31:0] $end
$var wire 32 : x3_gp [31:0] $end
$var wire 32 ; x4_tp [31:0] $end
$var wire 32 < x5_t0 [31:0] $end
$var wire 32 = x6_t1 [31:0] $end
$var wire 32 > x7_t2 [31:0] $end
$var wire 32 ? x8_s0 [31:0] $end
$var wire 32 @ x9_s1 [31:0] $end
$var parameter 32 A ADDRESS_WIDTH $end
$var parameter 96 B MEMORY_SIZE $end
$var reg 1 C CLK $end
$var reg 1 D CLK_MEM $end
$var reg 1 E reset $end
$var integer 32 F data_memory_file [31:0] $end
$scope module uut $end
$var wire 1 C CLK $end
$var wire 1 D CLK_MEM $end
$var wire 1 E reset $end
$var wire 32 G result_execute_wire [31:0] $end
$var wire 5 H write_index_decode_wire [4:0] $end
$var wire 1 I write_enable_decode_wire $end
$var wire 5 J read_index_2_decode_wire [4:0] $end
$var wire 5 K read_index_1_decode_wire [4:0] $end
$var wire 1 L read_enable_2_decode_wire $end
$var wire 1 M read_enable_1_decode_wire $end
$var wire 7 N opcode_decode_wire [6:0] $end
$var wire 32 O next_PC_wire [31:0] $end
$var wire 32 P load_data_memory_wire [31:0] $end
$var wire 1 Q jump_branch_enable_execute_wire $end
$var wire 3 R instruction_type_decode_wire [2:0] $end
$var wire 32 S instruction_fetch_wire [31:0] $end
$var wire 32 T immediate_decode_wire [31:0] $end
$var wire 7 U funct7_decode_wire [6:0] $end
$var wire 3 V funct3_decode_wire [2:0] $end
$var wire 32 W bus_rs2_decode_wire [31:0] $end
$var wire 32 X bus_rs1_decode_wire [31:0] $end
$var wire 32 Y alu_output_execute_wire [31:0] $end
$var wire 32 Z address_execute_wire [31:0] $end
$var wire 32 [ RF_source_2 [31:0] $end
$var wire 32 \ RF_source_1 [31:0] $end
$var wire 32 ] FW_source_2 [31:0] $end
$var wire 32 ^ FW_source_1 [31:0] $end
$var wire 1 _ FW_enable_2 $end
$var wire 1 ` FW_enable_1 $end
$var parameter 32 a ADDRESS_WIDTH $end
$var parameter 32 b RESET_ADDRESS $end
$var reg 32 c PC_decode_reg [31:0] $end
$var reg 32 d PC_execute_reg [31:0] $end
$var reg 32 e PC_fetch_reg [31:0] $end
$var reg 32 f PC_memory_reg [31:0] $end
$var reg 32 g PC_stall_address [31:0] $end
$var reg 32 h PC_writeback_reg [31:0] $end
$var reg 32 i address_memory_reg [31:0] $end
$var reg 32 j bus_rs1 [31:0] $end
$var reg 32 k bus_rs2 [31:0] $end
$var reg 32 l bus_rs2_memory_reg [31:0] $end
$var reg 3 m funct3_execute_reg [2:0] $end
$var reg 3 n funct3_memory_reg [2:0] $end
$var reg 3 o funct3_writeback_reg [2:0] $end
$var reg 7 p funct7_execute_reg [6:0] $end
$var reg 7 q funct7_memory_reg [6:0] $end
$var reg 7 r funct7_writeback_reg [6:0] $end
$var reg 32 s immediate_execute_reg [31:0] $end
$var reg 32 t immediate_memory_reg [31:0] $end
$var reg 32 u immediate_writeback_reg [31:0] $end
$var reg 32 v instruction_decode_reg [31:0] $end
$var reg 32 w instruction_execute_reg [31:0] $end
$var reg 32 x instruction_memory_reg [31:0] $end
$var reg 3 y instruction_type_execute_reg [2:0] $end
$var reg 3 z instruction_type_memory_reg [2:0] $end
$var reg 3 { instruction_type_writeback_reg [2:0] $end
$var reg 32 | instruction_writeback_reg [31:0] $end
$var reg 1 } jump_branch_enable_memory_reg $end
$var reg 32 ~ load_data_writeback_reg [31:0] $end
$var reg 7 !" opcode_execute_reg [6:0] $end
$var reg 7 "" opcode_memory_reg [6:0] $end
$var reg 7 #" opcode_writeback_reg [6:0] $end
$var reg 32 $" result_memory_reg [31:0] $end
$var reg 32 %" result_writeback_reg [31:0] $end
$var reg 1 &" stall $end
$var reg 32 '" write_data_writeback_reg [31:0] $end
$var reg 1 (" write_enable_execute_reg $end
$var reg 1 )" write_enable_memory_reg $end
$var reg 1 *" write_enable_writeback_reg $end
$var reg 5 +" write_index_execute_reg [4:0] $end
$var reg 5 ," write_index_memory_reg [4:0] $end
$var reg 5 -" write_index_writeback_reg [4:0] $end
$scope module Instruction_Decoder $end
$var wire 32 ." instruction [31:0] $end
$var wire 1 /" instruction_type_i $end
$var wire 1 0" instruction_type_r $end
$var wire 1 1" instruction_type_s $end
$var wire 1 2" instruction_type_u $end
$var wire 5 3" write_index [4:0] $end
$var wire 5 4" read_index_2 [4:0] $end
$var wire 5 5" read_index_1 [4:0] $end
$var wire 7 6" opcode [6:0] $end
$var wire 1 7" instruction_type_j $end
$var wire 1 8" instruction_type_b $end
$var wire 3 9" instruction_type [2:0] $end
$var wire 7 :" funct7 [6:0] $end
$var wire 3 ;" funct3 [2:0] $end
$var reg 1 M read_enable_1 $end
$var reg 1 L read_enable_2 $end
$var reg 1 I write_enable $end
$upscope $end
$scope module address_generator $end
$var wire 32 <" PC [31:0] $end
$var wire 32 =" immediate [31:0] $end
$var wire 7 >" opcode [6:0] $end
$var wire 32 ?" rs1 [31:0] $end
$var reg 32 @" address [31:0] $end
$var reg 32 A" value [31:0] $end
$upscope $end
$scope module arithmetic_logic_unit $end
$var wire 32 B" PC [31:0] $end
$var wire 3 C" funct3 [2:0] $end
$var wire 7 D" funct7 [6:0] $end
$var wire 32 E" immediate [31:0] $end
$var wire 7 F" opcode [6:0] $end
$var wire 32 G" rs1 [31:0] $end
$var wire 32 H" rs2 [31:0] $end
$var reg 32 I" alu_output [31:0] $end
$var reg 1 J" mux1_select $end
$var reg 2 K" mux2_select [1:0] $end
$var reg 32 L" operand_1 [31:0] $end
$var reg 32 M" operand_2 [31:0] $end
$upscope $end
$scope module fetch_unit $end
$var wire 1 D CLK $end
$var wire 32 N" PC [31:0] $end
$var wire 32 O" address [31:0] $end
$var wire 1 P" enable $end
$var wire 32 Q" next_PC [31:0] $end
$var wire 1 Q jump_branch_enable $end
$var wire 32 R" fetched_instruction_wire [31:0] $end
$var wire 1 S" fetch_done $end
$var parameter 32 T" ADDRESS_WIDTH $end
$var reg 32 U" fetched_instruction [31:0] $end
$scope module instruction_memory $end
$var wire 1 D CLK $end
$var wire 32 V" address [31:0] $end
$var wire 32 W" data [31:0] $end
$var wire 1 P" enable $end
$var wire 4 X" frame_mask [3:0] $end
$var wire 1 Y" memory_state $end
$var parameter 4 Z" B_0001 $end
$var parameter 4 [" B_0010 $end
$var parameter 4 \" B_0100 $end
$var parameter 4 ]" B_1000 $end
$var parameter 32 ^" DEPTH $end
$var parameter 4 _" FINISH $end
$var parameter 4 `" H_0011_1 $end
$var parameter 4 a" H_0011_2 $end
$var parameter 4 b" H_1100_1 $end
$var parameter 4 c" H_1100_2 $end
$var parameter 1 d" READ $end
$var parameter 4 e" STABLE $end
$var parameter 1 f" WRITE $end
$var parameter 4 g" W_1111_1 $end
$var parameter 4 h" W_1111_2 $end
$var parameter 4 i" W_1111_3 $end
$var parameter 4 j" W_1111_4 $end
$var reg 32 k" data_in [31:0] $end
$var reg 1 S" memory_done $end
$var reg 4 l" next_state [3:0] $end
$var reg 4 m" state [3:0] $end
$upscope $end
$upscope $end
$scope module hazard_forward_unit_source_1 $end
$var wire 32 n" data_1 [31:0] $end
$var wire 32 o" data_2 [31:0] $end
$var wire 32 p" data_3 [31:0] $end
$var wire 5 q" destination_index_1 [4:0] $end
$var wire 5 r" destination_index_2 [4:0] $end
$var wire 5 s" destination_index_3 [4:0] $end
$var wire 1 (" enable_1 $end
$var wire 1 )" enable_2 $end
$var wire 1 *" enable_3 $end
$var wire 5 t" source_index [4:0] $end
$var reg 32 u" forward_data [31:0] $end
$var reg 1 ` forward_enable $end
$upscope $end
$scope module hazard_forward_unit_source_2 $end
$var wire 32 v" data_1 [31:0] $end
$var wire 32 w" data_2 [31:0] $end
$var wire 32 x" data_3 [31:0] $end
$var wire 5 y" destination_index_1 [4:0] $end
$var wire 5 z" destination_index_2 [4:0] $end
$var wire 5 {" destination_index_3 [4:0] $end
$var wire 1 (" enable_1 $end
$var wire 1 )" enable_2 $end
$var wire 1 *" enable_3 $end
$var wire 5 |" source_index [4:0] $end
$var reg 32 }" forward_data [31:0] $end
$var reg 1 _ forward_enable $end
$upscope $end
$scope module immediate_generator $end
$var wire 32 ~" instruction [31:0] $end
$var wire 3 !# instruction_type [2:0] $end
$var reg 32 "# immediate [31:0] $end
$upscope $end
$scope module jump_branch_unit $end
$var wire 3 ## funct3 [2:0] $end
$var wire 3 $# instruction_type [2:0] $end
$var wire 1 Q jump_branch_enable $end
$var wire 32 %# rs1 [31:0] $end
$var wire 32 &# rs2 [31:0] $end
$var reg 1 '# branch_enable $end
$var reg 1 (# jump_enable $end
$upscope $end
$scope module load_store_unit $end
$var wire 1 D CLK $end
$var wire 32 )# address [31:0] $end
$var wire 32 *# data [31:0] $end
$var wire 3 +# funct3 [2:0] $end
$var wire 7 ,# opcode [6:0] $end
$var wire 32 -# store_data [31:0] $end
$var wire 1 .# memory_done $end
$var parameter 32 /# ADDRESS_WIDTH $end
$var reg 1 0# enable $end
$var reg 4 1# frame_mask [3:0] $end
$var reg 32 2# load_data [31:0] $end
$var reg 1 3# memory_state $end
$scope module data_memory $end
$var wire 1 D CLK $end
$var wire 32 4# address [31:0] $end
$var wire 32 5# data [31:0] $end
$var wire 1 0# enable $end
$var wire 4 6# frame_mask [3:0] $end
$var wire 1 3# memory_state $end
$var parameter 4 7# B_0001 $end
$var parameter 4 8# B_0010 $end
$var parameter 4 9# B_0100 $end
$var parameter 4 :# B_1000 $end
$var parameter 32 ;# DEPTH $end
$var parameter 4 <# FINISH $end
$var parameter 4 =# H_0011_1 $end
$var parameter 4 ># H_0011_2 $end
$var parameter 4 ?# H_1100_1 $end
$var parameter 4 @# H_1100_2 $end
$var parameter 1 A# READ $end
$var parameter 4 B# STABLE $end
$var parameter 1 C# WRITE $end
$var parameter 4 D# W_1111_1 $end
$var parameter 4 E# W_1111_2 $end
$var parameter 4 F# W_1111_3 $end
$var parameter 4 G# W_1111_4 $end
$var reg 32 H# data_in [31:0] $end
$var reg 1 .# memory_done $end
$var reg 4 I# next_state [3:0] $end
$var reg 4 J# state [3:0] $end
$upscope $end
$upscope $end
$scope module register_file $end
$var wire 1 C CLK $end
$var wire 1 M read_enable_1 $end
$var wire 1 L read_enable_2 $end
$var wire 5 K# read_index_1 [4:0] $end
$var wire 5 L# read_index_2 [4:0] $end
$var wire 1 E reset $end
$var wire 32 M# write_data [31:0] $end
$var wire 1 N# write_enable $end
$var wire 5 O# write_index [4:0] $end
$var parameter 32 P# DEPTH $end
$var parameter 32 Q# WIDTH $end
$var reg 32 R# read_data_1 [31:0] $end
$var reg 32 S# read_data_2 [31:0] $end
$var integer 32 T# i [31:0] $end
$upscope $end
$upscope $end
$scope begin $ivl_for_loop0 $end
$var integer 32 U# addr [31:0] $end
$upscope $end
$upscope $end
$enddefinitions $end
$comment Show the parameter values. $end
$dumpall
b100000 Q#
b101 P#
b1100 G#
b1011 F#
b1010 E#
b1001 D#
1C#
b0 B#
0A#
b1000 @#
b111 ?#
b110 >#
b101 =#
b1101 <#
b1000000000000 ;#
b100 :#
b11 9#
b10 8#
b1 7#
b1100 /#
b1100 j"
b1011 i"
b1010 h"
b1001 g"
1f"
b0 e"
0d"
b1000 c"
b111 b"
b110 a"
b101 `"
b1101 _"
b1000000000000 ^"
b100 ]"
b11 \"
b10 ["
b1 Z"
b1100 T"
b11111111111111111111111111111100 b
b1100 a
b10000000000000000000000 B
b1100 A
$end
#0
$dumpvars
bx U#
b100000 T#
bz S#
bz R#
bx O#
xN#
bx M#
bx L#
bx K#
b0 J#
bx I#
bz H#
bx 6#
bx 5#
bx00 4#
x3#
bx 2#
bx 1#
x0#
0.#
bx -#
bx ,#
bx +#
bx *#
bx )#
0(#
0'#
bx &#
bx %#
bz $#
bx ##
bz "#
bx !#
bx ~"
bx }"
bx |"
bx {"
bx z"
bx y"
bx x"
bx w"
bx v"
bx u"
bx t"
bx s"
bx r"
bx q"
bx p"
bx o"
bx n"
b0 m"
b1001 l"
bz k"
0Y"
b1111 X"
bz W"
b11111111111111111111111111111100 V"
bx U"
0S"
bz R"
b0 Q"
0P"
bx O"
b11111111111111111111111111111100 N"
bx M"
bx L"
bx K"
xJ"
bx I"
bx H"
bx G"
bx F"
bx E"
bx D"
bx C"
bx B"
bx A"
bx @"
bx ?"
bx >"
bx ="
bx <"
bx ;"
bx :"
bx 9"
x8"
x7"
bx 6"
bx 5"
bx 4"
bx 3"
x2"
x1"
x0"
x/"
bx ."
bx -"
bx ,"
bx +"
x*"
x)"
x("
bx '"
x&"
bx %"
bx $"
bx #"
bx ""
bx !"
bx ~
x}
bx |
bx {
bx z
bz y
bx x
bx w
bx v
bx u
bx t
bx s
bx r
bx q
bx p
bx o
bx n
bx m
bx l
bx k
bx j
bx i
bx h
bx g
bx f
b11111111111111111111111111111100 e
bx d
bx c
x`
x_
bx ^
bx ]
bz \
bz [
bx Z
bx Y
bx X
bx W
bx V
bx U
bz T
bx S
bx R
0Q
bx P
b0 O
bx N
xM
xL
bx K
bx J
xI
bx H
bx G
bx F
1E
1D
1C
b0 @
b0 ?
b0 >
b0 =
b0 <
b0 ;
b0 :
b0 9
b0 8
b0 7
b0 6
b0 5
b0 4
b0 3
b0 2
b0 1
b0 0
b0 /
b0 .
b0 -
b0 ,
b0 +
b0 *
b0 )
b0 (
b0 '
b0 &
b0 %
b0 $
b0 #
b0 "
b0 !
$end
#1
0D
#2
1D
#3
0D
#4
1D
#5
0D
#6
1D
0C
#7
0D
#8
1D
#9
0D
#10
1D
#11
0D
#12
b0z A"
bz g
0&"
0}
bz z
bx y
bx $#
bz s
bz ="
bz E"
b11111111111111111111111111111100 c
1D
1C
#13
0D
#14
1D
#15
0D
#16
1D
#17
0D
#18
1D
0C
#19
0D
#20
1D
#21
0D
#22
1D
#23
0D
#24
b11111111111111111111111111111100 d
b11111111111111111111111111111100 <"
b11111111111111111111111111111100 B"
bx z
bz t
bz {
1D
1C
#25
0D
#26
1D
#27
0D
#28
1D
#29
0D
#30
1D
0C
#31
0D
#32
1D
#33
0D
#34
1D
#35
0D
#36
b1010 l"
b0zzzzzzzzzzzzzzzzzzzzzzzz R"
b0zzzzzzzzzzzzzzzzzzzzzzzz W"
b0zzzzzzzzzzzzzzzzzzzzzzzz k"
b100 O
b100 Q"
b1001 m"
bx {
bz u
b11111111111111111111111111111100 f
b0 e
b0 N"
b0 V"
1D
1C
1P"
0E
#37
0D
#38
b1011 l"
b0zzzzzzzzzzzzzzzz R"
b0zzzzzzzzzzzzzzzz W"
b0zzzzzzzzzzzzzzzz k"
b1010 m"
1D
#39
0D
#40
b1100 l"
b0zzzzzzzz R"
b0zzzzzzzz W"
b0zzzzzzzz k"
b1011 m"
1D
#41
0D
#42
b1101 l"
b10010011 R"
b10010011 W"
b10010011 k"
b1100 m"
1D
0C
#43
0D
#44
b10010011 S
b10010011 U"
b0 l"
1S"
b1101 m"
1D
#45
0D
#46
b1001 l"
bz R"
bz W"
bz k"
0S"
b0 m"
1D
#47
0D
#48
b0 X
bz W
b0 \
b0 R#
0`
bz ^
bz u"
0_
bz ]
bz }"
b1010 l"
b0zzzzzzzzzzzzzzzzzzzzzzzz R"
b0zzzzzzzzzzzzzzzzzzzzzzzz W"
b0zzzzzzzzzzzzzzzzzzzzzzzz k"
1I
0L
1M
b0 T
b0 "#
b1 R
b1 9"
b1 !#
1/"
00"
01"
02"
b1000 O
b1000 Q"
08"
07"
b10011 N
b10011 6"
b0 U
b0 :"
b0 V
b0 ;"
b0 K
b0 5"
b0 t"
b0 K#
b0 J
b0 4"
b0 |"
b0 L#
b1 H
b1 3"
b1001 m"
b100 e
b100 N"
b100 V"
b10010011 v
b10010011 ."
b10010011 ~"
b0 c
b11111111111111111111111111111100 h
1D
1C
#49
0D
#50
b1011 l"
b0zzzzzzzzzzzzzzzz R"
b0zzzzzzzzzzzzzzzz W"
b0zzzzzzzzzzzzzzzz k"
b1010 m"
1D
#51
0D
#52
b1100 l"
b1zzzzzzzz R"
b1zzzzzzzz W"
b1zzzzzzzz k"
b1011 m"
1D
#53
0D
#54
b1101 l"
b100010011 R"
b100010011 W"
b100010011 k"
b1100 m"
1D
0C
#55
0D
#56
b100010011 S
b100010011 U"
b0 l"
1S"
b1101 m"
1D
#57
0D
#58
b1001 l"
bz R"
bz W"
bz k"
0S"
b0 m"
1D
#59
0D
#60
b1010 l"
b0zzzzzzzzzzzzzzzzzzzzzzzz R"
b0zzzzzzzzzzzzzzzzzzzzzzzz W"
b0zzzzzzzzzzzzzzzzzzzzzzzz k"
b0 n"
b0 v"
b0 G
b0 Y
b0 I"
b0 L"
b0 M"
b1 K"
0J"
b10 H
b10 3"
b1100 O
b1100 Q"
b1001 m"
bz k
bz H"
bz &#
b0 j
b0 ?"
b0 G"
b0 %#
b1 +"
b1 q"
b1 y"
b1 y
b1 $#
b0 s
b0 ="
b0 E"
b0 p
b0 D"
b0 m
b0 C"
b0 ##
b10011 !"
b10011 >"
b10011 F"
1("
b10010011 w
b0 d
b0 <"
b0 B"
b100010011 v
b100010011 ."
b100010011 ~"
b100 c
b1000 e
b1000 N"
b1000 V"
1D
1C
#61
0D
#62
b1011 l"
b0zzzzzzzzzzzzzzzz R"
b0zzzzzzzzzzzzzzzz W"
b0zzzzzzzzzzzzzzzz k"
b1010 m"
1D
#63
0D
#64
b1100 l"
b1zzzzzzzz R"
b1zzzzzzzz W"
b1zzzzzzzz k"
b1011 m"
1D
#65
0D
#66
b1101 l"
b110010011 R"
b110010011 W"
b110010011 k"
b1100 m"
1D
0C
#67
0D
#68
b110010011 S
b110010011 U"
b0 l"
1S"
b1101 m"
1D
#69
0D
#70
b1001 l"
bz R"
bz W"
bz k"
0S"
b0 m"
1D
#71
0D
#72
b0 I#
b1010 l"
b0zzzzzzzzzzzzzzzzzzzzzzzz R"
b0zzzzzzzzzzzzzzzzzzzzzzzz W"
b0zzzzzzzzzzzzzzzzzzzzzzzz k"
b10000 O
b10000 Q"
b11 H
b11 3"
b0 o"
b0 w"
03#
b0 1#
b0 6#
00#
bz *#
bz 5#
b1001 m"
b1100 e
b1100 N"
b1100 V"
b110010011 v
b110010011 ."
b110010011 ~"
b1000 c
b10 +"
b10 q"
b10 y"
b100010011 w
b100 d
b100 <"
b100 B"
b0 $"
bz l
bz -#
1)"
b1 ,"
b1 r"
b1 z"
b1 z
b0 t
b0 q
b0 n
b0 +#
b10011 ""
b10011 ,#
b10010011 x
b0 f
1D
1C
#73
0D
#74
b1011 l"
b0zzzzzzzzzzzzzzzz R"
b0zzzzzzzzzzzzzzzz W"
b0zzzzzzzzzzzzzzzz k"
b1010 m"
1D
#75
0D
#76
b1100 l"
b10zzzzzzzz R"
b10zzzzzzzz W"
b10zzzzzzzz k"
b1011 m"
1D
#77
0D
#78
b1101 l"
b1000010011 R"
b1000010011 W"
b1000010011 k"
b1100 m"
1D
0C
#79
0D
#80
b1000010011 S
b1000010011 U"
b0 l"
1S"
b1101 m"
1D
#81
0D
#82
b1001 l"
bz R"
bz W"
bz k"
0S"
b0 m"
1D
#83
0D
#84
b1010 l"
b0zzzzzzzzzzzzzzzzzzzzzzzz R"
b0zzzzzzzzzzzzzzzzzzzzzzzz W"
b0zzzzzzzzzzzzzzzzzzzzzzzz k"
b0 M#
1N#
b1 O#
b0 '"
b0 p"
b0 x"
b100 H
b100 3"
b10100 O
b10100 Q"
b1001 m"
b0 %"
1*"
b1 -"
b1 s"
b1 {"
b1 {
b0 u
b0 r
b0 o
b10011 #"
b10010011 |
b0 h
b10 ,"
b10 r"
b10 z"
b100010011 x
b100 f
b11 +"
b11 q"
b11 y"
b110010011 w
b1000 d
b1000 <"
b1000 B"
b1000010011 v
b1000010011 ."
b1000010011 ~"
b1100 c
b10000 e
b10000 N"
b10000 V"
1D
1C
#85
0D
#86
b1011 l"
b0zzzzzzzzzzzzzzzz R"
b0zzzzzzzzzzzzzzzz W"
b0zzzzzzzzzzzzzzzz k"
b1010 m"
1D
#87
0D
#88
b1100 l"
b10zzzzzzzz R"
b10zzzzzzzz W"
b10zzzzzzzz k"
b1011 m"
1D
#89
0D
#90
b1101 l"
b1010010011 R"
b1010010011 W"
b1010010011 k"
b1100 m"
1D
0C
#91
0D
#92
b1010010011 S
b1010010011 U"
b0 l"
1S"
b1101 m"
1D
#93
0D
#94
b1001 l"
bz R"
bz W"
bz k"
0S"
b0 m"
1D
#95
0D
#96
b1010 l"
b0zzzzzzzzzzzzzzzzzzzzzzzz R"
b0zzzzzzzzzzzzzzzzzzzzzzzz W"
b0zzzzzzzzzzzzzzzzzzzzzzzz k"
b11000 O
b11000 Q"
b101 H
b101 3"
b10 O#
b1001 m"
b10100 e
b10100 N"
b10100 V"
b1010010011 v
b1010010011 ."
b1010010011 ~"
b10000 c
b100 +"
b100 q"
b100 y"
b1000010011 w
b1100 d
b1100 <"
b1100 B"
b11 ,"
b11 r"
b11 z"
b110010011 x
b1000 f
b10 -"
b10 s"
b10 {"
b100010011 |
b100 h
1D
1C
#97
0D
#98
b1011 l"
b0zzzzzzzzzzzzzzzz R"
b0zzzzzzzzzzzzzzzz W"
b0zzzzzzzzzzzzzzzz k"
b1010 m"
1D
#99
0D
#100
b1100 l"
b11zzzzzzzz R"
b11zzzzzzzz W"
b11zzzzzzzz k"
b1011 m"
1D
#101
0D
#102
b1101 l"
b1100010011 R"
b1100010011 W"
b1100010011 k"
b1100 m"
1D
0C
#103
0D
#104
b1100010011 S
b1100010011 U"
b0 l"
1S"
b1101 m"
1D
#105
0D
#106
b1001 l"
bz R"
bz W"
bz k"
0S"
b0 m"
1D
#107
0D
#108
b1010 l"
b0zzzzzzzzzzzzzzzzzzzzzzzz R"
b0zzzzzzzzzzzzzzzzzzzzzzzz W"
b0zzzzzzzzzzzzzzzzzzzzzzzz k"
b11 O#
b110 H
b110 3"
b11100 O
b11100 Q"
b1001 m"
b11 -"
b11 s"
b11 {"
b110010011 |
b1000 h
b100 ,"
b100 r"
b100 z"
b1000010011 x
b1100 f
b101 +"
b101 q"
b101 y"
b1010010011 w
b10000 d
b10000 <"
b10000 B"
b1100010011 v
b1100010011 ."
b1100010011 ~"
b10100 c
b11000 e
b11000 N"
b11000 V"
1D
1C
#109
0D
#110
b1011 l"
b0zzzzzzzzzzzzzzzz R"
b0zzzzzzzzzzzzzzzz W"
b0zzzzzzzzzzzzzzzz k"
b1010 m"
1D
#111
0D
#112
b1100 l"
b11zzzzzzzz R"
b11zzzzzzzz W"
b11zzzzzzzz k"
b1011 m"
1D
#113
0D
#114
b1101 l"
b1110010011 R"
b1110010011 W"
b1110010011 k"
b1100 m"
1D
0C
#115
0D
#116
b1110010011 S
b1110010011 U"
b0 l"
1S"
b1101 m"
1D
#117
0D
#118
b1001 l"
bz R"
bz W"
bz k"
0S"
b0 m"
1D
#119
0D
#120
b1010 l"
b0zzzzzzzzzzzzzzzzzzzzzzzz R"
b0zzzzzzzzzzzzzzzzzzzzzzzz W"
b0zzzzzzzzzzzzzzzzzzzzzzzz k"
b100000 O
b100000 Q"
b111 H
b111 3"
b100 O#
b1001 m"
b11100 e
b11100 N"
b11100 V"
b1110010011 v
b1110010011 ."
b1110010011 ~"
b11000 c
b110 +"
b110 q"
b110 y"
b1100010011 w
b10100 d
b10100 <"
b10100 B"
b101 ,"
b101 r"
b101 z"
b1010010011 x
b10000 f
b100 -"
b100 s"
b100 {"
b1000010011 |
b1100 h
1D
1C
#121
0D
#122
b1011 l"
b0zzzzzzzzzzzzzzzz R"
b0zzzzzzzzzzzzzzzz W"
b0zzzzzzzzzzzzzzzz k"
b1010 m"
1D
#123
0D
#124
b1100 l"
b100zzzzzzzz R"
b100zzzzzzzz W"
b100zzzzzzzz k"
b1011 m"
1D
#125
0D
#126
b1101 l"
b10000010011 R"
b10000010011 W"
b10000010011 k"
b1100 m"
1D
0C
#127
0D
#128
b10000010011 S
b10000010011 U"
b0 l"
1S"
b1101 m"
1D
#129
0D
#130
b1001 l"
bz R"
bz W"
bz k"
0S"
b0 m"
1D
#131
0D
#132
b1010 l"
b0zzzzzzzzzzzzzzzzzzzzzzzz R"
b0zzzzzzzzzzzzzzzzzzzzzzzz W"
b0zzzzzzzzzzzzzzzzzzzzzzzz k"
b101 O#
b1000 H
b1000 3"
b100100 O
b100100 Q"
b1001 m"
b101 -"
b101 s"
b101 {"
b1010010011 |
b10000 h
b110 ,"
b110 r"
b110 z"
b1100010011 x
b10100 f
b111 +"
b111 q"
b111 y"
b1110010011 w
b11000 d
b11000 <"
b11000 B"
b10000010011 v
b10000010011 ."
b10000010011 ~"
b11100 c
b100000 e
b100000 N"
b100000 V"
1D
1C
#133
0D
#134
b1011 l"
b0zzzzzzzzzzzzzzzz R"
b0zzzzzzzzzzzzzzzz W"
b0zzzzzzzzzzzzzzzz k"
b1010 m"
1D
#135
0D
#136
b1100 l"
b100zzzzzzzz R"
b100zzzzzzzz W"
b100zzzzzzzz k"
b1011 m"
1D
#137
0D
#138
b1101 l"
b10010010011 R"
b10010010011 W"
b10010010011 k"
b1100 m"
1D
0C
#139
0D
#140
b10010010011 S
b10010010011 U"
b0 l"
1S"
b1101 m"
1D
#141
0D
#142
b1001 l"
bz R"
bz W"
bz k"
0S"
b0 m"
1D
#143
0D
#144
b1010 l"
b0zzzzzzzzzzzzzzzzzzzzzzzz R"
b0zzzzzzzzzzzzzzzzzzzzzzzz W"
b0zzzzzzzzzzzzzzzzzzzzzzzz k"
b101000 O
b101000 Q"
b1001 H
b1001 3"
b110 O#
b1001 m"
b100100 e
b100100 N"
b100100 V"
b10010010011 v
b10010010011 ."
b10010010011 ~"
b100000 c
b1000 +"
b1000 q"
b1000 y"
b10000010011 w
b11100 d
b11100 <"
b11100 B"
b111 ,"
b111 r"
b111 z"
b1110010011 x
b11000 f
b110 -"
b110 s"
b110 {"
b1100010011 |
b10100 h
1D
1C
#145
0D
#146
b1011 l"
b0zzzzzzzzzzzzzzzz R"
b0zzzzzzzzzzzzzzzz W"
b0zzzzzzzzzzzzzzzz k"
b1010 m"
1D
#147
0D
#148
b1100 l"
b101zzzzzzzz R"
b101zzzzzzzz W"
b101zzzzzzzz k"
b1011 m"
1D
#149
0D
#150
b1101 l"
b10100010011 R"
b10100010011 W"
b10100010011 k"
b1100 m"
1D
0C
#151
0D
#152
b10100010011 S
b10100010011 U"
b0 l"
1S"
b1101 m"
1D
#153
0D
#154
b1001 l"
bz R"
bz W"
bz k"
0S"
b0 m"
1D
#155
0D
#156
b1010 l"
b0zzzzzzzzzzzzzzzzzzzzzzzz R"
b0zzzzzzzzzzzzzzzzzzzzzzzz W"
b0zzzzzzzzzzzzzzzzzzzzzzzz k"
b111 O#
b1010 H
b1010 3"
b101100 O
b101100 Q"
b1001 m"
b111 -"
b111 s"
b111 {"
b1110010011 |
b11000 h
b1000 ,"
b1000 r"
b1000 z"
b10000010011 x
b11100 f
b1001 +"
b1001 q"
b1001 y"
b10010010011 w
b100000 d
b100000 <"
b100000 B"
b10100010011 v
b10100010011 ."
b10100010011 ~"
b100100 c
b101000 e
b101000 N"
b101000 V"
1D
1C
#157
0D
#158
b1011 l"
b0zzzzzzzzzzzzzzzz R"
b0zzzzzzzzzzzzzzzz W"
b0zzzzzzzzzzzzzzzz k"
b1010 m"
1D
#159
0D
#160
b1100 l"
b101zzzzzzzz R"
b101zzzzzzzz W"
b101zzzzzzzz k"
b1011 m"
1D
#161
0D
#162
b1101 l"
b10110010011 R"
b10110010011 W"
b10110010011 k"
b1100 m"
1D
0C
#163
0D
#164
b10110010011 S
b10110010011 U"
b0 l"
1S"
b1101 m"
1D
#165
0D
#166
b1001 l"
bz R"
bz W"
bz k"
0S"
b0 m"
1D
#167
0D
#168
b1010 l"
b0zzzzzzzzzzzzzzzzzzzzzzzz R"
b0zzzzzzzzzzzzzzzzzzzzzzzz W"
b0zzzzzzzzzzzzzzzzzzzzzzzz k"
b110000 O
b110000 Q"
b1011 H
b1011 3"
b1000 O#
b1001 m"
b101100 e
b101100 N"
b101100 V"
b10110010011 v
b10110010011 ."
b10110010011 ~"
b101000 c
b1010 +"
b1010 q"
b1010 y"
b10100010011 w
b100100 d
b100100 <"
b100100 B"
b1001 ,"
b1001 r"
b1001 z"
b10010010011 x
b100000 f
b1000 -"
b1000 s"
b1000 {"
b10000010011 |
b11100 h
1D
1C
#169
0D
#170
b1011 l"
b0zzzzzzzzzzzzzzzz R"
b0zzzzzzzzzzzzzzzz W"
b0zzzzzzzzzzzzzzzz k"
b1010 m"
1D
#171
0D
