phoeniX.vcd
$date
	Tue Aug 29 12:55:56 2023
$end
$version
	Icarus Verilog
$end
$timescale
	1ns
$end
$scope module phoeniX_Testbench $end
$var wire 32 ! x0_zero [31:0] $end
$var wire 32 " x10_a0 [31:0] $end
$var wire 32 # x11_a1 [31:0] $end
$var wire 32 $ x12_a2 [31:0] $end
$var wire 32 % x13_a3 [31:0] $end
$var wire 32 & x14_a4 [31:0] $end
$var wire 32 ' x15_a5 [31:0] $end
$var wire 32 ( x16_a6 [31:0] $end
$var wire 32 ) x17_a7 [31:0] $end
$var wire 32 * x18_s2 [31:0] $end
$var wire 32 + x19_s3 [31:0] $end
$var wire 32 , x1_ra [31:0] $end
$var wire 32 - x20_s4 [31:0] $end
$var wire 32 . x21_s5 [31:0] $end
$var wire 32 / x22_s6 [31:0] $end
$var wire 32 0 x23_s7 [31:0] $end
$var wire 32 1 x24_s8 [31:0] $end
$var wire 32 2 x25_s9 [31:0] $end
$var wire 32 3 x26_s10 [31:0] $end
$var wire 32 4 x27_s11 [31:0] $end
$var wire 32 5 x28_t3 [31:0] $end
$var wire 32 6 x29_t4 [31:0] $end
$var wire 32 7 x2_sp [31:0] $end
$var wire 32 8 x30_t5 [31:0] $end
$var wire 32 9 x31_t6 [31:0] $end
$var wire 32 : x3_gp [31:0] $end
$var wire 32 ; x4_tp [31:0] $end
$var wire 32 < x5_t0 [31:0] $end
$var wire 32 = x6_t1 [31:0] $end
$var wire 32 > x7_t2 [31:0] $end
$var wire 32 ? x8_s0 [31:0] $end
$var wire 32 @ x9_s1 [31:0] $end
$var parameter 32 A ADDRESS_WIDTH $end
$var reg 1 B CLK $end
$var reg 1 C CLK_MEM $end
$var reg 1 D reset $end
$var integer 32 E data_memory_file [31:0] $end
$scope module uut $end
$var wire 1 B CLK $end
$var wire 1 C CLK_MEM $end
$var wire 1 D reset $end
$var wire 32 F result_execute_wire [31:0] $end
$var wire 5 G write_index_decode_wire [4:0] $end
$var wire 1 H write_enable_decode_wire $end
$var wire 5 I read_index_2_decode_wire [4:0] $end
$var wire 5 J read_index_1_decode_wire [4:0] $end
$var wire 1 K read_enable_2_decode_wire $end
$var wire 1 L read_enable_1_decode_wire $end
$var wire 7 M opcode_decode_wire [6:0] $end
$var wire 32 N next_PC_wire [31:0] $end
$var wire 32 O load_data_memory_wire [31:0] $end
$var wire 1 P jump_branch_enable_execute_wire $end
$var wire 3 Q instruction_type_decode_wire [2:0] $end
$var wire 32 R instruction_fetch_wire [31:0] $end
$var wire 32 S immediate_decode_wire [31:0] $end
$var wire 7 T funct7_decode_wire [6:0] $end
$var wire 3 U funct3_decode_wire [2:0] $end
$var wire 32 V bus_rs2_decode_wire [31:0] $end
$var wire 32 W bus_rs1_decode_wire [31:0] $end
$var wire 32 X alu_output_execute_wire [31:0] $end
$var wire 32 Y address_execute_wire [31:0] $end
$var wire 32 Z RF_source_2 [31:0] $end
$var wire 32 [ RF_source_1 [31:0] $end
$var wire 32 \ FW_source_2 [31:0] $end
$var wire 32 ] FW_source_1 [31:0] $end
$var wire 1 ^ FW_enable_2 $end
$var wire 1 _ FW_enable_1 $end
$var parameter 32 ` ADDRESS_WIDTH $end
$var parameter 32 a RESET_ADDRESS $end
$var reg 32 b PC_decode_reg [31:0] $end
$var reg 32 c PC_execute_reg [31:0] $end
$var reg 32 d PC_fetch_reg [31:0] $end
$var reg 32 e PC_memory_reg [31:0] $end
$var reg 32 f PC_stall_address [31:0] $end
$var reg 32 g PC_writeback_reg [31:0] $end
$var reg 32 h address_memory_reg [31:0] $end
$var reg 32 i bus_rs1 [31:0] $end
$var reg 32 j bus_rs2 [31:0] $end
$var reg 32 k bus_rs2_memory_reg [31:0] $end
$var reg 3 l funct3_execute_reg [2:0] $end
$var reg 3 m funct3_memory_reg [2:0] $end
$var reg 3 n funct3_writeback_reg [2:0] $end
$var reg 7 o funct7_execute_reg [6:0] $end
$var reg 7 p funct7_memory_reg [6:0] $end
$var reg 7 q funct7_writeback_reg [6:0] $end
$var reg 32 r immediate_execute_reg [31:0] $end
$var reg 32 s immediate_memory_reg [31:0] $end
$var reg 32 t immediate_writeback_reg [31:0] $end
$var reg 32 u instruction_decode_reg [31:0] $end
$var reg 32 v instruction_execute_reg [31:0] $end
$var reg 32 w instruction_memory_reg [31:0] $end
$var reg 3 x instruction_type_execute_reg [2:0] $end
$var reg 3 y instruction_type_memory_reg [2:0] $end
$var reg 3 z instruction_type_writeback_reg [2:0] $end
$var reg 32 { instruction_writeback_reg [31:0] $end
$var reg 1 | jump_branch_enable_memory_reg $end
$var reg 32 } load_data_writeback_reg [31:0] $end
$var reg 7 ~ opcode_execute_reg [6:0] $end
$var reg 7 !" opcode_memory_reg [6:0] $end
$var reg 7 "" opcode_writeback_reg [6:0] $end
$var reg 32 #" result_memory_reg [31:0] $end
$var reg 32 $" result_writeback_reg [31:0] $end
$var reg 1 %" stall $end
$var reg 32 &" write_data_writeback_reg [31:0] $end
$var reg 1 '" write_enable_execute_reg $end
$var reg 1 (" write_enable_memory_reg $end
$var reg 1 )" write_enable_writeback_reg $end
$var reg 5 *" write_index_execute_reg [4:0] $end
$var reg 5 +" write_index_memory_reg [4:0] $end
$var reg 5 ," write_index_writeback_reg [4:0] $end
$scope module Instruction_Decoder $end
$var wire 32 -" instruction [31:0] $end
$var wire 1 ." instruction_type_i $end
$var wire 1 /" instruction_type_r $end
$var wire 1 0" instruction_type_s $end
$var wire 1 1" instruction_type_u $end
$var wire 5 2" write_index [4:0] $end
$var wire 5 3" read_index_2 [4:0] $end
$var wire 5 4" read_index_1 [4:0] $end
$var wire 7 5" opcode [6:0] $end
$var wire 1 6" instruction_type_j $end
$var wire 1 7" instruction_type_b $end
$var wire 3 8" instruction_type [2:0] $end
$var wire 7 9" funct7 [6:0] $end
$var wire 3 :" funct3 [2:0] $end
$var reg 1 L read_enable_1 $end
$var reg 1 K read_enable_2 $end
$var reg 1 H write_enable $end
$upscope $end
$scope module address_generator $end
$var wire 32 ;" PC [31:0] $end
$var wire 32 <" immediate [31:0] $end
$var wire 7 =" opcode [6:0] $end
$var wire 32 >" rs1 [31:0] $end
$var reg 32 ?" address [31:0] $end
$var reg 32 @" value [31:0] $end
$upscope $end
$scope module arithmetic_logic_unit $end
$var wire 32 A" PC [31:0] $end
$var wire 3 B" funct3 [2:0] $end
$var wire 7 C" funct7 [6:0] $end
$var wire 32 D" immediate [31:0] $end
$var wire 7 E" opcode [6:0] $end
$var wire 32 F" rs1 [31:0] $end
$var wire 32 G" rs2 [31:0] $end
$var reg 32 H" alu_output [31:0] $end
$var reg 1 I" mux1_select $end
$var reg 2 J" mux2_select [1:0] $end
$var reg 32 K" operand_1 [31:0] $end
$var reg 32 L" operand_2 [31:0] $end
$upscope $end
$scope module fetch_unit $end
$var wire 1 C CLK $end
$var wire 32 M" PC [31:0] $end
$var wire 32 N" address [31:0] $end
$var wire 1 O" enable $end
$var wire 32 P" next_PC [31:0] $end
$var wire 1 P jump_branch_enable $end
$var wire 32 Q" fetched_instruction_wire [31:0] $end
$var wire 1 R" fetch_done $end
$var parameter 32 S" ADDRESS_WIDTH $end
$var reg 32 T" fetched_instruction [31:0] $end
$scope module instruction_memory $end
$var wire 1 C CLK $end
$var wire 32 U" address [31:0] $end
$var wire 32 V" data [31:0] $end
$var wire 1 O" enable $end
$var wire 4 W" frame_mask [3:0] $end
$var wire 1 X" memory_state $end
$var parameter 32 Y" ADDRESS_WIDTH $end
$var parameter 4 Z" B_0001 $end
$var parameter 4 [" B_0010 $end
$var parameter 4 \" B_0100 $end
$var parameter 4 ]" B_1000 $end
$var parameter 4 ^" FINISH $end
$var parameter 4 _" H_0011_1 $end
$var parameter 4 `" H_0011_2 $end
$var parameter 4 a" H_1100_1 $end
$var parameter 4 b" H_1100_2 $end
$var parameter 1 c" READ $end
$var parameter 4 d" STABLE $end
$var parameter 1 e" WRITE $end
$var parameter 4 f" W_1111_1 $end
$var parameter 4 g" W_1111_2 $end
$var parameter 4 h" W_1111_3 $end
$var parameter 4 i" W_1111_4 $end
$var reg 32 j" data_in [31:0] $end
$var reg 1 R" memory_done $end
$var reg 4 k" next_state [3:0] $end
$var reg 4 l" state [3:0] $end
$upscope $end
$upscope $end
$scope module hazard_forward_unit_source_1 $end
$var wire 32 m" data_1 [31:0] $end
$var wire 32 n" data_2 [31:0] $end
$var wire 32 o" data_3 [31:0] $end
$var wire 5 p" destination_index_1 [4:0] $end
$var wire 5 q" destination_index_2 [4:0] $end
$var wire 5 r" destination_index_3 [4:0] $end
$var wire 1 '" enable_1 $end
$var wire 1 (" enable_2 $end
$var wire 1 )" enable_3 $end
$var wire 5 s" source_index [4:0] $end
$var reg 32 t" forward_data [31:0] $end
$var reg 1 _ forward_enable $end
$upscope $end
$scope module hazard_forward_unit_source_2 $end
$var wire 32 u" data_1 [31:0] $end
$var wire 32 v" data_2 [31:0] $end
$var wire 32 w" data_3 [31:0] $end
$var wire 5 x" destination_index_1 [4:0] $end
$var wire 5 y" destination_index_2 [4:0] $end
$var wire 5 z" destination_index_3 [4:0] $end
$var wire 1 '" enable_1 $end
$var wire 1 (" enable_2 $end
$var wire 1 )" enable_3 $end
$var wire 5 {" source_index [4:0] $end
$var reg 32 |" forward_data [31:0] $end
$var reg 1 ^ forward_enable $end
$upscope $end
$scope module immediate_generator $end
$var wire 32 }" instruction [31:0] $end
$var wire 3 ~" instruction_type [2:0] $end
$var reg 32 !# immediate [31:0] $end
$upscope $end
$scope module jump_branch_unit $end
$var wire 3 "# funct3 [2:0] $end
$var wire 3 ## instruction_type [2:0] $end
$var wire 1 P jump_branch_enable $end
$var wire 32 $# rs1 [31:0] $end
$var wire 32 %# rs2 [31:0] $end
$var reg 1 &# branch_enable $end
$var reg 1 '# jump_enable $end
$upscope $end
$scope module load_store_unit $end
$var wire 1 C CLK $end
$var wire 32 (# address [31:0] $end
$var wire 32 )# data [31:0] $end
$var wire 3 *# funct3 [2:0] $end
$var wire 7 +# opcode [6:0] $end
$var wire 32 ,# store_data [31:0] $end
$var wire 1 -# memory_done $end
$var parameter 32 .# ADDRESS_WIDTH $end
$var reg 1 /# enable $end
$var reg 4 0# frame_mask [3:0] $end
$var reg 32 1# load_data [31:0] $end
$var reg 1 2# memory_state $end
$scope module data_memory $end
$var wire 1 C CLK $end
$var wire 32 3# address [31:0] $end
$var wire 32 4# data [31:0] $end
$var wire 1 /# enable $end
$var wire 4 5# frame_mask [3:0] $end
$var wire 1 2# memory_state $end
$var parameter 32 6# ADDRESS_WIDTH $end
$var parameter 4 7# B_0001 $end
$var parameter 4 8# B_0010 $end
$var parameter 4 9# B_0100 $end
$var parameter 4 :# B_1000 $end
$var parameter 4 ;# FINISH $end
$var parameter 4 <# H_0011_1 $end
$var parameter 4 =# H_0011_2 $end
$var parameter 4 ># H_1100_1 $end
$var parameter 4 ?# H_1100_2 $end
$var parameter 1 @# READ $end
$var parameter 4 A# STABLE $end
$var parameter 1 B# WRITE $end
$var parameter 4 C# W_1111_1 $end
$var parameter 4 D# W_1111_2 $end
$var parameter 4 E# W_1111_3 $end
$var parameter 4 F# W_1111_4 $end
$var reg 32 G# data_in [31:0] $end
$var reg 1 -# memory_done $end
$var reg 4 H# next_state [3:0] $end
$var reg 4 I# state [3:0] $end
$upscope $end
$upscope $end
$scope module register_file $end
$var wire 1 B CLK $end
$var wire 1 L read_enable_1 $end
$var wire 1 K read_enable_2 $end
$var wire 5 J# read_index_1 [4:0] $end
$var wire 5 K# read_index_2 [4:0] $end
$var wire 1 D reset $end
$var wire 32 L# write_data [31:0] $end
$var wire 1 M# write_enable $end
$var wire 5 N# write_index [4:0] $end
$var parameter 32 O# DEPTH $end
$var parameter 32 P# WIDTH $end
$var reg 32 Q# read_data_1 [31:0] $end
$var reg 32 R# read_data_2 [31:0] $end
$var integer 32 S# i [31:0] $end
$upscope $end
$upscope $end
$scope begin $ivl_for_loop0 $end
$var integer 32 T# addr [31:0] $end
$upscope $end
$upscope $end
$enddefinitions $end
$comment Show the parameter values. $end
$dumpall
b100000 P#
b101 O#
b1100 F#
b1011 E#
b1010 D#
b1001 C#
1B#
b0 A#
0@#
b1000 ?#
b111 >#
b110 =#
b101 <#
b1101 ;#
b100 :#
b11 9#
b10 8#
b1 7#
b1100 6#
b1100 .#
b1100 i"
b1011 h"
b1010 g"
b1001 f"
1e"
b0 d"
0c"
b1000 b"
b111 a"
b110 `"
b101 _"
b1101 ^"
b100 ]"
b11 \"
b10 ["
b1 Z"
b1100 Y"
b1100 S"
b11111111111111111111111111111100 a
b1100 `
b1100 A
$end
#0
$dumpvars
bx T#
b100000 S#
bz R#
bz Q#
bx N#
xM#
bx L#
bx K#
bx J#
b0 I#
bx H#
bz G#
bx 5#
bx 4#
bx00 3#
x2#
bx 1#
bx 0#
x/#
0-#
bx ,#
bx +#
bx *#
bx )#
bx (#
0'#
0&#
bx %#
bx $#
bz ##
bx "#
bz !#
bx ~"
bx }"
bx |"
bx {"
bx z"
bx y"
bx x"
bx w"
bx v"
bx u"
bx t"
bx s"
bx r"
bx q"
bx p"
bx o"
bx n"
bx m"
b0 l"
b1001 k"
bz j"
0X"
b1111 W"
bz V"
b11111111111111111111111111111100 U"
bx T"
0R"
bz Q"
b0 P"
0O"
bx N"
b11111111111111111111111111111100 M"
bx L"
bx K"
bx J"
xI"
bx H"
bx G"
bx F"
bx E"
bx D"
bx C"
bx B"
bx A"
bx @"
bx ?"
bx >"
bx ="
bx <"
bx ;"
bx :"
bx 9"
bx 8"
x7"
x6"
bx 5"
bx 4"
bx 3"
bx 2"
x1"
x0"
x/"
x."
bx -"
bx ,"
bx +"
bx *"
x)"
x("
x'"
bx &"
x%"
bx $"
bx #"
bx ""
bx !"
bx ~
bx }
x|
bx {
bx z
bx y
bz x
bx w
bx v
bx u
bx t
bx s
bx r
bx q
bx p
bx o
bx n
bx m
bx l
bx k
bx j
bx i
bx h
bx g
bx f
bx e
b11111111111111111111111111111100 d
bx c
bx b
x_
x^
bx ]
bx \
bz [
bz Z
bx Y
bx X
bx W
bx V
bx U
bx T
bz S
bx R
bx Q
0P
bx O
b0 N
bx M
xL
xK
bx J
bx I
xH
bx G
bx F
bx E
1D
1C
1B
b0 @
b0 ?
b0 >
b0 =
b0 <
b0 ;
b0 :
b0 9
b0 8
b0 7
b0 6
b0 5
b0 4
b0 3
b0 2
b0 1
b0 0
b0 /
b0 .
b0 -
b0 ,
b0 +
b0 *
b0 )
b0 (
b0 '
b0 &
b0 %
b0 $
b0 #
b0 "
b0 !
$end
#1
0C
#2
1C
#3
0C
#4
1C
#5
0C
#6
1C
0B
#7
0C
#8
1C
#9
0C
#10
1C
#11
0C
#12
b0z @"
bz f
0%"
0|
bz y
bx x
bx ##
bz r
bz <"
bz D"
b11111111111111111111111111111100 b
1C
1B
#13
0C
#14
1C
#15
0C
#16
1C
#17
0C
#18
1C
0B
#19
0C
#20
1C
#21
0C
#22
1C
#23
0C
#24
b11111111111111111111111111111100 c
b11111111111111111111111111111100 ;"
b11111111111111111111111111111100 A"
bx y
bz s
bz z
1C
1B
#25
0C
#26
1C
#27
0C
#28
1C
#29
0C
#30
1C
0B
#31
0C
#32
1C
#33
0C
#34
1C
#35
0C
#36
b1010 k"
b0zzzzzzzzzzzzzzzzzzzzzzzz Q"
b0zzzzzzzzzzzzzzzzzzzzzzzz V"
b0zzzzzzzzzzzzzzzzzzzzzzzz j"
b100 N
b100 P"
b1001 l"
bx z
bz t
b11111111111111111111111111111100 e
b0 d
b0 M"
b0 U"
1C
1B
1O"
0D
#37
0C
#38
b1011 k"
b0zzzzzzzzzzzzzzzz Q"
b0zzzzzzzzzzzzzzzz V"
b0zzzzzzzzzzzzzzzz j"
b1010 l"
1C
#39
0C
#40
b1100 k"
b10001zzzzzzzz Q"
b10001zzzzzzzz V"
b10001zzzzzzzz j"
b1011 l"
1C
#41
0C
#42
b1101 k"
b1000100110111 Q"
b1000100110111 V"
b1000100110111 j"
b1100 l"
1C
0B
#43
0C
#44
b1000100110111 R
b1000100110111 T"
b0 k"
1R"
b1101 l"
1C
#45
0C
#46
b1001 k"
bz Q"
bz V"
bz j"
0R"
b0 l"
1C
#47
0C
#48
bz W
bz V
0_
bz ]
bz t"
0^
bz \
bz |"
b1010 k"
b11111111zzzzzzzzzzzzzzzzzzzzzzzz Q"
b11111111zzzzzzzzzzzzzzzzzzzzzzzz V"
b11111111zzzzzzzzzzzzzzzzzzzzzzzz j"
1H
0K
0L
b1000000000000 S
b1000000000000 !#
b100 Q
b100 8"
b100 ~"
0."
0/"
00"
11"
b1000 N
b1000 P"
07"
06"
b110111 M
b110111 5"
b0 T
b0 9"
b1 U
b1 :"
b0 J
b0 4"
b0 s"
b0 J#
b0 I
b0 3"
b0 {"
b0 K#
b10 G
b10 2"
b1001 l"
b100 d
b100 M"
b100 U"
b1000100110111 u
b1000100110111 -"
b1000100110111 }"
b0 b
b11111111111111111111111111111100 g
1C
1B
#49
0C
#50
b1011 k"
b1111111111000001zzzzzzzzzzzzzzzz Q"
b1111111111000001zzzzzzzzzzzzzzzz V"
b1111111111000001zzzzzzzzzzzzzzzz j"
b1010 l"
1C
#51
0C
#52
b1100 k"
b111111111100000100000001zzzzzzzz Q"
b111111111100000100000001zzzzzzzz V"
b111111111100000100000001zzzzzzzz j"
b1011 l"
1C
#53
0C
#54
b1101 k"
b11111111110000010000000100010011 Q"
b11111111110000010000000100010011 V"
b11111111110000010000000100010011 j"
b1100 l"
1C
0B
#55
0C
#56
b11111111110000010000000100010011 R
b11111111110000010000000100010011 T"
b0 k"
1R"
b1101 l"
1C
#57
0C
#58
b1001 k"
bz Q"
bz V"
bz j"
0R"
b0 l"
1C
#59
0C
#60
b1000000000000 W
b0 [
b0 Q#
1_
b1000000000000 ]
b1000000000000 t"
b1010 k"
b11111101zzzzzzzzzzzzzzzzzzzzzzzz Q"
b11111101zzzzzzzzzzzzzzzzzzzzzzzz V"
b11111101zzzzzzzzzzzzzzzzzzzzzzzz j"
1L
b1 Q
b1 8"
b1 ~"
1."
01"
b10 N#
b1000000000000 L#
b1000000000000 m"
b1000000000000 u"
bz F
bz X
bz H"
1M#
b10011 M
b10011 5"
b1111111 T
b1111111 9"
b0 U
b0 :"
b10 J
b10 4"
b10 s"
b10 J#
b11100 I
b11100 3"
b11100 {"
b11100 K#
b11111111111111111111111111111100 S
b11111111111111111111111111111100 !#
b1100 N
b1100 P"
b1001 l"
bz j
bz G"
bz %#
bz i
bz >"
bz F"
bz $#
b10 *"
b10 p"
b10 x"
b100 x
b100 ##
b1000000000000 r
b1000000000000 <"
b1000000000000 D"
b0 o
b0 C"
b1 l
b1 B"
b1 "#
b110111 ~
b110111 ="
b110111 E"
1'"
b1000100110111 v
b0 c
b0 ;"
b0 A"
b11111111110000010000000100010011 u
b11111111110000010000000100010011 -"
b11111111110000010000000100010011 }"
b100 b
b1000 d
b1000 M"
b1000 U"
1C
1B
#61
0C
#62
b1011 k"
b1111110100000001zzzzzzzzzzzzzzzz Q"
b1111110100000001zzzzzzzzzzzzzzzz V"
b1111110100000001zzzzzzzzzzzzzzzz j"
b1010 l"
1C
#63
0C
#64
b1100 k"
b111111010000000100000001zzzzzzzz Q"
b111111010000000100000001zzzzzzzz V"
b111111010000000100000001zzzzzzzz j"
b1011 l"
1C
#65
0C
#66
b1101 k"
b11111101000000010000000100010011 Q"
b11111101000000010000000100010011 V"
b11111101000000010000000100010011 j"
b1000000000000 [
b1000000000000 Q#
b1100 l"
b1000000000000 7
1C
0B
#67
0C
#68
b11111101000000010000000100010011 R
b11111101000000010000000100010011 T"
b0 k"
1R"
b1101 l"
1C
#69
0C
#70
b1001 k"
bz Q"
bz V"
bz j"
0R"
b0 l"
1C
#71
0C
#72
b111111111100 W
b111111111100 ]
b111111111100 t"
b0 H#
b1010 k"
b10zzzzzzzzzzzzzzzzzzzzzzzz Q"
b10zzzzzzzzzzzzzzzzzzzzzzzz V"
b10zzzzzzzzzzzzzzzzzzzzzzzz j"
b1000000000000 K"
b10000 N
b10000 P"
b1111110 T
b1111110 9"
b10000 I
b10000 3"
b10000 {"
b10000 K#
b11111111111111111111111111010000 S
b11111111111111111111111111010000 !#
b11111111111111111111111111111100 L"
xM#
bx N#
bx L#
b111111111100 m"
b111111111100 u"
b111111111100 F
b111111111100 X
b111111111100 H"
b1 J"
0I"
bz n"
bz v"
02#
b0 0#
b0 5#
0/#
bz )#
bz 4#
b1001 l"
b1100 d
b1100 M"
b1100 U"
b11111101000000010000000100010011 u
b11111101000000010000000100010011 -"
b11111101000000010000000100010011 }"
b1000 b
b1000000000000 i
b1000000000000 >"
b1000000000000 F"
b1000000000000 $#
b1 x
b1 ##
b11111111111111111111111111111100 r
b11111111111111111111111111111100 <"
b11111111111111111111111111111100 D"
b1111111 o
b1111111 C"
b0 l
b0 B"
b0 "#
b10011 ~
b10011 ="
b10011 E"
b11111111110000010000000100010011 v
b100 c
b100 ;"
b100 A"
bz #"
bz k
bz ,#
1("
b10 +"
b10 q"
b10 y"
b100 y
b1000000000000 s
b0 p
b1 m
b1 *#
b110111 !"
b110111 +#
b1000100110111 w
b0 e
1C
1B
#73
0C
#74
b1011 k"
b1010000001zzzzzzzzzzzzzzzz Q"
b1010000001zzzzzzzzzzzzzzzz V"
b1010000001zzzzzzzzzzzzzzzz j"
b1010 l"
1C
#75
0C
#76
b1100 k"
b101000000100100110zzzzzzzz Q"
b101000000100100110zzzzzzzz V"
b101000000100100110zzzzzzzz j"
b1011 l"
1C
#77
0C
#78
b1101 k"
b10100000010010011000100011 Q"
b10100000010010011000100011 V"
b10100000010010011000100011 j"
b1100 l"
1C
0B
#79
0C
#80
b10100000010010011000100011 R
b10100000010010011000100011 T"
b0 k"
1R"
b1101 l"
1C
#81
0C
#82
b1001 k"
bz Q"
bz V"
bz j"
0R"
b0 l"
1C
#83
0C
#84
b0 V
b111111001100 W
b0 Z
b0 R#
b111111001100 ]
b111111001100 t"
b1010 k"
b11zzzzzzzzzzzzzzzzzzzzzzzz Q"
b11zzzzzzzzzzzzzzzzzzzzzzzz V"
b11zzzzzzzzzzzzzzzzzzzzzzzz j"
0H
1K
b10 Q
b10 8"
b10 ~"
0."
b1000000000000 L#
b111111001100 m"
b111111001100 u"
10"
1M#
b10 N#
b1000000000000 &"
b1000000000000 o"
b1000000000000 w"
b111111111100 n"
b111111111100 v"
02#
b0 0#
b0 5#
b11111111111111111111111111010000 L"
b111111001100 F
b111111001100 X
b111111001100 H"
b111111111100 K"
b100011 M
b100011 5"
b1 T
b1 9"
b10 U
b10 :"
b1000 I
b1000 3"
b1000 {"
b1000 K#
b1100 G
b1100 2"
b101100 S
b101100 !#
b10100 N
b10100 P"
b1001 l"
bz $"
1)"
b10 ,"
b10 r"
b10 z"
b100 z
b1000000000000 t
b0 q
b1 n
b110111 ""
b1000100110111 {
b0 g
b111111111100 #"
b1 y
b11111111111111111111111111111100 s
b1111111 p
b0 m
b0 *#
b10011 !"
b10011 +#
b11111111110000010000000100010011 w
b100 e
b111111111100 i
b111111111100 >"
b111111111100 F"
b111111111100 $#
b11111111111111111111111111010000 r
b11111111111111111111111111010000 <"
b11111111111111111111111111010000 D"
b1111110 o
b1111110 C"
b11111101000000010000000100010011 v
b1000 c
b1000 ;"
b1000 A"
b10100000010010011000100011 u
b10100000010010011000100011 -"
b10100000010010011000100011 }"
b1100 b
b10000 d
b10000 M"
b10000 U"
1C
1B
#85
0C
#86
b1011 k"
b1100000001zzzzzzzzzzzzzzzz Q"
b1100000001zzzzzzzzzzzzzzzz V"
b1100000001zzzzzzzzzzzzzzzz j"
b1010 l"
1C
#87
0C
#88
b1100 k"
b110000000100000100zzzzzzzz Q"
b110000000100000100zzzzzzzz V"
b110000000100000100zzzzzzzz j"
b1011 l"
1C
#89
0C
#90
b1101 k"
b11000000010000010000010011 Q"
b11000000010000010000010011 V"
b11000000010000010000010011 j"
b1100 l"
1C
0B
#91
0C
#92
b11000000010000010000010011 R
b11000000010000010000010011 T"
b0 k"
1R"
b1101 l"
1C
#93
0C
#94
b1001 k"
bz Q"
bz V"
bz j"
0R"
b0 l"
1C
#95
0C
#96
bz V
bz Z
bz R#
b1010 k"
b11111110zzzzzzzzzzzzzzzzzzzzzzzz Q"
b11111110zzzzzzzzzzzzzzzzzzzzzzzz V"
b11111110zzzzzzzzzzzzzzzzzzzzzzzz j"
1H
0K
b1 Q
b1 8"
b1 ~"
1."
00"
bz m"
bz u"
b111111111100 L#
b11000 N
b11000 P"
b10011 M
b10011 5"
b0 U
b0 :"
b10000 I
b10000 3"
b10000 {"
b10000 K#
b1000 G
b1000 2"
b110000 S
b110000 !#
b101100 L"
bz F
bz X
bz H"
b111111111000 Y
b111111111000 ?"
b111111111000 N"
b111111001100 @"
b111111001100 K"
b111111001100 n"
b111111001100 v"
b111111111100 &"
b111111111100 o"
b111111111100 w"
b1001 l"
b10100 d
b10100 M"
b10100 U"
b11000000010000010000010011 u
b11000000010000010000010011 -"
b11000000010000010000010011 }"
b10000 b
b0 j
b0 G"
b0 %#
b111111001100 i
b111111001100 >"
b111111001100 F"
b111111001100 $#
b1100 *"
b1100 p"
b1100 x"
b10 x
b10 ##
b101100 r
b101100 <"
b101100 D"
b1 o
b1 C"
b10 l
b10 B"
b10 "#
b100011 ~
b100011 ="
b100011 E"
0'"
b10100000010010011000100011 v
b1100 c
b1100 ;"
b1100 A"
b111111001100 #"
b11111111111111111111111111010000 s
b1111110 p
b11111101000000010000000100010011 w
b1000 e
b111111111100 $"
b1 z
b11111111111111111111111111111100 t
b1111111 q
b0 n
b10011 ""
b11111111110000010000000100010011 {
b100 g
1C
1B
#97
0C
#98
b1011 k"
b1111111000000100zzzzzzzzzzzzzzzz Q"
b1111111000000100zzzzzzzzzzzzzzzz V"
b1111111000000100zzzzzzzzzzzzzzzz j"
b1010 l"
1C
#99
0C
#100
b1100 k"
b111111100000010000100110zzzzzzzz Q"
b111111100000010000100110zzzzzzzz V"
b111111100000010000100110zzzzzzzz j"
b1011 l"
1C
#101
0C
#102
b1101 k"
b11111110000001000010011000100011 Q"
b11111110000001000010011000100011 V"
b11111110000001000010011000100011 j"
b111111111100 [
b111111111100 Q#
b1100 l"
b111111111100 7
1C
0B
#103
0C
#104
b11111110000001000010011000100011 R
b11111110000001000010011000100011 T"
b0 k"
1R"
b1101 l"
1C
#105
0C
#106
b1001 k"
bz Q"
bz V"
bz j"
0R"
b0 l"
1C
#107
0C
#108
b0 V
b111111111100 W
b0 Z
b0 R#
b1001 H#
b0 [
b0 Q#
b111111111100 ]
b111111111100 t"
b1010 k"
b0zzzzzzzzzzzzzzzzzzzzzzzz Q"
b0zzzzzzzzzzzzzzzzzzzzzzzz V"
b0zzzzzzzzzzzzzzzzzzzzzzzz j"
0H
1K
b10 Q
b10 8"
b10 ~"
0."
b111111001100 L#
b111111111100 m"
b111111111100 u"
10"
b111111001100 &"
b111111001100 o"
b111111001100 w"
bz n"
bz v"
b111111111000 3#
12#
b1111 0#
b1111 5#
1/#
b0 )#
b0 4#
b110000 L"
b111111111100 F
b111111111100 X
b111111111100 H"
bx Y
bx ?"
bx N"
b0z @"
b100011 M
b100011 5"
b1111111 T
b1111111 9"
b10 U
b10 :"
b1000 J
b1000 4"
b1000 s"
b1000 J#
b0 I
b0 3"
b0 {"
b0 K#
b1100 G
b1100 2"
b11111111111111111111111111101100 S
b11111111111111111111111111101100 !#
b11100 N
b11100 P"
b1001 l"
b111111001100 $"
b11111111111111111111111111010000 t
b1111110 q
b11111101000000010000000100010011 {
b1000 g
bz #"
b0 k
b0 ,#
b111111111000 h
b111111111000 (#
0("
b1100 +"
b1100 q"
b1100 y"
b10 y
b101100 s
b1 p
b10 m
b10 *#
b100011 !"
b100011 +#
b10100000010010011000100011 w
b1100 e
bz j
bz G"
bz %#
b1000 *"
b1000 p"
b1000 x"
b1 x
b1 ##
b110000 r
b110000 <"
b110000 D"
b0 l
b0 B"
b0 "#
b10011 ~
b10011 ="
b10011 E"
1'"
b11000000010000010000010011 v
b10000 c
b10000 ;"
b10000 A"
b11111110000001000010011000100011 u
b11111110000001000010011000100011 -"
b11111110000001000010011000100011 }"
b10100 b
b11000 d
b11000 M"
b11000 U"
1C
1B
#109
0C
#110
b1010 H#
b1011 k"
b10000zzzzzzzzzzzzzzzz Q"
b10000zzzzzzzzzzzzzzzz V"
b10000zzzzzzzzzzzzzzzz j"
b1001 I#
b1010 l"
1C
#111
0C
#112
b1100 k"
b1000000000111zzzzzzzz Q"
b1000000000111zzzzzzzz V"
b1000000000111zzzzzzzz j"
b1011 H#
b1011 l"
b1010 I#
1C
#113
0C
#114
b1100 H#
b1101 k"
b100000000011110010011 Q"
b100000000011110010011 V"
b100000000011110010011 j"
b1011 I#
b1100 l"
b111111001100 7
1C
0B
#115
0C
#116
b100000000011110010011 R
b100000000011110010011 T"
b0 k"
1R"
b1101 H#
b1101 l"
b1100 I#
1C
#117
0C
#118
b0 H#
1-#
b1001 k"
bz Q"
bz V"
bz j"
0R"
b1101 I#
b0 l"
1C
#119
0C
