phoeniX.vcd
$date
	Thu Aug 31 12:14:49 2023
$end
$version
	Icarus Verilog
$end
$timescale
	1ns
$end
$scope module phoeniX_Testbench $end
$var wire 32 ! data_memory_interface_data [31:0] $end
$var wire 32 " x0_zero [31:0] $end
$var wire 32 # x10_a0 [31:0] $end
$var wire 32 $ x11_a1 [31:0] $end
$var wire 32 % x12_a2 [31:0] $end
$var wire 32 & x13_a3 [31:0] $end
$var wire 32 ' x14_a4 [31:0] $end
$var wire 32 ( x15_a5 [31:0] $end
$var wire 32 ) x16_a6 [31:0] $end
$var wire 32 * x17_a7 [31:0] $end
$var wire 32 + x18_s2 [31:0] $end
$var wire 32 , x19_s3 [31:0] $end
$var wire 32 - x1_ra [31:0] $end
$var wire 32 . x20_s4 [31:0] $end
$var wire 32 / x21_s5 [31:0] $end
$var wire 32 0 x22_s6 [31:0] $end
$var wire 32 1 x23_s7 [31:0] $end
$var wire 32 2 x24_s8 [31:0] $end
$var wire 32 3 x25_s9 [31:0] $end
$var wire 32 4 x26_s10 [31:0] $end
$var wire 32 5 x27_s11 [31:0] $end
$var wire 32 6 x28_t3 [31:0] $end
$var wire 32 7 x29_t4 [31:0] $end
$var wire 32 8 x2_sp [31:0] $end
$var wire 32 9 x30_t5 [31:0] $end
$var wire 32 : x31_t6 [31:0] $end
$var wire 32 ; x3_gp [31:0] $end
$var wire 32 < x4_tp [31:0] $end
$var wire 32 = x5_t0 [31:0] $end
$var wire 32 > x6_t1 [31:0] $end
$var wire 32 ? x7_t2 [31:0] $end
$var wire 32 @ x8_s0 [31:0] $end
$var wire 32 A x9_s1 [31:0] $end
$var wire 1 B instruction_memory_interface_state $end
$var wire 4 C instruction_memory_interface_frame_mask [3:0] $end
$var wire 1 D instruction_memory_interface_enable $end
$var wire 32 E instruction_memory_interface_address [31:0] $end
$var wire 1 F data_memory_interface_state $end
$var wire 4 G data_memory_interface_frame_mask [3:0] $end
$var wire 1 H data_memory_interface_enable $end
$var wire 32 I data_memory_interface_address [31:0] $end
$var parameter 32 J ADDRESS_WIDTH $end
$var parameter 1 K READ $end
$var parameter 1 L WRITE $end
$var reg 1 M CLK $end
$var reg 32 N data_memory_interface_data_reg [31:0] $end
$var reg 32 O instruction_memory_interface_data [31:0] $end
$var reg 1 P reset $end
$scope module uut $end
$var wire 1 M CLK $end
$var wire 32 Q data_memory_interface_data [31:0] $end
$var wire 32 R instruction_memory_interface_data [31:0] $end
$var wire 1 P reset $end
$var wire 32 S result_execute_wire [31:0] $end
$var wire 5 T write_index_decode_wire [4:0] $end
$var wire 1 U write_enable_decode_wire $end
$var wire 5 V read_index_2_decode_wire [4:0] $end
$var wire 5 W read_index_1_decode_wire [4:0] $end
$var wire 1 X read_enable_2_decode_wire $end
$var wire 1 Y read_enable_1_decode_wire $end
$var wire 7 Z opcode_decode_wire [6:0] $end
$var wire 32 [ next_PC_wire [31:0] $end
$var wire 32 \ load_data_memory_wire [31:0] $end
$var wire 1 ] jump_branch_enable_execute_wire $end
$var wire 3 ^ instruction_type_decode_wire [2:0] $end
$var wire 1 B instruction_memory_interface_state $end
$var wire 4 _ instruction_memory_interface_frame_mask [3:0] $end
$var wire 1 D instruction_memory_interface_enable $end
$var wire 32 ` instruction_memory_interface_address [31:0] $end
$var wire 32 a immediate_decode_wire [31:0] $end
$var wire 7 b funct7_decode_wire [6:0] $end
$var wire 3 c funct3_decode_wire [2:0] $end
$var wire 12 d funct12_decode_wire [11:0] $end
$var wire 1 F data_memory_interface_state $end
$var wire 4 e data_memory_interface_frame_mask [3:0] $end
$var wire 1 H data_memory_interface_enable $end
$var wire 32 f data_memory_interface_address [31:0] $end
$var wire 32 g bus_rs2_decode_wire [31:0] $end
$var wire 32 h bus_rs1_decode_wire [31:0] $end
$var wire 32 i alu_output_execute_wire [31:0] $end
$var wire 32 j address_execute_wire [31:0] $end
$var wire 32 k RF_source_2 [31:0] $end
$var wire 32 l RF_source_1 [31:0] $end
$var wire 32 m FW_source_2 [31:0] $end
$var wire 32 n FW_source_1 [31:0] $end
$var wire 1 o FW_enable_2 $end
$var wire 1 p FW_enable_1 $end
$var parameter 32 q RESET_ADDRESS $end
$var reg 32 r PC_decode_reg [31:0] $end
$var reg 32 s PC_execute_reg [31:0] $end
$var reg 32 t PC_fetch_reg [31:0] $end
$var reg 32 u PC_memory_reg [31:0] $end
$var reg 32 v PC_stall_address [31:0] $end
$var reg 32 w PC_writeback_reg [31:0] $end
$var reg 32 x address_memory_reg [31:0] $end
$var reg 32 y bus_rs1 [31:0] $end
$var reg 32 z bus_rs2 [31:0] $end
$var reg 32 { bus_rs2_memory_reg [31:0] $end
$var reg 12 | funct12_execute_reg [11:0] $end
$var reg 12 } funct12_memory_reg [11:0] $end
$var reg 12 ~ funct12_writeback_reg [11:0] $end
$var reg 3 !" funct3_execute_reg [2:0] $end
$var reg 3 "" funct3_memory_reg [2:0] $end
$var reg 3 #" funct3_writeback_reg [2:0] $end
$var reg 7 $" funct7_execute_reg [6:0] $end
$var reg 7 %" funct7_memory_reg [6:0] $end
$var reg 7 &" funct7_writeback_reg [6:0] $end
$var reg 32 '" immediate_execute_reg [31:0] $end
$var reg 32 (" immediate_memory_reg [31:0] $end
$var reg 32 )" immediate_writeback_reg [31:0] $end
$var reg 32 *" instruction_decode_reg [31:0] $end
$var reg 32 +" instruction_execute_reg [31:0] $end
$var reg 32 ," instruction_memory_reg [31:0] $end
$var reg 3 -" instruction_type_execute_reg [2:0] $end
$var reg 3 ." instruction_type_memory_reg [2:0] $end
$var reg 3 /" instruction_type_writeback_reg [2:0] $end
$var reg 32 0" instruction_writeback_reg [31:0] $end
$var reg 1 1" jump_branch_enable_memory_reg $end
$var reg 32 2" load_data_writeback_reg [31:0] $end
$var reg 7 3" opcode_execute_reg [6:0] $end
$var reg 7 4" opcode_memory_reg [6:0] $end
$var reg 7 5" opcode_writeback_reg [6:0] $end
$var reg 32 6" result_memory_reg [31:0] $end
$var reg 32 7" result_writeback_reg [31:0] $end
$var reg 1 8" stall $end
$var reg 32 9" write_data [31:0] $end
$var reg 32 :" write_data_writeback_reg [31:0] $end
$var reg 1 ;" write_enable $end
$var reg 1 <" write_enable_execute_reg $end
$var reg 1 =" write_enable_memory_reg $end
$var reg 1 >" write_enable_writeback_reg $end
$var reg 5 ?" write_index [4:0] $end
$var reg 5 @" write_index_execute_reg [4:0] $end
$var reg 5 A" write_index_memory_reg [4:0] $end
$var reg 5 B" write_index_writeback_reg [4:0] $end
$scope module Instruction_Decoder $end
$var wire 32 C" instruction [31:0] $end
$var wire 1 D" instruction_type_i $end
$var wire 1 E" instruction_type_r $end
$var wire 1 F" instruction_type_s $end
$var wire 1 G" instruction_type_u $end
$var wire 5 H" write_index [4:0] $end
$var wire 5 I" read_index_2 [4:0] $end
$var wire 5 J" read_index_1 [4:0] $end
$var wire 7 K" opcode [6:0] $end
$var wire 1 L" instruction_type_j $end
$var wire 1 M" instruction_type_b $end
$var wire 3 N" instruction_type [2:0] $end
$var wire 7 O" funct7 [6:0] $end
$var wire 3 P" funct3 [2:0] $end
$var wire 12 Q" funct12 [11:0] $end
$var reg 1 Y read_enable_1 $end
$var reg 1 X read_enable_2 $end
$var reg 1 U write_enable $end
$upscope $end
$scope module address_generator $end
$var wire 32 R" PC [31:0] $end
$var wire 32 S" immediate [31:0] $end
$var wire 7 T" opcode [6:0] $end
$var wire 32 U" rs1 [31:0] $end
$var reg 32 V" address [31:0] $end
$var reg 32 W" value [31:0] $end
$upscope $end
$scope module arithmetic_logic_unit $end
$var wire 32 X" PC [31:0] $end
$var wire 3 Y" funct3 [2:0] $end
$var wire 7 Z" funct7 [6:0] $end
$var wire 32 [" immediate [31:0] $end
$var wire 7 \" opcode [6:0] $end
$var wire 32 ]" rs1 [31:0] $end
$var wire 32 ^" rs2 [31:0] $end
$var reg 32 _" alu_output [31:0] $end
$var reg 1 `" mux1_select $end
$var reg 2 a" mux2_select [1:0] $end
$var reg 32 b" operand_1 [31:0] $end
$var reg 32 c" operand_2 [31:0] $end
$upscope $end
$scope module fetch_unit $end
$var wire 32 d" PC [31:0] $end
$var wire 32 e" address [31:0] $end
$var wire 1 f" enable $end
$var wire 32 g" next_PC [31:0] $end
$var wire 1 ] jump_branch_enable $end
$var parameter 1 h" READ $end
$var parameter 1 i" WRITE $end
$var reg 32 j" memory_interface_address [31:0] $end
$var reg 1 D memory_interface_enable $end
$var reg 4 k" memory_interface_frame_mask [3:0] $end
$var reg 1 B memory_interface_state $end
$upscope $end
$scope module hazard_forward_unit_source_1 $end
$var wire 32 l" data_1 [31:0] $end
$var wire 32 m" data_2 [31:0] $end
$var wire 32 n" data_3 [31:0] $end
$var wire 5 o" destination_index_1 [4:0] $end
$var wire 5 p" destination_index_2 [4:0] $end
$var wire 5 q" destination_index_3 [4:0] $end
$var wire 1 <" enable_1 $end
$var wire 1 =" enable_2 $end
$var wire 1 >" enable_3 $end
$var wire 5 r" source_index [4:0] $end
$var reg 32 s" forward_data [31:0] $end
$var reg 1 p forward_enable $end
$upscope $end
$scope module hazard_forward_unit_source_2 $end
$var wire 32 t" data_1 [31:0] $end
$var wire 32 u" data_2 [31:0] $end
$var wire 32 v" data_3 [31:0] $end
$var wire 5 w" destination_index_1 [4:0] $end
$var wire 5 x" destination_index_2 [4:0] $end
$var wire 5 y" destination_index_3 [4:0] $end
$var wire 1 <" enable_1 $end
$var wire 1 =" enable_2 $end
$var wire 1 >" enable_3 $end
$var wire 5 z" source_index [4:0] $end
$var reg 32 {" forward_data [31:0] $end
$var reg 1 o forward_enable $end
$upscope $end
$scope module immediate_generator $end
$var wire 32 |" instruction [31:0] $end
$var wire 3 }" instruction_type [2:0] $end
$var reg 32 ~" immediate [31:0] $end
$upscope $end
$scope module jump_branch_unit $end
$var wire 3 !# funct3 [2:0] $end
$var wire 3 "# instruction_type [2:0] $end
$var wire 1 ] jump_branch_enable $end
$var wire 7 ## opcode [6:0] $end
$var wire 32 $# rs1 [31:0] $end
$var wire 32 %# rs2 [31:0] $end
$var reg 1 &# branch_enable $end
$var reg 1 '# jump_enable $end
$upscope $end
$scope module load_store_unit $end
$var wire 32 (# address [31:0] $end
$var wire 3 )# funct3 [2:0] $end
$var wire 32 *# memory_interface_data [31:0] $end
$var wire 7 +# opcode [6:0] $end
$var wire 32 ,# store_data [31:0] $end
$var parameter 1 -# READ $end
$var parameter 1 .# WRITE $end
$var reg 32 /# load_data [31:0] $end
$var reg 32 0# memory_interface_address [31:0] $end
$var reg 1 H memory_interface_enable $end
$var reg 4 1# memory_interface_frame_mask [3:0] $end
$var reg 1 F memory_interface_state $end
$var reg 32 2# store_data_reg [31:0] $end
$upscope $end
$scope module register_file $end
$var wire 1 M CLK $end
$var wire 1 Y read_enable_1 $end
$var wire 1 X read_enable_2 $end
$var wire 5 3# read_index_1 [4:0] $end
$var wire 5 4# read_index_2 [4:0] $end
$var wire 1 P reset $end
$var wire 32 5# write_data [31:0] $end
$var wire 1 ;" write_enable $end
$var wire 5 6# write_index [4:0] $end
$var parameter 32 7# DEPTH $end
$var parameter 32 8# WIDTH $end
$var reg 32 9# read_data_1 [31:0] $end
$var reg 32 :# read_data_2 [31:0] $end
$var integer 32 ;# i [31:0] $end
$upscope $end
$upscope $end
$upscope $end
$enddefinitions $end
$comment Show the parameter values. $end
$dumpall
b100000 8#
b101 7#
1.#
0-#
1i"
0h"
b11111111111111111111111111111100 q
1L
0K
b1100 J
$end
#0
$dumpvars
b100000 ;#
bz :#
bz 9#
bx 6#
bx 5#
bx 4#
bx 3#
bz 2#
bx 1#
bx 0#
bx /#
bx ,#
bx +#
bx *#
bx )#
bx (#
0'#
0&#
bx %#
bx $#
bx ##
bz "#
bx !#
bz ~"
bx }"
bx |"
bx {"
bx z"
bx y"
bx x"
bx w"
bx v"
bx u"
bx t"
bx s"
bx r"
bx q"
bx p"
bx o"
bx n"
bx m"
bx l"
b1111 k"
b11111111111111111111111111111100 j"
b0 g"
0f"
bx e"
b11111111111111111111111111111100 d"
bx c"
bx b"
bx a"
x`"
bx _"
bx ^"
bx ]"
bx \"
bx ["
bx Z"
bx Y"
bx X"
bx W"
bx V"
bx U"
bx T"
bx S"
bx R"
bx Q"
bx P"
bx O"
bx N"
xM"
xL"
bx K"
bx J"
bx I"
bx H"
xG"
xF"
xE"
xD"
bx C"
bx B"
bx A"
bx @"
bx ?"
x>"
x="
x<"
x;"
bx :"
bx 9"
x8"
bx 7"
bx 6"
bx 5"
bx 4"
bx 3"
bx 2"
x1"
bx 0"
bx /"
bx ."
bz -"
bx ,"
bx +"
bx *"
bx )"
bx ("
bx '"
bx &"
bx %"
bx $"
bx #"
bx ""
bx !"
bx ~
bx }
bx |
bx {
bx z
bx y
bx x
bx w
bx v
bx u
b11111111111111111111111111111100 t
bx s
bx r
xp
xo
bx n
bx m
bz l
bz k
bx j
bx i
bx h
bx g
bx f
bx e
bx d
bx c
bx b
bz a
b11111111111111111111111111111100 `
b1111 _
bx ^
0]
bx \
b0 [
bx Z
xY
xX
bx W
bx V
xU
bx T
bx S
bz R
bx Q
1P
bz O
bx N
1M
bx I
xH
bx G
xF
b11111111111111111111111111111100 E
0D
b1111 C
0B
b0 A
b0 @
b0 ?
b0 >
b0 =
b0 <
b0 ;
b0 :
b0 9
b0 8
b0 7
b0 6
b0 5
b0 4
b0 3
b0 2
b0 1
b0 0
b0 /
b0 .
b0 -
b0 ,
b0 +
b0 *
b0 )
b0 (
b0 '
b0 &
b0 %
b0 $
b0 #
b0 "
bx !
$end
#6
0M
#12
bz h
bz g
0p
bz n
bz s"
0o
bz m
bz {"
b0z W"
bz Z
bz K"
bz b
bz O"
bz c
bz P"
bz d
bz Q"
bz W
bz J"
bz r"
bz 3#
bz V
bz I"
bz z"
bz 4#
bz T
bz H"
bz v
08"
01"
bz ."
bx -"
bx "#
bz '"
bz S"
bz ["
bz *"
bz C"
bz |"
b11111111111111111111111111111100 r
1M
#18
0M
#24
bz z
bz ^"
bz %#
bz y
bz U"
bz ]"
bz $#
bz @"
bz o"
bz w"
bz |
bz $"
bz Z"
bz !"
bz Y"
bz !#
bz 3"
bz T"
bz \"
bz ##
bz +"
b11111111111111111111111111111100 s
b11111111111111111111111111111100 R"
b11111111111111111111111111111100 X"
bx ."
bz ("
bz /"
1M
#30
0M
#36
bz !
bz Q
bz *#
bz N
bz \
bz /#
0F
b0 G
b0 e
b0 1#
bz I
bz f
bz 0#
0H
bx /"
bz )"
bz {
bz ,#
bz A"
bz p"
bz x"
bz }
bz %"
bz ""
bz )#
bz 4"
bz +#
bz ,"
b11111111111111111111111111111100 u
1M
#42
0M
#48
bz ?"
bz 6#
bz 2"
bz B"
bz q"
bz y"
bz ~
bz &"
bz #"
bz 5"
bz 0"
b11111111111111111111111111111100 w
1M
#54
0M
#60
bx O
bx R
1D
1f"
0P
1M
#66
0M
#72
b10000100110111 O
b10000100110111 R
b0 E
b0 `
b0 j"
b100 [
b100 g"
bx Z
bx K"
bx b
bx O"
bx c
bx P"
bx d
bx Q"
bx W
bx J"
bx r"
bx 3#
bx V
bx I"
bx z"
bx 4#
bx T
bx H"
b0 t
b0 d"
bx *"
bx C"
bx |"
1M
#78
0M
#84
b10000000100010011 O
b10000000100010011 R
1U
0X
0Y
b10000000000000 a
b10000000000000 ~"
b100 ^
b100 N"
b100 }"
0D"
0E"
0F"
1G"
0M"
0L"
b110111 Z
b110111 K"
b0 b
b0 O"
b10 c
b10 P"
b0 d
b0 Q"
b0 W
b0 J"
b0 r"
b0 3#
b0 V
b0 I"
b0 z"
b0 4#
b10 T
b10 H"
b100 E
b100 `
b100 j"
b1000 [
b1000 g"
bx @"
bx o"
bx w"
bx |
bx $"
bx Z"
bx !"
bx Y"
bx !#
bx 3"
bx T"
bx \"
bx ##
bx +"
b10000100110111 *"
b10000100110111 C"
b10000100110111 |"
b0 r
b100 t
b100 d"
1M
#90
0M
#96
b10000000000000 h
b0 l
b0 9#
b11111110000000010000000100010011 O
b11111110000000010000000100010011 R
1p
b10000000000000 n
b10000000000000 s"
1Y
b1 ^
b1 N"
b1 }"
1D"
0G"
b1000 E
b1000 `
b1000 j"
b1100 [
b1100 g"
b10011 Z
b10011 K"
b0 c
b0 P"
b10 W
b10 J"
b10 r"
b10 3#
b0 a
b0 ~"
b10000000000000 l"
b10000000000000 t"
bz S
bz i
bz _"
b10000000000000 9"
b10000000000000 5#
b10 ?"
b10 6#
1;"
0F
b0 G
b0 e
b0 1#
b1000 t
b1000 d"
b10000000100010011 *"
b10000000100010011 C"
b10000000100010011 |"
b100 r
b10 @"
b10 o"
b10 w"
b100 -"
b100 "#
b10000000000000 '"
b10000000000000 S"
b10000000000000 ["
b0 |
b0 $"
b0 Z"
b10 !"
b10 Y"
b10 !#
b110111 3"
b110111 T"
b110111 \"
b110111 ##
1<"
b10000100110111 +"
b0 s
b0 R"
b0 X"
bx A"
bx p"
bx x"
bx }
bx %"
bx ""
bx )#
bx 4"
bx +#
bx ,"
1M
#102
b10000000000000 l
b10000000000000 9#
b10000000000000 8
0M
#108
b100000010010111000100011 O
b100000010010111000100011 R
b10000000000000 n
b10000000000000 s"
b10000000000000 b"
bz m"
bz u"
0F
b0 G
b0 e
b0 1#
b0 c"
b10000000000000 l"
b10000000000000 t"
b10000000000000 S
b10000000000000 i
b10000000000000 _"
b1 a"
0`"
bx 9"
bx 5#
bx ?"
bx 6#
x;"
b1111111 b
b1111111 O"
b111111100000 d
b111111100000 Q"
b11111111111111111111111111100000 a
b11111111111111111111111111100000 ~"
b1100 E
b1100 `
b1100 j"
b10000 [
b10000 g"
bx B"
bx q"
bx y"
bx ~
bx &"
bx #"
bx 5"
bx 0"
bz 6"
1="
b10 A"
b10 p"
b10 x"
b100 ."
b10000000000000 ("
b0 }
b0 %"
b10 ""
b10 )#
b110111 4"
b110111 +#
b10000100110111 ,"
b0 u
b10000000000000 y
b10000000000000 U"
b10000000000000 ]"
b10000000000000 $#
b1 -"
b1 "#
b0 '"
b0 S"
b0 ["
b0 !"
b0 Y"
b0 !#
b10011 3"
b10011 T"
b10011 \"
b10011 ##
b10000000100010011 +"
b100 s
b100 R"
b100 X"
b11111110000000010000000100010011 *"
b11111110000000010000000100010011 C"
b11111110000000010000000100010011 |"
b1000 r
b1100 t
b1100 d"
1M
#114
0M
#120
b0 g
b1111111100000 h
b0 k
b0 :#
b1111111100000 n
b1111111100000 s"
b10000000010000010000010011 O
b10000000010000010000010011 R
0U
1X
b10 ^
b10 N"
b10 }"
0D"
b1111111100000 l"
b1111111100000 t"
1F"
b1111111100000 S
b1111111100000 i
b1111111100000 _"
b10000 E
b10000 `
b10000 j"
b10100 [
b10100 g"
b100011 Z
b100011 K"
b0 b
b0 O"
b10 c
b10 P"
b1000 d
b1000 Q"
b1000 V
b1000 I"
b1000 z"
b1000 4#
b11100 T
b11100 H"
b11100 a
b11100 ~"
b11111111111111111111111111100000 c"
b10000000000000 m"
b10000000000000 u"
0F
b0 G
b0 e
b0 1#
b10000000000000 9"
b10000000000000 5#
b10 ?"
b10 6#
1;"
b10000000000000 :"
b10000000000000 n"
b10000000000000 v"
b10000 t
b10000 d"
b100000010010111000100011 *"
b100000010010111000100011 C"
b100000010010111000100011 |"
b1100 r
b11111111111111111111111111100000 '"
b11111111111111111111111111100000 S"
b11111111111111111111111111100000 ["
b111111100000 |
b1111111 $"
b1111111 Z"
b11111110000000010000000100010011 +"
b1000 s
b1000 R"
b1000 X"
b10000000000000 6"
b1 ."
b0 ("
b0 ""
b0 )#
b10011 4"
b10011 +#
b10000000100010011 ,"
b100 u
bz 7"
1>"
b10 B"
b10 q"
b10 y"
b100 /"
b10000000000000 )"
b0 ~
b0 &"
b10 #"
b110111 5"
b10000100110111 0"
b0 w
1M
#126
0M
#132
bz g
bz k
bz :#
b11111110000001000010011000100011 O
b11111110000001000010011000100011 R
b1111111100000 n
b1111111100000 s"
1U
0X
b1 ^
b1 N"
b1 }"
1D"
bz l"
bz t"
0F"
b1111111100000 m"
b1111111100000 u"
b11100 c"
bz S
bz i
bz _"
b1111111111100 j
b1111111111100 V"
b1111111111100 e"
b1111111100000 W"
b1111111100000 b"
b10011 Z
b10011 K"
b1 b
b1 O"
b0 c
b0 P"
b100000 d
b100000 Q"
b0 V
b0 I"
b0 z"
b0 4#
b1000 T
b1000 H"
b100000 a
b100000 ~"
b10100 E
b10100 `
b10100 j"
b11000 [
b11000 g"
b10000000000000 7"
b1 /"
b0 )"
b0 #"
b10011 5"
b10000000100010011 0"
b100 w
b1111111100000 6"
b11111111111111111111111111100000 ("
b111111100000 }
b1111111 %"
b11111110000000010000000100010011 ,"
b1000 u
b0 z
b0 ^"
b0 %#
b1111111100000 y
b1111111100000 U"
b1111111100000 ]"
b1111111100000 $#
b11100 @"
b11100 o"
b11100 w"
b10 -"
b10 "#
b11100 '"
b11100 S"
b11100 ["
b1000 |
b0 $"
b0 Z"
b10 !"
b10 Y"
b10 !#
b100011 3"
b100011 T"
b100011 \"
b100011 ##
0<"
b100000010010111000100011 +"
b1100 s
b1100 R"
b1100 X"
b10000000010000010000010011 *"
b10000000010000010000010011 C"
b10000000010000010000010011 |"
b10000 r
b10100 t
b10100 d"
1M
#138
0M
#144
b0 g
b10000000000000 h
b0 !
b0 Q
b0 *#
b0 k
b0 :#
b11111110000001000010010000100011 O
b11111110000001000010010000100011 R
b0 l
b0 9#
b10000000000000 n
b10000000000000 s"
b0 2#
0U
1X
b10 ^
b10 N"
b10 }"
0D"
1F"
b10000000000000 l"
b10000000000000 t"
b11000 E
b11000 `
b11000 j"
b11100 [
b11100 g"
b100011 Z
b100011 K"
b1111111 b
b1111111 O"
b10 c
b10 P"
b111111100000 d
b111111100000 Q"
b1000 W
b1000 J"
b1000 r"
b1000 3#
b1100 T
b1100 H"
b11111111111111111111111111101100 a
b11111111111111111111111111101100 ~"
b100000 c"
b10000000000000 S
b10000000000000 i
b10000000000000 _"
b1111111100000 9"
b1111111100000 5#
bx j
bx V"
bx e"
b0z W"
bz m"
bz u"
1F
b1111 G
b1111 e
b1111 1#
b1111111111100 I
b1111111111100 f
b1111111111100 0#
1H
b1111111100000 :"
b1111111100000 n"
b1111111100000 v"
b11000 t
b11000 d"
b11111110000001000010011000100011 *"
b11111110000001000010011000100011 C"
b11111110000001000010011000100011 |"
b10100 r
bz z
bz ^"
bz %#
b1000 @"
b1000 o"
b1000 w"
b1 -"
b1 "#
b100000 '"
b100000 S"
b100000 ["
b100000 |
b1 $"
b1 Z"
b0 !"
b0 Y"
b0 !#
b10011 3"
b10011 T"
b10011 \"
b10011 ##
1<"
b10000000010000010000010011 +"
b10000 s
b10000 R"
b10000 X"
bz 6"
b0 {
b0 ,#
b1111111111100 x
b1111111111100 (#
0="
b11100 A"
b11100 p"
b11100 x"
b10 ."
b11100 ("
b1000 }
b0 %"
b10 ""
b10 )#
b100011 4"
b100011 +#
b100000010010111000100011 ,"
b1100 u
b1111111100000 7"
b11111111111111111111111111100000 )"
b111111100000 ~
b1111111 &"
b11111110000000010000000100010011 0"
b1000 w
1M
#150
b1111111100000 8
0M
#156
b10000000000000000001101111 O
b10000000000000000001101111 R
bz 2#
b10000000000000 n
b10000000000000 s"
bz l"
bz t"
b10000000000000 m"
b10000000000000 u"
0F
b0 G
b0 e
b0 1#
bz I
bz f
bz 0#
0H
bz !
bz Q
bz *#
b11111111111111111111111111101100 c"
bz S
bz i
bz _"
b11100 ?"
b11100 6#
0;"
b1111111101100 j
b1111111101100 V"
b1111111101100 e"
b10000000000000 W"
b10000000000000 b"
b1000 T
b1000 H"
b11111111111111111111111111101000 a
b11111111111111111111111111101000 ~"
b11100 E
b11100 `
b11100 j"
b100000 [
b100000 g"
bz 7"
0>"
b11100 B"
b11100 q"
b11100 y"
b10 /"
b11100 )"
b1000 ~
b0 &"
b10 #"
b100011 5"
b100000010010111000100011 0"
b1100 w
b10000000000000 6"
bz {
bz ,#
bx x
bx (#
1="
b1000 A"
b1000 p"
b1000 x"
b1 ."
b100000 ("
b100000 }
b1 %"
b0 ""
b0 )#
b10011 4"
b10011 +#
b10000000010000010000010011 ,"
b10000 u
b0 z
b0 ^"
b0 %#
b10000000000000 y
b10000000000000 U"
b10000000000000 ]"
b10000000000000 $#
b1100 @"
b1100 o"
b1100 w"
b10 -"
b10 "#
b11111111111111111111111111101100 '"
b11111111111111111111111111101100 S"
b11111111111111111111111111101100 ["
b111111100000 |
b1111111 $"
b1111111 Z"
b10 !"
b10 Y"
b10 !#
b100011 3"
b100011 T"
b100011 \"
b100011 ##
0<"
b11111110000001000010011000100011 +"
b10100 s
b10100 R"
b10100 X"
b11111110000001000010010000100011 *"
b11111110000001000010010000100011 C"
b11111110000001000010010000100011 |"
b11000 r
b11100 t
b11100 d"
1M
#162
0M
#168
bz g
bz h
b0 !
b0 Q
b0 *#
bz k
bz :#
bz l
bz 9#
b11111110110001000010011100000011 O
b11111110110001000010011100000011 R
0p
bz n
bz s"
b0 2#
0U
0X
0Y
b101 ^
b101 N"
b101 }"
0F"
b100000 E
b100000 `
b100000 j"
b100100 [
b100100 g"
1L"
b1101111 Z
b1101111 K"
b1 b
b1 O"
b0 c
b0 P"
b100000 d
b100000 Q"
b0 W
b0 J"
b0 r"
b0 3#
b0 T
b0 H"
b100000 a
b100000 ~"
b11111111111111111111111111101000 c"
b1111111101000 j
b1111111101000 V"
b1111111101000 e"
bz m"
bz u"
1F
b1111 G
b1111 e
b1111 1#
b1111111101100 I
b1111111101100 f
b1111111101100 0#
1H
b10000000000000 9"
b10000000000000 5#
b1000 ?"
b1000 6#
1;"
b10000000000000 :"
b10000000000000 n"
b10000000000000 v"
b100000 t
b100000 d"
b10000000000000000001101111 *"
b10000000000000000001101111 C"
b10000000000000000001101111 |"
b11100 r
b1000 @"
b1000 o"
b1000 w"
b11111111111111111111111111101000 '"
b11111111111111111111111111101000 S"
b11111111111111111111111111101000 ["
b11111110000001000010010000100011 +"
b11000 s
b11000 R"
b11000 X"
bz 6"
b0 {
b0 ,#
b1111111101100 x
b1111111101100 (#
0="
b1100 A"
b1100 p"
b1100 x"
b10 ."
b11111111111111111111111111101100 ("
b111111100000 }
b1111111 %"
b10 ""
b10 )#
b100011 4"
b100011 +#
b11111110000001000010011000100011 ,"
b10100 u
b10000000000000 7"
1>"
b1000 B"
b1000 q"
b1000 y"
b1 /"
b100000 )"
b100000 ~
b1 &"
b0 #"
b10011 5"
b10000000010000010000010011 0"
b10000 w
1M
#174
b10000000000000 @
0M
#180
b10000000000000 h
b10000000000000 l
b10000000000000 9#
b11111110100001000010011110000011 O
b11111110100001000010011110000011 R
1Y
b1 ^
b1 N"
b1 }"
1D"
b100000 l"
b100000 t"
1]
1U
1F
b1111 G
b1111 e
b1111 1#
b1111111101000 I
b1111111101000 f
b1111111101000 0#
b100 c"
b100000 S
b100000 i
b100000 _"
b10 a"
1`"
1'#
b1100 ?"
b1100 6#
0;"
b111100 j
b111100 V"
b111100 e"
b11100 W"
b11100 b"
0L"
b11 Z
b11 K"
b1111111 b
b1111111 O"
b10 c
b10 P"
b111111101100 d
b111111101100 Q"
b1000 W
b1000 J"
b1000 r"
b1000 3#
b1100 V
b1100 I"
b1100 z"
b1100 4#
b1110 T
b1110 H"
b11111111111111111111111111101100 a
b11111111111111111111111111101100 ~"
b100100 E
b100100 `
b100100 j"
b111100 [
b111100 g"
bz 7"
0>"
b1100 B"
b1100 q"
b1100 y"
b10 /"
b11111111111111111111111111101100 )"
b111111100000 ~
b1111111 &"
b10 #"
b100011 5"
b11111110000001000010011000100011 0"
b10100 w
b1111111101000 x
b1111111101000 (#
b1000 A"
b1000 p"
b1000 x"
b11111111111111111111111111101000 ("
b11111110000001000010010000100011 ,"
b11000 u
bz z
bz ^"
bz %#
bz y
bz U"
bz ]"
bz $#
b0 @"
b0 o"
b0 w"
b101 -"
b101 "#
b100000 '"
b100000 S"
b100000 ["
b100000 |
b1 $"
b1 Z"
b0 !"
b0 Y"
b0 !#
b1101111 3"
b1101111 T"
b1101111 \"
b1101111 ##
b10000000000000000001101111 +"
b11100 s
b11100 R"
b11100 X"
b11111110110001000010011100000011 *"
b11111110110001000010011100000011 C"
b11111110110001000010011100000011 |"
b100000 r
b100100 t
b100100 d"
1M
#186
0M
