Modules/Testbenches/Accurate_Divider.vcd
$date
	Sun Oct 08 21:15:41 2023
$end
$version
	Icarus Verilog
$end
$timescale
	1ns
$end
$scope module Accurate_Divider_TB $end
$var wire 32 ! rem [31:0] $end
$var wire 32 " div [31:0] $end
$var wire 1 # busy $end
$var reg 1 $ CLK $end
$var reg 32 % operand_1 [31:0] $end
$var reg 32 & operand_2 [31:0] $end
$scope module uut $end
$var wire 1 $ CLK $end
$var wire 1 # busy $end
$var wire 32 ' div_result [31:0] $end
$var wire 32 ( operand_1 [31:0] $end
$var wire 32 ) operand_2 [31:0] $end
$var wire 1 * output_ready $end
$var wire 32 + rem_result [31:0] $end
$var wire 33 , sub [32:0] $end
$var reg 1 - active $end
$var reg 5 . cycle [4:0] $end
$var reg 32 / denom [31:0] $end
$var reg 32 0 div [31:0] $end
$var reg 32 1 latched_div_result [31:0] $end
$var reg 32 2 latched_rem_result [31:0] $end
$var reg 32 3 rem [31:0] $end
$var reg 32 4 result [31:0] $end
$var reg 32 5 work [31:0] $end
$upscope $end
$upscope $end
$enddefinitions $end
$comment Show the parameter values. $end
$dumpall
$end
#0
$dumpvars
bx 5
bx 4
bx 3
bx 2
bx 1
bx 0
bx /
bx .
x-
bx ,
bx +
x*
b110010 )
b1111111111 (
bx '
b110010 &
b1111111111 %
0$
x#
bx "
bx !
$end
#10
0*
b111111111111111111111111111001110 ,
1#
1-
b0 +
b0 5
b110010 /
b1111111111 '
b1111111111 4
b11111 .
1$
#20
0$
#30
b11110 .
b11111111110 '
b11111111110 4
1$
#40
0$
#50
b11101 .
b111111111100 '
b111111111100 4
1$
#60
0$
#70
b11100 .
b1111111111000 '
b1111111111000 4
1$
#80
0$
#90
b11011 .
b11111111110000 '
b11111111110000 4
1$
#100
0$
#110
b11010 .
b111111111100000 '
b111111111100000 4
1$
#120
0$
#130
b11001 .
b1111111111000000 '
b1111111111000000 4
1$
#140
0$
#150
b11000 .
b11111111110000000 '
b11111111110000000 4
1$
#160
0$
#170
b10111 .
b111111111100000000 '
b111111111100000000 4
1$
#180
0$
#190
b10110 .
b1111111111000000000 '
b1111111111000000000 4
1$
#200
0$
#210
b10101 .
b11111111110000000000 '
b11111111110000000000 4
1$
#220
0$
#230
b10100 .
b111111111100000000000 '
b111111111100000000000 4
1$
#240
0$
#250
b10011 .
b1111111111000000000000 '
b1111111111000000000000 4
1$
#260
0$
#270
b10010 .
b11111111110000000000000 '
b11111111110000000000000 4
1$
#280
0$
#290
b10001 .
b111111111100000000000000 '
b111111111100000000000000 4
1$
#300
0$
#310
b10000 .
b1111111111000000000000000 '
b1111111111000000000000000 4
1$
#320
0$
#330
b1111 .
b11111111110000000000000000 '
b11111111110000000000000000 4
1$
#340
0$
#350
b1110 .
b111111111100000000000000000 '
b111111111100000000000000000 4
1$
#360
0$
#370
b1101 .
b1111111111000000000000000000 '
b1111111111000000000000000000 4
1$
#380
0$
#390
b1100 .
b11111111110000000000000000000 '
b11111111110000000000000000000 4
1$
#400
0$
#410
b1011 .
b111111111100000000000000000000 '
b111111111100000000000000000000 4
1$
#420
0$
#430
b1010 .
b1111111111000000000000000000000 '
b1111111111000000000000000000000 4
1$
#440
0$
#450
b111111111111111111111111111001111 ,
b1001 .
b11111111110000000000000000000000 '
b11111111110000000000000000000000 4
1$
#460
0$
#470
b111111111111111111111111111010001 ,
b1000 .
b11111111100000000000000000000000 '
b11111111100000000000000000000000 4
b1 +
b1 5
1$
#480
0$
#490
b111111111111111111111111111010101 ,
b111 .
b11111111000000000000000000000000 '
b11111111000000000000000000000000 4
b11 +
b11 5
1$
#500
0$
#510
b111111111111111111111111111011101 ,
b110 .
b11111110000000000000000000000000 '
b11111110000000000000000000000000 4
b111 +
b111 5
1$
#520
0$
#530
b111111111111111111111111111101101 ,
b101 .
b11111100000000000000000000000000 '
b11111100000000000000000000000000 4
b1111 +
b1111 5
1$
#540
0$
#550
b1101 ,
b100 .
b11111000000000000000000000000000 '
b11111000000000000000000000000000 4
b11111 +
b11111 5
1$
#560
0$
#570
b111111111111111111111111111101001 ,
b11 .
b11110000000000000000000000000001 '
b11110000000000000000000000000001 4
b1101 +
b1101 5
1$
#580
0$
#590
b101 ,
b10 .
b11100000000000000000000000000010 '
b11100000000000000000000000000010 4
b11011 +
b11011 5
1$
#600
0$
#610
b111111111111111111111111111011001 ,
b1 .
b11000000000000000000000000000101 '
b11000000000000000000000000000101 4
b101 +
b101 5
1$
#620
0$
#630
b111111111111111111111111111100101 ,
b0 .
b10000000000000000000000000001010 '
b10000000000000000000000000001010 4
b1011 +
b1011 5
1$
#640
0$
#650
b10111 !
b10111 3
b10100 "
b10100 0
b10111 2
b10100 1
1*
b111111111111111111111111111111100 ,
b11111 .
0#
0-
b10100 '
b10100 4
b10111 +
b10111 5
1$
#660
0$
#670
0*
b111111111111111111111111111001110 ,
1#
1-
b0 2
b0 +
b0 5
b1111111111 1
b1111111111 '
b1111111111 4
1$
#680
0$
#690
b11110 .
b11111111110 1
b11111111110 '
b11111111110 4
1$
#700
0$
#710
b11101 .
b111111111100 1
b111111111100 '
b111111111100 4
1$
#720
0$
#730
b11100 .
b1111111111000 1
b1111111111000 '
b1111111111000 4
1$
#740
0$
#750
b11011 .
b11111111110000 1
b11111111110000 '
b11111111110000 4
1$
#760
0$
#770
b11010 .
b111111111100000 1
b111111111100000 '
b111111111100000 4
1$
#780
0$
#790
b11001 .
b1111111111000000 1
b1111111111000000 '
b1111111111000000 4
1$
#800
0$
#810
b11000 .
b11111111110000000 1
b11111111110000000 '
b11111111110000000 4
1$
#820
0$
#830
b10111 .
b111111111100000000 1
b111111111100000000 '
b111111111100000000 4
1$
#840
0$
#850
b10110 .
b1111111111000000000 1
b1111111111000000000 '
b1111111111000000000 4
1$
#860
0$
#870
b10101 .
b11111111110000000000 1
b11111111110000000000 '
b11111111110000000000 4
1$
#880
0$
#890
b10100 .
b111111111100000000000 1
b111111111100000000000 '
b111111111100000000000 4
1$
#900
0$
#910
b10011 .
b1111111111000000000000 1
b1111111111000000000000 '
b1111111111000000000000 4
1$
#920
0$
#930
b10010 .
b11111111110000000000000 1
b11111111110000000000000 '
b11111111110000000000000 4
1$
#940
0$
#950
b10001 .
b111111111100000000000000 1
b111111111100000000000000 '
b111111111100000000000000 4
1$
#960
0$
#970
b10000 .
b1111111111000000000000000 1
b1111111111000000000000000 '
b1111111111000000000000000 4
1$
#980
0$
#990
b1111 .
b11111111110000000000000000 1
b11111111110000000000000000 '
b11111111110000000000000000 4
1$
#1000
0$
#1010
b1110 .
b111111111100000000000000000 1
b111111111100000000000000000 '
b111111111100000000000000000 4
1$
#1020
0$
#1030
b1101 .
b1111111111000000000000000000 1
b1111111111000000000000000000 '
b1111111111000000000000000000 4
1$
#1040
0$
#1050
b1100 .
b11111111110000000000000000000 1
b11111111110000000000000000000 '
b11111111110000000000000000000 4
1$
#1060
0$
#1070
b1011 .
b111111111100000000000000000000 1
b111111111100000000000000000000 '
b111111111100000000000000000000 4
1$
#1080
0$
#1090
b1010 .
b1111111111000000000000000000000 1
b1111111111000000000000000000000 '
b1111111111000000000000000000000 4
1$
#1100
0$
#1110
b111111111111111111111111111001111 ,
b1001 .
b11111111110000000000000000000000 1
b11111111110000000000000000000000 '
b11111111110000000000000000000000 4
1$
#1120
0$
#1130
b111111111111111111111111111010001 ,
b1000 .
b11111111100000000000000000000000 1
b11111111100000000000000000000000 '
b11111111100000000000000000000000 4
b1 2
b1 +
b1 5
1$
#1140
0$
#1150
b111111111111111111111111111010101 ,
b111 .
b11111111000000000000000000000000 1
b11111111000000000000000000000000 '
b11111111000000000000000000000000 4
b11 2
b11 +
b11 5
1$
#1160
0$
#1170
b111111111111111111111111111011101 ,
b110 .
b11111110000000000000000000000000 1
b11111110000000000000000000000000 '
b11111110000000000000000000000000 4
b111 2
b111 +
b111 5
1$
#1180
0$
#1190
b111111111111111111111111111101101 ,
b101 .
b11111100000000000000000000000000 1
b11111100000000000000000000000000 '
b11111100000000000000000000000000 4
b1111 2
b1111 +
b1111 5
1$
#1200
0$
#1210
b1101 ,
b100 .
b11111000000000000000000000000000 1
b11111000000000000000000000000000 '
b11111000000000000000000000000000 4
b11111 2
b11111 +
b11111 5
1$
#1220
0$
#1230
b111111111111111111111111111101001 ,
b11 .
b11110000000000000000000000000001 1
b11110000000000000000000000000001 '
b11110000000000000000000000000001 4
b1101 2
b1101 +
b1101 5
1$
#1240
0$
#1250
b101 ,
b10 .
b11100000000000000000000000000010 1
b11100000000000000000000000000010 '
b11100000000000000000000000000010 4
b11011 2
b11011 +
b11011 5
1$
#1260
0$
#1270
b111111111111111111111111111011001 ,
b1 .
b11000000000000000000000000000101 1
b11000000000000000000000000000101 '
b11000000000000000000000000000101 4
b101 2
b101 +
b101 5
1$
#1280
0$
#1290
b111111111111111111111111111100101 ,
b0 .
b10000000000000000000000000001010 1
b10000000000000000000000000001010 '
b10000000000000000000000000001010 4
b1011 2
b1011 +
b1011 5
1$
#1300
0$
#1310
1*
b111111111111111111111111111111100 ,
b11111 .
0#
0-
b10100 1
b10100 '
b10100 4
b10111 2
b10111 +
b10111 5
1$
#1320
0$
#1330
0*
b111111111111111111111111111001110 ,
1#
1-
b0 2
b0 +
b0 5
b1111111111 1
b1111111111 '
b1111111111 4
1$
#1340
0$
#1350
b11110 .
b11111111110 1
b11111111110 '
b11111111110 4
1$
#1360
0$
#1370
b11101 .
b111111111100 1
b111111111100 '
b111111111100 4
1$
#1380
0$
#1390
b11100 .
b1111111111000 1
b1111111111000 '
b1111111111000 4
1$
#1400
0$
#1410
b11011 .
b11111111110000 1
b11111111110000 '
b11111111110000 4
1$
#1420
0$
#1430
b11010 .
b111111111100000 1
b111111111100000 '
b111111111100000 4
1$
#1440
0$
#1450
b11001 .
b1111111111000000 1
b1111111111000000 '
b1111111111000000 4
1$
#1460
0$
#1470
b11000 .
b11111111110000000 1
b11111111110000000 '
b11111111110000000 4
1$
#1480
0$
#1490
b10111 .
b111111111100000000 1
b111111111100000000 '
b111111111100000000 4
1$
#1500
0$
#1510
b10110 .
b1111111111000000000 1
b1111111111000000000 '
b1111111111000000000 4
1$
#1520
0$
#1530
b10101 .
b11111111110000000000 1
b11111111110000000000 '
b11111111110000000000 4
1$
#1540
0$
#1550
b10100 .
b111111111100000000000 1
b111111111100000000000 '
b111111111100000000000 4
1$
#1560
0$
#1570
b10011 .
b1111111111000000000000 1
b1111111111000000000000 '
b1111111111000000000000 4
1$
#1580
0$
#1590
b10010 .
b11111111110000000000000 1
b11111111110000000000000 '
b11111111110000000000000 4
1$
#1600
0$
#1610
b10001 .
b111111111100000000000000 1
b111111111100000000000000 '
b111111111100000000000000 4
1$
#1620
0$
#1630
b10000 .
b1111111111000000000000000 1
b1111111111000000000000000 '
b1111111111000000000000000 4
1$
#1640
0$
#1650
b1111 .
b11111111110000000000000000 1
b11111111110000000000000000 '
b11111111110000000000000000 4
1$
#1660
0$
#1670
b1110 .
b111111111100000000000000000 1
b111111111100000000000000000 '
b111111111100000000000000000 4
1$
#1680
0$
#1690
b1101 .
b1111111111000000000000000000 1
b1111111111000000000000000000 '
b1111111111000000000000000000 4
1$
#1700
0$
#1710
b1100 .
b11111111110000000000000000000 1
b11111111110000000000000000000 '
b11111111110000000000000000000 4
1$
#1720
0$
#1730
b1011 .
b111111111100000000000000000000 1
b111111111100000000000000000000 '
b111111111100000000000000000000 4
1$
#1740
0$
#1750
b1010 .
b1111111111000000000000000000000 1
b1111111111000000000000000000000 '
b1111111111000000000000000000000 4
1$
#1760
0$
#1770
b111111111111111111111111111001111 ,
b1001 .
b11111111110000000000000000000000 1
b11111111110000000000000000000000 '
b11111111110000000000000000000000 4
1$
#1780
0$
#1790
b111111111111111111111111111010001 ,
b1000 .
b11111111100000000000000000000000 1
b11111111100000000000000000000000 '
b11111111100000000000000000000000 4
b1 2
b1 +
b1 5
1$
#1800
0$
#1810
b111111111111111111111111111010101 ,
b111 .
b11111111000000000000000000000000 1
b11111111000000000000000000000000 '
b11111111000000000000000000000000 4
b11 2
b11 +
b11 5
1$
#1820
0$
#1830
b111111111111111111111111111011101 ,
b110 .
b11111110000000000000000000000000 1
b11111110000000000000000000000000 '
b11111110000000000000000000000000 4
b111 2
b111 +
b111 5
1$
#1840
0$
#1850
b111111111111111111111111111101101 ,
b101 .
b11111100000000000000000000000000 1
b11111100000000000000000000000000 '
b11111100000000000000000000000000 4
b1111 2
b1111 +
b1111 5
1$
#1860
0$
#1870
b1101 ,
b100 .
b11111000000000000000000000000000 1
b11111000000000000000000000000000 '
b11111000000000000000000000000000 4
b11111 2
b11111 +
b11111 5
1$
#1880
0$
#1890
b111111111111111111111111111101001 ,
b11 .
b11110000000000000000000000000001 1
b11110000000000000000000000000001 '
b11110000000000000000000000000001 4
b1101 2
b1101 +
b1101 5
1$
#1900
0$
#1910
b101 ,
b10 .
b11100000000000000000000000000010 1
b11100000000000000000000000000010 '
b11100000000000000000000000000010 4
b11011 2
b11011 +
b11011 5
1$
#1920
0$
#1930
b111111111111111111111111111011001 ,
b1 .
b11000000000000000000000000000101 1
b11000000000000000000000000000101 '
b11000000000000000000000000000101 4
b101 2
b101 +
b101 5
1$
#1940
0$
#1950
b111111111111111111111111111100101 ,
b0 .
b10000000000000000000000000001010 1
b10000000000000000000000000001010 '
b10000000000000000000000000001010 4
b1011 2
b1011 +
b1011 5
1$
#1960
0$
#1970
1*
b111111111111111111111111111111100 ,
b11111 .
0#
0-
b10100 1
b10100 '
b10100 4
b10111 2
b10111 +
b10111 5
1$
#1980
0$
#1990
0*
b111111111111111111111111111001110 ,
1#
1-
b0 2
b0 +
b0 5
b1111111111 1
b1111111111 '
b1111111111 4
1$
#2000
0$
#2010
b11110 .
b11111111110 1
b11111111110 '
b11111111110 4
1$
#2020
0$
#2030
b11101 .
b111111111100 1
b111111111100 '
b111111111100 4
1$
#2040
0$
#2050
b11100 .
b1111111111000 1
b1111111111000 '
b1111111111000 4
1$
#2060
0$
#2070
b11011 .
b11111111110000 1
b11111111110000 '
b11111111110000 4
1$
#2080
0$
#2090
b11010 .
b111111111100000 1
b111111111100000 '
b111111111100000 4
1$
#2100
0$
#2110
b11001 .
b1111111111000000 1
b1111111111000000 '
b1111111111000000 4
1$
#2120
0$
#2130
b11000 .
b11111111110000000 1
b11111111110000000 '
b11111111110000000 4
1$
#2140
0$
#2150
b10111 .
b111111111100000000 1
b111111111100000000 '
b111111111100000000 4
1$
#2160
0$
#2170
b10110 .
b1111111111000000000 1
b1111111111000000000 '
b1111111111000000000 4
1$
#2180
0$
#2190
b10101 .
b11111111110000000000 1
b11111111110000000000 '
b11111111110000000000 4
1$
#2200
0$
#2210
b10100 .
b111111111100000000000 1
b111111111100000000000 '
b111111111100000000000 4
1$
#2220
0$
#2230
b10011 .
b1111111111000000000000 1
b1111111111000000000000 '
b1111111111000000000000 4
1$
#2240
0$
#2250
b10010 .
b11111111110000000000000 1
b11111111110000000000000 '
b11111111110000000000000 4
1$
#2260
0$
#2270
b10001 .
b111111111100000000000000 1
b111111111100000000000000 '
b111111111100000000000000 4
1$
#2280
0$
#2290
b10000 .
b1111111111000000000000000 1
b1111111111000000000000000 '
b1111111111000000000000000 4
1$
#2300
0$
#2310
b1111 .
b11111111110000000000000000 1
b11111111110000000000000000 '
b11111111110000000000000000 4
1$
#2320
0$
#2330
b1110 .
b111111111100000000000000000 1
b111111111100000000000000000 '
b111111111100000000000000000 4
1$
#2340
0$
#2350
b1101 .
b1111111111000000000000000000 1
b1111111111000000000000000000 '
b1111111111000000000000000000 4
1$
#2360
0$
#2370
b1100 .
b11111111110000000000000000000 1
b11111111110000000000000000000 '
b11111111110000000000000000000 4
1$
#2380
0$
#2390
b1011 .
b111111111100000000000000000000 1
b111111111100000000000000000000 '
b111111111100000000000000000000 4
1$
#2400
0$
#2410
b1010 .
b1111111111000000000000000000000 1
b1111111111000000000000000000000 '
b1111111111000000000000000000000 4
1$
#2420
0$
#2430
b111111111111111111111111111001111 ,
b1001 .
b11111111110000000000000000000000 1
b11111111110000000000000000000000 '
b11111111110000000000000000000000 4
1$
#2440
0$
#2450
b111111111111111111111111111010001 ,
b1000 .
b11111111100000000000000000000000 1
b11111111100000000000000000000000 '
b11111111100000000000000000000000 4
b1 2
b1 +
b1 5
1$
#2460
0$
#2470
b111111111111111111111111111010101 ,
b111 .
b11111111000000000000000000000000 1
b11111111000000000000000000000000 '
b11111111000000000000000000000000 4
b11 2
b11 +
b11 5
1$
#2480
0$
#2490
b111111111111111111111111111011101 ,
b110 .
b11111110000000000000000000000000 1
b11111110000000000000000000000000 '
b11111110000000000000000000000000 4
b111 2
b111 +
b111 5
1$
#2500
0$
#2510
b111111111111111111111111111101101 ,
b101 .
b11111100000000000000000000000000 1
b11111100000000000000000000000000 '
b11111100000000000000000000000000 4
b1111 2
b1111 +
b1111 5
1$
#2520
0$
#2530
b1101 ,
b100 .
b11111000000000000000000000000000 1
b11111000000000000000000000000000 '
b11111000000000000000000000000000 4
b11111 2
b11111 +
b11111 5
1$
#2540
0$
#2550
b111111111111111111111111111101001 ,
b11 .
b11110000000000000000000000000001 1
b11110000000000000000000000000001 '
b11110000000000000000000000000001 4
b1101 2
b1101 +
b1101 5
1$
#2560
0$
#2570
b101 ,
b10 .
b11100000000000000000000000000010 1
b11100000000000000000000000000010 '
b11100000000000000000000000000010 4
b11011 2
b11011 +
b11011 5
1$
#2580
0$
#2590
b111111111111111111111111111011001 ,
b1 .
b11000000000000000000000000000101 1
b11000000000000000000000000000101 '
b11000000000000000000000000000101 4
b101 2
b101 +
b101 5
1$
#2600
0$
#2610
b111111111111111111111111111100101 ,
b0 .
b10000000000000000000000000001010 1
b10000000000000000000000000001010 '
b10000000000000000000000000001010 4
b1011 2
b1011 +
b1011 5
1$
#2620
0$
#2630
1*
b111111111111111111111111111111100 ,
b11111 .
0#
0-
b10100 1
b10100 '
b10100 4
b10111 2
b10111 +
b10111 5
1$
#2640
0$
#2650
0*
b111111111111111111111111111001110 ,
1#
1-
b0 2
b0 +
b0 5
b1111111111 1
b1111111111 '
b1111111111 4
1$
#2660
0$
#2670
b11110 .
b11111111110 1
b11111111110 '
b11111111110 4
1$
#2680
0$
#2690
b11101 .
b111111111100 1
b111111111100 '
b111111111100 4
1$
#2700
0$
#2710
b11100 .
b1111111111000 1
b1111111111000 '
b1111111111000 4
1$
#2720
0$
#2730
b11011 .
b11111111110000 1
b11111111110000 '
b11111111110000 4
1$
#2740
0$
#2750
b11010 .
b111111111100000 1
b111111111100000 '
b111111111100000 4
1$
#2760
0$
#2770
b11001 .
b1111111111000000 1
b1111111111000000 '
b1111111111000000 4
1$
#2780
0$
#2790
b11000 .
b11111111110000000 1
b11111111110000000 '
b11111111110000000 4
1$
#2800
0$
#2810
b10111 .
b111111111100000000 1
b111111111100000000 '
b111111111100000000 4
1$
#2820
0$
#2830
b10110 .
b1111111111000000000 1
b1111111111000000000 '
b1111111111000000000 4
1$
#2840
0$
#2850
b10101 .
b11111111110000000000 1
b11111111110000000000 '
b11111111110000000000 4
1$
#2860
0$
#2870
b10100 .
b111111111100000000000 1
b111111111100000000000 '
b111111111100000000000 4
1$
#2880
0$
#2890
b10011 .
b1111111111000000000000 1
b1111111111000000000000 '
b1111111111000000000000 4
1$
#2900
0$
#2910
b10010 .
b11111111110000000000000 1
b11111111110000000000000 '
b11111111110000000000000 4
1$
#2920
0$
#2930
b10001 .
b111111111100000000000000 1
b111111111100000000000000 '
b111111111100000000000000 4
1$
#2940
0$
#2950
b10000 .
b1111111111000000000000000 1
b1111111111000000000000000 '
b1111111111000000000000000 4
1$
#2960
0$
#2970
b1111 .
b11111111110000000000000000 1
b11111111110000000000000000 '
b11111111110000000000000000 4
1$
#2980
0$
#2990
b1110 .
b111111111100000000000000000 1
b111111111100000000000000000 '
b111111111100000000000000000 4
1$
#3000
0$
#3010
b1101 .
b1111111111000000000000000000 1
b1111111111000000000000000000 '
b1111111111000000000000000000 4
1$
#3020
0$
#3030
b1100 .
b11111111110000000000000000000 1
b11111111110000000000000000000 '
b11111111110000000000000000000 4
1$
#3040
0$
#3050
b1011 .
b111111111100000000000000000000 1
b111111111100000000000000000000 '
b111111111100000000000000000000 4
1$
#3060
0$
#3070
b1010 .
b1111111111000000000000000000000 1
b1111111111000000000000000000000 '
b1111111111000000000000000000000 4
1$
#3080
0$
#3090
b111111111111111111111111111001111 ,
b1001 .
b11111111110000000000000000000000 1
b11111111110000000000000000000000 '
b11111111110000000000000000000000 4
1$
#3100
0$
#3110
b111111111111111111111111111010001 ,
b1000 .
b11111111100000000000000000000000 1
b11111111100000000000000000000000 '
b11111111100000000000000000000000 4
b1 2
b1 +
b1 5
1$
#3120
0$
#3130
b111111111111111111111111111010101 ,
b111 .
b11111111000000000000000000000000 1
b11111111000000000000000000000000 '
b11111111000000000000000000000000 4
b11 2
b11 +
b11 5
1$
#3140
0$
#3150
b111111111111111111111111111011101 ,
b110 .
b11111110000000000000000000000000 1
b11111110000000000000000000000000 '
b11111110000000000000000000000000 4
b111 2
b111 +
b111 5
1$
#3160
0$
#3170
b111111111111111111111111111101101 ,
b101 .
b11111100000000000000000000000000 1
b11111100000000000000000000000000 '
b11111100000000000000000000000000 4
b1111 2
b1111 +
b1111 5
1$
#3180
0$
#3190
b1101 ,
b100 .
b11111000000000000000000000000000 1
b11111000000000000000000000000000 '
b11111000000000000000000000000000 4
b11111 2
b11111 +
b11111 5
1$
#3200
0$
#3210
b111111111111111111111111111101001 ,
b11 .
b11110000000000000000000000000001 1
b11110000000000000000000000000001 '
b11110000000000000000000000000001 4
b1101 2
b1101 +
b1101 5
1$
#3220
0$
#3230
b101 ,
b10 .
b11100000000000000000000000000010 1
b11100000000000000000000000000010 '
b11100000000000000000000000000010 4
b11011 2
b11011 +
b11011 5
1$
#3240
0$
#3250
b111111111111111111111111111011001 ,
b1 .
b11000000000000000000000000000101 1
b11000000000000000000000000000101 '
b11000000000000000000000000000101 4
b101 2
b101 +
b101 5
1$
#3260
0$
#3270
b111111111111111111111111111100101 ,
b0 .
b10000000000000000000000000001010 1
b10000000000000000000000000001010 '
b10000000000000000000000000001010 4
b1011 2
b1011 +
b1011 5
1$
#3280
0$
#3290
1*
b111111111111111111111111111111100 ,
b11111 .
0#
0-
b10100 1
b10100 '
b10100 4
b10111 2
b10111 +
b10111 5
1$
#3300
0$
#3310
0*
b111111111111111111111111111001110 ,
1#
1-
b0 2
b0 +
b0 5
b1111111111 1
b1111111111 '
b1111111111 4
1$
#3320
0$
#3330
b11110 .
b11111111110 1
b11111111110 '
b11111111110 4
1$
#3340
0$
#3350
b11101 .
b111111111100 1
b111111111100 '
b111111111100 4
1$
#3360
0$
#3370
b11100 .
b1111111111000 1
b1111111111000 '
b1111111111000 4
1$
#3380
0$
#3390
b11011 .
b11111111110000 1
b11111111110000 '
b11111111110000 4
1$
#3400
0$
#3410
b11010 .
b111111111100000 1
b111111111100000 '
b111111111100000 4
1$
#3420
0$
#3430
b11001 .
b1111111111000000 1
b1111111111000000 '
b1111111111000000 4
1$
#3440
0$
#3450
b11000 .
b11111111110000000 1
b11111111110000000 '
b11111111110000000 4
1$
#3460
0$
#3470
b10111 .
b111111111100000000 1
b111111111100000000 '
b111111111100000000 4
1$
#3480
0$
#3490
b10110 .
b1111111111000000000 1
b1111111111000000000 '
b1111111111000000000 4
1$
#3500
0$
#3510
b10101 .
b11111111110000000000 1
b11111111110000000000 '
b11111111110000000000 4
1$
#3520
0$
#3530
b10100 .
b111111111100000000000 1
b111111111100000000000 '
b111111111100000000000 4
1$
#3540
0$
#3550
b10011 .
b1111111111000000000000 1
b1111111111000000000000 '
b1111111111000000000000 4
1$
#3560
0$
#3570
b10010 .
b11111111110000000000000 1
b11111111110000000000000 '
b11111111110000000000000 4
1$
#3580
0$
#3590
b10001 .
b111111111100000000000000 1
b111111111100000000000000 '
b111111111100000000000000 4
1$
#3600
0$
#3610
b10000 .
b1111111111000000000000000 1
b1111111111000000000000000 '
b1111111111000000000000000 4
1$
#3620
0$
#3630
b1111 .
b11111111110000000000000000 1
b11111111110000000000000000 '
b11111111110000000000000000 4
1$
#3640
0$
#3650
b1110 .
b111111111100000000000000000 1
b111111111100000000000000000 '
b111111111100000000000000000 4
1$
#3660
0$
#3670
b1101 .
b1111111111000000000000000000 1
b1111111111000000000000000000 '
b1111111111000000000000000000 4
1$
#3680
0$
#3690
b1100 .
b11111111110000000000000000000 1
b11111111110000000000000000000 '
b11111111110000000000000000000 4
1$
#3700
0$
#3710
b1011 .
b111111111100000000000000000000 1
b111111111100000000000000000000 '
b111111111100000000000000000000 4
1$
#3720
0$
#3730
b1010 .
b1111111111000000000000000000000 1
b1111111111000000000000000000000 '
b1111111111000000000000000000000 4
1$
#3740
0$
#3750
b111111111111111111111111111001111 ,
b1001 .
b11111111110000000000000000000000 1
b11111111110000000000000000000000 '
b11111111110000000000000000000000 4
1$
#3760
0$
#3770
b111111111111111111111111111010001 ,
b1000 .
b11111111100000000000000000000000 1
b11111111100000000000000000000000 '
b11111111100000000000000000000000 4
b1 2
b1 +
b1 5
1$
#3780
0$
#3790
b111111111111111111111111111010101 ,
b111 .
b11111111000000000000000000000000 1
b11111111000000000000000000000000 '
b11111111000000000000000000000000 4
b11 2
b11 +
b11 5
1$
#3800
0$
#3810
b111111111111111111111111111011101 ,
b110 .
b11111110000000000000000000000000 1
b11111110000000000000000000000000 '
b11111110000000000000000000000000 4
b111 2
b111 +
b111 5
1$
#3820
0$
#3830
b111111111111111111111111111101101 ,
b101 .
b11111100000000000000000000000000 1
b11111100000000000000000000000000 '
b11111100000000000000000000000000 4
b1111 2
b1111 +
b1111 5
1$
#3840
0$
#3850
b1101 ,
b100 .
b11111000000000000000000000000000 1
b11111000000000000000000000000000 '
b11111000000000000000000000000000 4
b11111 2
b11111 +
b11111 5
1$
#3860
0$
#3870
b111111111111111111111111111101001 ,
b11 .
b11110000000000000000000000000001 1
b11110000000000000000000000000001 '
b11110000000000000000000000000001 4
b1101 2
b1101 +
b1101 5
1$
#3880
0$
#3890
b101 ,
b10 .
b11100000000000000000000000000010 1
b11100000000000000000000000000010 '
b11100000000000000000000000000010 4
b11011 2
b11011 +
b11011 5
1$
#3900
0$
#3910
b111111111111111111111111111011001 ,
b1 .
b11000000000000000000000000000101 1
b11000000000000000000000000000101 '
b11000000000000000000000000000101 4
b101 2
b101 +
b101 5
1$
#3920
0$
#3930
b111111111111111111111111111100101 ,
b0 .
b10000000000000000000000000001010 1
b10000000000000000000000000001010 '
b10000000000000000000000000001010 4
b1011 2
b1011 +
b1011 5
1$
#3940
0$
#3950
1*
b111111111111111111111111111111100 ,
b11111 .
0#
0-
b10100 1
b10100 '
b10100 4
b10111 2
b10111 +
b10111 5
1$
#3960
0$
#3970
0*
b111111111111111111111111111001110 ,
1#
1-
b0 2
b0 +
b0 5
b1111111111 1
b1111111111 '
b1111111111 4
1$
#3980
0$
#3990
b11110 .
b11111111110 1
b11111111110 '
b11111111110 4
1$
#4000
0$
b1010000 &
b1010000 )
b11111010000 %
b11111010000 (
#4010
b11101 .
b111111111100 1
b111111111100 '
b111111111100 4
1$
#4020
0$
#4030
b11100 .
b1111111111000 1
b1111111111000 '
b1111111111000 4
1$
#4040
0$
#4050
b11011 .
b11111111110000 1
b11111111110000 '
b11111111110000 4
1$
#4060
0$
#4070
b11010 .
b111111111100000 1
b111111111100000 '
b111111111100000 4
1$
#4080
0$
#4090
b11001 .
b1111111111000000 1
b1111111111000000 '
b1111111111000000 4
1$
#4100
0$
#4110
b11000 .
b11111111110000000 1
b11111111110000000 '
b11111111110000000 4
1$
#4120
0$
#4130
b10111 .
b111111111100000000 1
b111111111100000000 '
b111111111100000000 4
1$
#4140
0$
#4150
b10110 .
b1111111111000000000 1
b1111111111000000000 '
b1111111111000000000 4
1$
#4160
0$
#4170
b10101 .
b11111111110000000000 1
b11111111110000000000 '
b11111111110000000000 4
1$
#4180
0$
#4190
b10100 .
b111111111100000000000 1
b111111111100000000000 '
b111111111100000000000 4
1$
#4200
0$
#4210
b10011 .
b1111111111000000000000 1
b1111111111000000000000 '
b1111111111000000000000 4
1$
#4220
0$
#4230
b10010 .
b11111111110000000000000 1
b11111111110000000000000 '
b11111111110000000000000 4
1$
#4240
0$
#4250
b10001 .
b111111111100000000000000 1
b111111111100000000000000 '
b111111111100000000000000 4
1$
#4260
0$
#4270
b10000 .
b1111111111000000000000000 1
b1111111111000000000000000 '
b1111111111000000000000000 4
1$
#4280
0$
#4290
b1111 .
b11111111110000000000000000 1
b11111111110000000000000000 '
b11111111110000000000000000 4
1$
#4300
0$
#4310
b1110 .
b111111111100000000000000000 1
b111111111100000000000000000 '
b111111111100000000000000000 4
1$
#4320
0$
#4330
b1101 .
b1111111111000000000000000000 1
b1111111111000000000000000000 '
b1111111111000000000000000000 4
1$
#4340
0$
#4350
b1100 .
b11111111110000000000000000000 1
b11111111110000000000000000000 '
b11111111110000000000000000000 4
1$
#4360
0$
#4370
b1011 .
b111111111100000000000000000000 1
b111111111100000000000000000000 '
b111111111100000000000000000000 4
1$
#4380
0$
#4390
b1010 .
b1111111111000000000000000000000 1
b1111111111000000000000000000000 '
b1111111111000000000000000000000 4
1$
#4400
0$
#4410
b111111111111111111111111111001111 ,
b1001 .
b11111111110000000000000000000000 1
b11111111110000000000000000000000 '
b11111111110000000000000000000000 4
1$
#4420
0$
#4430
b111111111111111111111111111010001 ,
b1000 .
b11111111100000000000000000000000 1
b11111111100000000000000000000000 '
b11111111100000000000000000000000 4
b1 2
b1 +
b1 5
1$
#4440
0$
