Modules/Testbenches/Approximate_Accuracy_Controlable_Divider.vcd
$date
	Wed Oct 11 16:25:44 2023
$end
$version
	Icarus Verilog
$end
$timescale
	1ns
$end
$scope module Approximate_Accuracy_Controlable_Divider_TB $end
$var wire 32 ! rem [31:0] $end
$var wire 32 " div [31:0] $end
$var wire 1 # busy $end
$var reg 1 $ CLK $end
$var reg 8 % Error [7:0] $end
$var reg 32 & operand_1 [31:0] $end
$var reg 32 ' operand_2 [31:0] $end
$scope module uut $end
$var wire 1 $ CLK $end
$var wire 8 ( Er [7:0] $end
$var wire 1 # busy $end
$var wire 32 ) div_result [31:0] $end
$var wire 32 * operand_1 [31:0] $end
$var wire 32 + operand_2 [31:0] $end
$var wire 1 , output_ready $end
$var wire 32 - rem_result [31:0] $end
$var wire 33 . sub_test [32:0] $end
$var wire 33 / sub_prim [32:0] $end
$var wire 32 0 sub_module [31:0] $end
$var wire 33 1 sub [32:0] $end
$var wire 1 2 c_out $end
$var reg 1 3 active $end
$var reg 5 4 cycle [4:0] $end
$var reg 32 5 denom [31:0] $end
$var reg 32 6 div [31:0] $end
$var reg 32 7 latched_div_result [31:0] $end
$var reg 32 8 latched_rem_result [31:0] $end
$var reg 32 9 rem [31:0] $end
$var reg 32 : result [31:0] $end
$var reg 32 ; work [31:0] $end
$scope module approximate_subtract $end
$var wire 32 < A [31:0] $end
$var wire 32 = B [31:0] $end
$var wire 1 > Cin $end
$var wire 8 ? Er [7:0] $end
$var wire 32 @ Sum [31:0] $end
$var wire 1 2 Cout $end
$var wire 32 A C [31:0] $end
$var parameter 32 B APX_LEN $end
$var parameter 32 C LEN $end
$scope begin genblk1[4] $end
$var wire 1 D HA_Carry $end
$var wire 4 E EC_RCA_Output [7:4] $end
$var wire 1 F EC_RCA_Carry $end
$var wire 4 G BU_Output [7:4] $end
$var wire 1 H BU_Carry $end
$var parameter 4 I i $end
$scope module BU_1 $end
$var wire 4 J A [3:0] $end
$var wire 1 H C0 $end
$var wire 1 K C1 $end
$var wire 1 L C2 $end
$var wire 1 M C3 $end
$var wire 4 N B [4:1] $end
$upscope $end
$scope module EC_RCA $end
$var wire 3 O A [2:0] $end
$var wire 3 P B [2:0] $end
$var wire 3 Q Er [2:0] $end
$var wire 3 R Sum [2:0] $end
$var wire 1 F Cout $end
$var wire 1 D Cin $end
$var wire 4 S Carry [3:0] $end
$var parameter 32 T LEN $end
$scope begin genblk1[0] $end
$var parameter 2 U i $end
$scope module ECFA $end
$var wire 1 V A $end
$var wire 1 W B $end
$var wire 1 X Cin $end
$var wire 1 Y Cout $end
$var wire 1 Z Er $end
$var wire 1 [ Sum $end
$upscope $end
$upscope $end
$scope begin genblk1[1] $end
$var parameter 2 \ i $end
$scope module ECFA $end
$var wire 1 ] A $end
$var wire 1 ^ B $end
$var wire 1 _ Cin $end
$var wire 1 ` Cout $end
$var wire 1 a Er $end
$var wire 1 b Sum $end
$upscope $end
$upscope $end
$scope begin genblk1[2] $end
$var parameter 3 c i $end
$scope module ECFA $end
$var wire 1 d A $end
$var wire 1 e B $end
$var wire 1 f Cin $end
$var wire 1 g Cout $end
$var wire 1 h Er $end
$var wire 1 i Sum $end
$upscope $end
$upscope $end
$upscope $end
$scope module HA $end
$var wire 1 j A $end
$var wire 1 k B $end
$var wire 1 D Cout $end
$var wire 1 l Sum $end
$upscope $end
$scope module MUX $end
$var wire 5 m data_in_1 [4:0] $end
$var wire 5 n data_in_2 [4:0] $end
$var wire 1 o select $end
$var parameter 32 p LEN $end
$var reg 5 q data_out [4:0] $end
$upscope $end
$upscope $end
$scope begin genblk2[8] $end
$var wire 4 r RCA_Output [11:8] $end
$var wire 1 s RCA_Carry $end
$var wire 1 t HA_Carry $end
$var wire 4 u BU_Output [11:8] $end
$var wire 1 v BU_Carry $end
$var parameter 5 w i $end
$scope module BU_1 $end
$var wire 4 x A [3:0] $end
$var wire 1 v C0 $end
$var wire 1 y C1 $end
$var wire 1 z C2 $end
$var wire 1 { C3 $end
$var wire 4 | B [4:1] $end
$upscope $end
$scope module HA $end
$var wire 1 } A $end
$var wire 1 ~ B $end
$var wire 1 t Cout $end
$var wire 1 !" Sum $end
$upscope $end
$scope module MUX $end
$var wire 5 "" data_in_1 [4:0] $end
$var wire 5 #" data_in_2 [4:0] $end
$var wire 1 $" select $end
$var parameter 32 %" LEN $end
$var reg 5 &" data_out [4:0] $end
$upscope $end
$scope module RCA $end
$var wire 3 '" A [2:0] $end
$var wire 3 (" B [2:0] $end
$var wire 1 t Cin $end
$var wire 3 )" Sum [2:0] $end
$var wire 1 s Cout $end
$var wire 4 *" Carry [3:0] $end
$var parameter 32 +" LEN $end
$scope begin genblk1[0] $end
$var parameter 2 ," i $end
$scope module FA $end
$var wire 1 -" A $end
$var wire 1 ." B $end
$var wire 1 /" Cin $end
$var wire 1 0" Cout $end
$var wire 1 1" Sum $end
$upscope $end
$upscope $end
$scope begin genblk1[1] $end
$var parameter 2 2" i $end
$scope module FA $end
$var wire 1 3" A $end
$var wire 1 4" B $end
$var wire 1 5" Cin $end
$var wire 1 6" Cout $end
$var wire 1 7" Sum $end
$upscope $end
$upscope $end
$scope begin genblk1[2] $end
$var parameter 3 8" i $end
$scope module FA $end
$var wire 1 9" A $end
$var wire 1 :" B $end
$var wire 1 ;" Cin $end
$var wire 1 <" Cout $end
$var wire 1 =" Sum $end
$upscope $end
$upscope $end
$upscope $end
$upscope $end
$scope begin genblk2[12] $end
$var wire 4 >" RCA_Output [15:12] $end
$var wire 1 ?" RCA_Carry $end
$var wire 1 @" HA_Carry $end
$var wire 4 A" BU_Output [15:12] $end
$var wire 1 B" BU_Carry $end
$var parameter 5 C" i $end
$scope module BU_1 $end
$var wire 4 D" A [3:0] $end
$var wire 1 B" C0 $end
$var wire 1 E" C1 $end
$var wire 1 F" C2 $end
$var wire 1 G" C3 $end
$var wire 4 H" B [4:1] $end
$upscope $end
$scope module HA $end
$var wire 1 I" A $end
$var wire 1 J" B $end
$var wire 1 @" Cout $end
$var wire 1 K" Sum $end
$upscope $end
$scope module MUX $end
$var wire 5 L" data_in_1 [4:0] $end
$var wire 5 M" data_in_2 [4:0] $end
$var wire 1 N" select $end
$var parameter 32 O" LEN $end
$var reg 5 P" data_out [4:0] $end
$upscope $end
$scope module RCA $end
$var wire 3 Q" A [2:0] $end
$var wire 3 R" B [2:0] $end
$var wire 1 @" Cin $end
$var wire 3 S" Sum [2:0] $end
$var wire 1 ?" Cout $end
$var wire 4 T" Carry [3:0] $end
$var parameter 32 U" LEN $end
$scope begin genblk1[0] $end
$var parameter 2 V" i $end
$scope module FA $end
$var wire 1 W" A $end
$var wire 1 X" B $end
$var wire 1 Y" Cin $end
$var wire 1 Z" Cout $end
$var wire 1 [" Sum $end
$upscope $end
$upscope $end
$scope begin genblk1[1] $end
$var parameter 2 \" i $end
$scope module FA $end
$var wire 1 ]" A $end
$var wire 1 ^" B $end
$var wire 1 _" Cin $end
$var wire 1 `" Cout $end
$var wire 1 a" Sum $end
$upscope $end
$upscope $end
$scope begin genblk1[2] $end
$var parameter 3 b" i $end
$scope module FA $end
$var wire 1 c" A $end
$var wire 1 d" B $end
$var wire 1 e" Cin $end
$var wire 1 f" Cout $end
$var wire 1 g" Sum $end
$upscope $end
$upscope $end
$upscope $end
$upscope $end
$scope begin genblk2[16] $end
$var wire 4 h" RCA_Output [19:16] $end
$var wire 1 i" RCA_Carry $end
$var wire 1 j" HA_Carry $end
$var wire 4 k" BU_Output [19:16] $end
$var wire 1 l" BU_Carry $end
$var parameter 6 m" i $end
$scope module BU_1 $end
$var wire 4 n" A [3:0] $end
$var wire 1 l" C0 $end
$var wire 1 o" C1 $end
$var wire 1 p" C2 $end
$var wire 1 q" C3 $end
$var wire 4 r" B [4:1] $end
$upscope $end
$scope module HA $end
$var wire 1 s" A $end
$var wire 1 t" B $end
$var wire 1 j" Cout $end
$var wire 1 u" Sum $end
$upscope $end
$scope module MUX $end
$var wire 5 v" data_in_1 [4:0] $end
$var wire 5 w" data_in_2 [4:0] $end
$var wire 1 x" select $end
$var parameter 32 y" LEN $end
$var reg 5 z" data_out [4:0] $end
$upscope $end
$scope module RCA $end
$var wire 3 {" A [2:0] $end
$var wire 3 |" B [2:0] $end
$var wire 1 j" Cin $end
$var wire 3 }" Sum [2:0] $end
$var wire 1 i" Cout $end
$var wire 4 ~" Carry [3:0] $end
$var parameter 32 !# LEN $end
$scope begin genblk1[0] $end
$var parameter 2 "# i $end
$scope module FA $end
$var wire 1 ## A $end
$var wire 1 $# B $end
$var wire 1 %# Cin $end
$var wire 1 &# Cout $end
$var wire 1 '# Sum $end
$upscope $end
$upscope $end
$scope begin genblk1[1] $end
$var parameter 2 (# i $end
$scope module FA $end
$var wire 1 )# A $end
$var wire 1 *# B $end
$var wire 1 +# Cin $end
$var wire 1 ,# Cout $end
$var wire 1 -# Sum $end
$upscope $end
$upscope $end
$scope begin genblk1[2] $end
$var parameter 3 .# i $end
$scope module FA $end
$var wire 1 /# A $end
$var wire 1 0# B $end
$var wire 1 1# Cin $end
$var wire 1 2# Cout $end
$var wire 1 3# Sum $end
$upscope $end
$upscope $end
$upscope $end
$upscope $end
$scope begin genblk2[20] $end
$var wire 4 4# RCA_Output [23:20] $end
$var wire 1 5# RCA_Carry $end
$var wire 1 6# HA_Carry $end
$var wire 4 7# BU_Output [23:20] $end
$var wire 1 8# BU_Carry $end
$var parameter 6 9# i $end
$scope module BU_1 $end
$var wire 4 :# A [3:0] $end
$var wire 1 8# C0 $end
$var wire 1 ;# C1 $end
$var wire 1 <# C2 $end
$var wire 1 =# C3 $end
$var wire 4 ># B [4:1] $end
$upscope $end
$scope module HA $end
$var wire 1 ?# A $end
$var wire 1 @# B $end
$var wire 1 6# Cout $end
$var wire 1 A# Sum $end
$upscope $end
$scope module MUX $end
$var wire 5 B# data_in_1 [4:0] $end
$var wire 5 C# data_in_2 [4:0] $end
$var wire 1 D# select $end
$var parameter 32 E# LEN $end
$var reg 5 F# data_out [4:0] $end
$upscope $end
$scope module RCA $end
$var wire 3 G# A [2:0] $end
$var wire 3 H# B [2:0] $end
$var wire 1 6# Cin $end
$var wire 3 I# Sum [2:0] $end
$var wire 1 5# Cout $end
$var wire 4 J# Carry [3:0] $end
$var parameter 32 K# LEN $end
$scope begin genblk1[0] $end
$var parameter 2 L# i $end
$scope module FA $end
$var wire 1 M# A $end
$var wire 1 N# B $end
$var wire 1 O# Cin $end
$var wire 1 P# Cout $end
$var wire 1 Q# Sum $end
$upscope $end
$upscope $end
$scope begin genblk1[1] $end
$var parameter 2 R# i $end
$scope module FA $end
$var wire 1 S# A $end
$var wire 1 T# B $end
$var wire 1 U# Cin $end
$var wire 1 V# Cout $end
$var wire 1 W# Sum $end
$upscope $end
$upscope $end
$scope begin genblk1[2] $end
$var parameter 3 X# i $end
$scope module FA $end
$var wire 1 Y# A $end
$var wire 1 Z# B $end
$var wire 1 [# Cin $end
$var wire 1 \# Cout $end
$var wire 1 ]# Sum $end
$upscope $end
$upscope $end
$upscope $end
$upscope $end
$scope begin genblk2[24] $end
$var wire 4 ^# RCA_Output [27:24] $end
$var wire 1 _# RCA_Carry $end
$var wire 1 `# HA_Carry $end
$var wire 4 a# BU_Output [27:24] $end
$var wire 1 b# BU_Carry $end
$var parameter 6 c# i $end
$scope module BU_1 $end
$var wire 4 d# A [3:0] $end
$var wire 1 b# C0 $end
$var wire 1 e# C1 $end
$var wire 1 f# C2 $end
$var wire 1 g# C3 $end
$var wire 4 h# B [4:1] $end
$upscope $end
$scope module HA $end
$var wire 1 i# A $end
$var wire 1 j# B $end
$var wire 1 `# Cout $end
$var wire 1 k# Sum $end
$upscope $end
$scope module MUX $end
$var wire 5 l# data_in_1 [4:0] $end
$var wire 5 m# data_in_2 [4:0] $end
$var wire 1 n# select $end
$var parameter 32 o# LEN $end
$var reg 5 p# data_out [4:0] $end
$upscope $end
$scope module RCA $end
$var wire 3 q# A [2:0] $end
$var wire 3 r# B [2:0] $end
$var wire 1 `# Cin $end
$var wire 3 s# Sum [2:0] $end
$var wire 1 _# Cout $end
$var wire 4 t# Carry [3:0] $end
$var parameter 32 u# LEN $end
$scope begin genblk1[0] $end
$var parameter 2 v# i $end
$scope module FA $end
$var wire 1 w# A $end
$var wire 1 x# B $end
$var wire 1 y# Cin $end
$var wire 1 z# Cout $end
$var wire 1 {# Sum $end
$upscope $end
$upscope $end
$scope begin genblk1[1] $end
$var parameter 2 |# i $end
$scope module FA $end
$var wire 1 }# A $end
$var wire 1 ~# B $end
$var wire 1 !$ Cin $end
$var wire 1 "$ Cout $end
$var wire 1 #$ Sum $end
$upscope $end
$upscope $end
$scope begin genblk1[2] $end
$var parameter 3 $$ i $end
$scope module FA $end
$var wire 1 %$ A $end
$var wire 1 &$ B $end
$var wire 1 '$ Cin $end
$var wire 1 ($ Cout $end
$var wire 1 )$ Sum $end
$upscope $end
$upscope $end
$upscope $end
$upscope $end
$scope begin genblk2[28] $end
$var wire 4 *$ RCA_Output [31:28] $end
$var wire 1 +$ RCA_Carry $end
$var wire 1 ,$ HA_Carry $end
$var wire 4 -$ BU_Output [31:28] $end
$var wire 1 .$ BU_Carry $end
$var parameter 6 /$ i $end
$scope module BU_1 $end
$var wire 4 0$ A [3:0] $end
$var wire 1 .$ C0 $end
$var wire 1 1$ C1 $end
$var wire 1 2$ C2 $end
$var wire 1 3$ C3 $end
$var wire 4 4$ B [4:1] $end
$upscope $end
$scope module HA $end
$var wire 1 5$ A $end
$var wire 1 6$ B $end
$var wire 1 ,$ Cout $end
$var wire 1 7$ Sum $end
$upscope $end
$scope module MUX $end
$var wire 5 8$ data_in_1 [4:0] $end
$var wire 5 9$ data_in_2 [4:0] $end
$var wire 1 :$ select $end
$var parameter 32 ;$ LEN $end
$var reg 5 <$ data_out [4:0] $end
$upscope $end
$scope module RCA $end
$var wire 3 =$ A [2:0] $end
$var wire 3 >$ B [2:0] $end
$var wire 1 ,$ Cin $end
$var wire 3 ?$ Sum [2:0] $end
$var wire 1 +$ Cout $end
$var wire 4 @$ Carry [3:0] $end
$var parameter 32 A$ LEN $end
$scope begin genblk1[0] $end
$var parameter 2 B$ i $end
$scope module FA $end
$var wire 1 C$ A $end
$var wire 1 D$ B $end
$var wire 1 E$ Cin $end
$var wire 1 F$ Cout $end
$var wire 1 G$ Sum $end
$upscope $end
$upscope $end
$scope begin genblk1[1] $end
$var parameter 2 H$ i $end
$scope module FA $end
$var wire 1 I$ A $end
$var wire 1 J$ B $end
$var wire 1 K$ Cin $end
$var wire 1 L$ Cout $end
$var wire 1 M$ Sum $end
$upscope $end
$upscope $end
$scope begin genblk1[2] $end
$var parameter 3 N$ i $end
$scope module FA $end
$var wire 1 O$ A $end
$var wire 1 P$ B $end
$var wire 1 Q$ Cin $end
$var wire 1 R$ Cout $end
$var wire 1 S$ Sum $end
$upscope $end
$upscope $end
$upscope $end
$upscope $end
$scope module EC_RCA_1 $end
$var wire 4 T$ A [3:0] $end
$var wire 4 U$ B [3:0] $end
$var wire 1 > Cin $end
$var wire 4 V$ Er [3:0] $end
$var wire 4 W$ Sum [3:0] $end
$var wire 1 X$ Cout $end
$var wire 5 Y$ Carry [4:0] $end
$var parameter 32 Z$ LEN $end
$scope begin genblk1[0] $end
$var parameter 2 [$ i $end
$scope module ECFA $end
$var wire 1 \$ A $end
$var wire 1 ]$ B $end
$var wire 1 ^$ Cin $end
$var wire 1 _$ Cout $end
$var wire 1 `$ Er $end
$var wire 1 a$ Sum $end
$upscope $end
$upscope $end
$scope begin genblk1[1] $end
$var parameter 2 b$ i $end
$scope module ECFA $end
$var wire 1 c$ A $end
$var wire 1 d$ B $end
$var wire 1 e$ Cin $end
$var wire 1 f$ Cout $end
$var wire 1 g$ Er $end
$var wire 1 h$ Sum $end
$upscope $end
$upscope $end
$scope begin genblk1[2] $end
$var parameter 3 i$ i $end
$scope module ECFA $end
$var wire 1 j$ A $end
$var wire 1 k$ B $end
$var wire 1 l$ Cin $end
$var wire 1 m$ Cout $end
$var wire 1 n$ Er $end
$var wire 1 o$ Sum $end
$upscope $end
$upscope $end
$scope begin genblk1[3] $end
$var parameter 3 p$ i $end
$scope module ECFA $end
$var wire 1 q$ A $end
$var wire 1 r$ B $end
$var wire 1 s$ Cin $end
$var wire 1 t$ Cout $end
$var wire 1 u$ Er $end
$var wire 1 v$ Sum $end
$upscope $end
$upscope $end
$upscope $end
$upscope $end
$upscope $end
$upscope $end
$enddefinitions $end
$comment Show the parameter values. $end
$dumpall
b11 p$
b10 i$
b1 b$
b0 [$
b100 Z$
b10 N$
b1 H$
b0 B$
b11 A$
b101 ;$
b11100 /$
b10 $$
b1 |#
b0 v#
b11 u#
b101 o#
b11000 c#
b10 X#
b1 R#
b0 L#
b11 K#
b101 E#
b10100 9#
b10 .#
b1 (#
b0 "#
b11 !#
b101 y"
b10000 m"
b10 b"
b1 \"
b0 V"
b11 U"
b101 O"
b1100 C"
b10 8"
b1 2"
b0 ,"
b11 +"
b101 %"
b1000 w
b101 p
b10 c
b1 \
b0 U
b11 T
b100 I
b100000 C
b1000 B
$end
#0
$dumpvars
xv$
1u$
xt$
xs$
xr$
xq$
xo$
1n$
xm$
xl$
xk$
xj$
xh$
1g$
xf$
xe$
xd$
xc$
xa$
1`$
x_$
1^$
x]$
x\$
bx1 Y$
xX$
bx W$
b1111 V$
bx U$
bx T$
xS$
xR$
xQ$
xP$
xO$
xM$
xL$
xK$
xJ$
xI$
xG$
xF$
xE$
xD$
xC$
bx @$
bx ?$
bx >$
bx =$
bx <$
x:$
bx 9$
bx 8$
x7$
x6$
x5$
bx 4$
x3$
x2$
x1$
bx 0$
x.$
bx -$
x,$
x+$
bx *$
x)$
x($
x'$
x&$
x%$
x#$
x"$
x!$
x~#
x}#
x{#
xz#
xy#
xx#
xw#
bx t#
bx s#
bx r#
bx q#
bx p#
xn#
bx m#
bx l#
xk#
xj#
xi#
bx h#
xg#
xf#
xe#
bx d#
xb#
bx a#
x`#
x_#
bx ^#
x]#
x\#
x[#
xZ#
xY#
xW#
xV#
xU#
xT#
xS#
xQ#
xP#
xO#
xN#
xM#
bx J#
bx I#
bx H#
bx G#
bx F#
xD#
bx C#
bx B#
xA#
x@#
x?#
bx >#
x=#
x<#
x;#
bx :#
x8#
bx 7#
x6#
x5#
bx 4#
x3#
x2#
x1#
x0#
x/#
x-#
x,#
x+#
x*#
x)#
x'#
x&#
x%#
x$#
x##
bx ~"
bx }"
bx |"
bx {"
bx z"
xx"
bx w"
bx v"
xu"
xt"
xs"
bx r"
xq"
xp"
xo"
bx n"
xl"
bx k"
xj"
xi"
bx h"
xg"
xf"
xe"
xd"
xc"
xa"
x`"
x_"
x^"
x]"
x["
xZ"
xY"
xX"
xW"
bx T"
bx S"
bx R"
bx Q"
bx P"
xN"
bx M"
bx L"
xK"
xJ"
xI"
bx H"
xG"
xF"
xE"
bx D"
xB"
bx A"
x@"
x?"
bx >"
x="
x<"
x;"
x:"
x9"
x7"
x6"
x5"
x4"
x3"
x1"
x0"
x/"
x."
x-"
bx *"
bx )"
bx ("
bx '"
bx &"
x$"
bx #"
bx ""
x!"
x~
x}
bx |
x{
xz
xy
bx x
xv
bx u
xt
xs
bx r
bx q
xo
bx n
bx m
xl
xk
xj
xi
1h
xg
xf
xe
xd
xb
1a
x`
x_
x^
x]
x[
1Z
xY
xX
xW
xV
bx S
bx R
b111 Q
bx P
bx O
bx N
xM
xL
xK
bx J
xH
bx G
xF
bx E
xD
bxzzzxzzzxzzzxzzzxzzzxzzzxzzzxzzz A
bx @
b11111111 ?
1>
bx =
bx <
bx ;
bx :
bx 9
bx 8
bx 7
bx 6
bx 5
bx 4
x3
x2
bx 1
bx 0
bx /
bx .
bx -
x,
b110010 +
b1111111111 *
bx )
b11111111 (
b110010 '
b1111111111 &
b11111111 %
0$
x#
bx "
bx !
$end
#10
1L
1v
1B"
1l"
18#
1b#
1.$
0o
1z
0s
1F"
0?"
1p"
0i"
1<#
05#
1f#
0_#
12$
0+$
1v$
0X$
1i
0F
0<"
0f"
02#
0\#
0($
0R$
0t$
0g
1="
1g"
13#
1]#
1)$
1S$
1{
0;"
1G"
0e"
1q"
01#
1=#
0[#
1g#
0'$
13$
0Q$
1o$
0s$
1b
0f
06"
0`"
0,#
0V#
0"$
0L$
1h$
0m$
0`
17"
1a"
1-#
1W#
1#$
1M$
b1110 W$
0a$
1y
05"
1E"
0_"
1o"
0+#
1;#
0U#
1e#
0!$
11$
0K$
1e$
0l$
0_
0$"
0H
0M
b110 R
0[
0N"
00"
0x"
0Z"
0D#
0&#
0n#
0P#
0:$
0z#
02
0F$
1_$
b11 Y$
0f$
0Y
b1101 n
b1101 G
b1101 N
0K
b10000 #"
b0 u
b0 |
b111 )"
11"
b10000 M"
b0 A"
b0 H"
b111 S"
1["
b10000 w"
b0 k"
b0 r"
b111 }"
1'#
b10000 C#
b0 7#
b0 >#
b111 I#
1Q#
b10000 m#
b0 a#
b0 h#
b111 s#
1{#
b111111111111111111111111111001110 .
b11111111111111111111111111001110 0
b11111111111111111111111111001110 @
b0zzz0zzz0zzz0zzz0zzz0zzz0zzz0zzz A
b10000 9$
b0 -$
b0 4$
b111 ?$
1G$
b1100 q
0X
b1111 &"
0/"
b1111 P"
0Y"
b1111 z"
0%#
b1111 F#
0O#
b1111 p#
0y#
b1111 <$
0E$
0V
0]
0d
0-"
03"
09"
0W"
0]"
0c"
0##
0)#
0/#
0M#
0S#
0Y#
0w#
0}#
0%$
0C$
0I$
0O$
b1100 m
b1100 E
b1100 J
0l
b0 S
0D
0W
1^
1e
b1111 ""
b1111 r
b1111 x
1!"
b0 *"
0t
1."
14"
1:"
b1111 L"
b1111 >"
b1111 D"
1K"
b0 T"
0@"
1X"
1^"
1d"
b1111 v"
b1111 h"
b1111 n"
1u"
b0 ~"
0j"
1$#
1*#
10#
b1111 B#
b1111 4#
b1111 :#
1A#
b0 J#
06#
1N#
1T#
1Z#
b1111 l#
b1111 ^#
b1111 d#
1k#
b0 t#
0`#
1x#
1~#
1&$
b1111 8$
b1111 *$
b1111 0$
17$
b0 @$
0,$
1D$
1J$
1P$
1]$
0d$
1k$
1r$
0\$
0c$
0j$
0q$
0j
b0 O
0}
b0 '"
0I"
b0 Q"
0s"
b0 {"
0?#
b0 G#
0i#
b0 q#
05$
b0 =$
0k
b110 P
1~
b111 ("
1J"
b111 R"
1t"
b111 |"
1@#
b111 H#
1j#
b111 r#
16$
b111 >$
b1101 U$
b0 T$
0,
b111111111111111111111111111001110 1
b111111111111111111111111111001110 /
b11111111111111111111111111001101 =
b0 <
1#
13
b0 -
b0 ;
b110010 5
b1111111111 )
b1111111111 :
b11111 4
1$
#20
0$
#30
b11110 4
b11111111110 )
b11111111110 :
1$
#40
0$
#50
b11101 4
b111111111100 )
b111111111100 :
1$
#60
0$
#70
b11100 4
b1111111111000 )
b1111111111000 :
1$
#80
0$
#90
b11011 4
b11111111110000 )
b11111111110000 :
1$
#100
0$
#110
b11010 4
b111111111100000 )
b111111111100000 :
1$
#120
0$
#130
b11001 4
b1111111111000000 )
b1111111111000000 :
1$
#140
0$
#150
b11000 4
b11111111110000000 )
b11111111110000000 :
1$
#160
0$
#170
b10111 4
b111111111100000000 )
b111111111100000000 :
1$
#180
0$
#190
b10110 4
b1111111111000000000 )
b1111111111000000000 :
1$
#200
0$
#210
b10101 4
b11111111110000000000 )
b11111111110000000000 :
1$
#220
0$
#230
b10100 4
b111111111100000000000 )
b111111111100000000000 :
1$
#240
0$
#250
b10011 4
b1111111111000000000000 )
b1111111111000000000000 :
1$
#260
0$
#270
b10010 4
b11111111110000000000000 )
b11111111110000000000000 :
1$
#280
0$
#290
b10001 4
b111111111100000000000000 )
b111111111100000000000000 :
1$
#300
0$
#310
b10000 4
b1111111111000000000000000 )
b1111111111000000000000000 :
1$
#320
0$
#330
b1111 4
b11111111110000000000000000 )
b11111111110000000000000000 :
1$
#340
0$
#350
b1110 4
b111111111100000000000000000 )
b111111111100000000000000000 :
1$
#360
0$
#370
b1101 4
b1111111111000000000000000000 )
b1111111111000000000000000000 :
1$
#380
0$
#390
b1100 4
b11111111110000000000000000000 )
b11111111110000000000000000000 :
1$
#400
0$
#410
b1011 4
b111111111100000000000000000000 )
b111111111100000000000000000000 :
1$
#420
0$
#430
b1010 4
b1111111111000000000000000000000 )
b1111111111000000000000000000000 :
1$
#440
0$
#450
b111111111111111111111111111001111 .
b11111111111111111111111111001111 0
b11111111111111111111111111001111 @
b1111 W$
1a$
1\$
b1 T$
b111111111111111111111111111001111 1
b111111111111111111111111111001111 /
b1 <
b1001 4
b11111111110000000000000000000000 )
b11111111110000000000000000000000 :
1$
#460
0$
#470
b1101 q
1o
0v$
b0zzz0zzz0zzz0zzz0zzz0zzz0zzz1zzz A
1X$
1t$
0o$
1s$
b111111111111111111111111111010001 .
b11111111111111111111111111010001 0
b11111111111111111111111111010001 @
b1 W$
0h$
1m$
1l$
b11111 Y$
1f$
1c$
b11 T$
b111111111111111111111111111010001 1
b111111111111111111111111111010001 /
b11 <
b1000 4
b11111111100000000000000000000000 )
b11111111100000000000000000000000 :
b1 -
b1 ;
1$
#480
0$
#490
b111111111111111111111111111010101 .
b11111111111111111111111111010101 0
b11111111111111111111111111010101 @
b101 W$
1o$
1j$
b111 T$
b111111111111111111111111111010101 1
b111111111111111111111111111010101 /
b111 <
b111 4
b11111111000000000000000000000000 )
b11111111000000000000000000000000 :
b11 -
b11 ;
1$
#500
0$
#510
b111111111111111111111111111011101 .
b11111111111111111111111111011101 0
b11111111111111111111111111011101 @
b1101 W$
1v$
1q$
b1111 T$
b111111111111111111111111111011101 1
b111111111111111111111111111011101 /
b1111 <
b110 4
b11111110000000000000000000000000 )
b11111110000000000000000000000000 :
b111 -
b111 ;
1$
#520
0$
#530
b111111111111111111111111111101101 .
b11111111111111111111111111101101 0
b11111111111111111111111111101101 @
b1110 q
b1110 n
b1110 G
b1110 N
b1101 m
b1101 E
b1101 J
1l
1j
b111111111111111111111111111101101 1
b111111111111111111111111111101101 /
b11111 <
b101 4
b11111100000000000000000000000000 )
b11111100000000000000000000000000 :
b1111 -
b1111 ;
1$
#540
0$
#550
12
b10000 <$
1:$
b10000 p#
1n#
b10000 F#
1D#
b10000 z"
1x"
b10000 P"
1N"
b10000 &"
1$"
b1zzz1zzz1zzz1zzz1zzz1zzz1zzz1zzz A
b1101 .
b1101 0
b1101 @
b10000 q
1H
1M
b10000 n
b0 G
b0 N
1K
b1111 m
b1111 E
b1111 J
b111 R
1[
1V
b1 O
b1101 1
b1101 /
b111111 <
b100 4
b11111000000000000000000000000000 )
b11111000000000000000000000000000 :
b11111 -
b11111 ;
1$
#560
0$
#570
02
b1111 <$
0:$
b1111 p#
0n#
b1111 F#
0D#
b1111 z"
0x"
b1111 P"
0N"
b1111 &"
0$"
b0zzz0zzz0zzz0zzz0zzz0zzz0zzz1zzz A
b1110 q
0H
0M
b1110 n
b1110 G
b1110 N
0K
b111111111111111111111111111101001 .
b11111111111111111111111111101001 0
b11111111111111111111111111101001 @
b1001 W$
0o$
b1101 m
b1101 E
b1101 J
b110 R
0[
0V
0j$
b0 O
b1011 T$
b111111111111111111111111111101001 1
b111111111111111111111111111101001 /
b11011 <
b11 4
b11110000000000000000000000000001 )
b11110000000000000000000000000001 :
b1101 -
b1101 ;
1$
#580
0$
#590
12
b10000 <$
1:$
b10000 p#
1n#
b10000 F#
1D#
b10000 z"
1x"
b10000 P"
1N"
b10000 &"
1$"
b1zzz1zzz1zzz1zzz1zzz1zzz1zzz1zzz A
b10000 q
1H
1M
b10000 n
b0 G
b0 N
1K
1o$
b101 .
b101 0
b101 @
b101 W$
0v$
b1111 m
b1111 E
b1111 J
b111 R
1[
1V
1j$
0q$
b1 O
b111 T$
b101 1
b101 /
b110111 <
b10 4
b11100000000000000000000000000010 )
b11100000000000000000000000000010 :
b11011 -
b11011 ;
1$
#600
0$
#610
02
b1111 <$
0:$
b1111 p#
0n#
b1111 F#
0D#
b1111 z"
0x"
b1111 P"
0N"
b1111 &"
0$"
b0zzz0zzz0zzz0zzz0zzz0zzz0zzz1zzz A
0o$
b1001 W$
1v$
b111111111111111111111111111011001 .
b11111111111111111111111111011001 0
b11111111111111111111111111011001 @
b1101 q
0H
0M
b110 R
0[
b1101 n
b1101 G
b1101 N
0K
b1100 m
b1100 E
b1100 J
0l
0V
0j$
1q$
0j
b0 O
b1011 T$
b111111111111111111111111111011001 1
b111111111111111111111111111011001 /
b1011 <
b1 4
b11000000000000000000000000000101 )
b11000000000000000000000000000101 :
b101 -
b101 ;
1$
#620
0$
#630
1o$
b101 W$
0v$
b111111111111111111111111111100101 .
b11111111111111111111111111100101 0
b11111111111111111111111111100101 @
b1110 q
b1110 n
b1110 G
b1110 N
b1101 m
b1101 E
b1101 J
1l
1j$
0q$
1j
b111 T$
b111111111111111111111111111100101 1
b111111111111111111111111111100101 /
b10111 <
b0 4
b10000000000000000000000000001010 )
b10000000000000000000000000001010 :
b1011 -
b1011 ;
1$
#640
0$
#650
0a$
b1100 W$
1v$
b111111111111111111111111111111100 .
b11111111111111111111111111111100 0
b11111111111111111111111111111100 @
b1111 q
b111 R
1[
b1111 n
b1111 G
b1111 N
b10111 !
b10111 9
b10100 "
b10100 6
b1110 m
b1110 E
b1110 J
0l
1V
0\$
1q$
b10111 8
b10100 7
0j
b1 O
b1110 T$
1,
b111111111111111111111111111111100 1
b111111111111111111111111111111100 /
b101110 <
b11111 4
0#
03
b10100 )
b10100 :
b10111 -
b10111 ;
1$
#660
0$
