Modules/Testbenches/Approximate_Accuracy_Controlable_Multiplier.vcd
$date
	Mon Oct 09 14:39:42 2023
$end
$version
	Icarus Verilog
$end
$timescale
	1s
$end
$scope module Approximate_Accuracy_Controlable_Multiplier_TB $end
$var wire 16 ! Product [15:0] $end
$var parameter 32 " len $end
$var reg 1 # CLK $end
$var reg 7 $ Er [6:0] $end
$var reg 8 % Multiplicand [7:0] $end
$var reg 8 & Multiplier [7:0] $end
$var integer 32 ' i [31:0] $end
$var integer 32 ( n [31:0] $end
$scope module uut $end
$var wire 1 # CLK $end
$var wire 7 ) Er [6:0] $end
$var wire 8 * Operand_1 [7:0] $end
$var wire 8 + Operand_2 [7:0] $end
$var wire 15 , V2_Stage_1 [14:0] $end
$var wire 15 - V1_Stage_1 [14:0] $end
$var wire 15 . SumSignal_Stage_2 [14:0] $end
$var wire 16 / Result [15:0] $end
$var wire 11 0 P6_Stage_1 [10:0] $end
$var wire 11 1 P5_Stage_1 [10:0] $end
$var wire 15 2 CarrySignal_Stage_2 [14:0] $end
$var reg 15 3 CarrySignal_Stage_3 [14:0] $end
$var reg 11 4 P5_Stage_2 [10:0] $end
$var reg 11 5 P6_Stage_2 [10:0] $end
$var reg 15 6 SumSignal_Stage_3 [14:0] $end
$var reg 15 7 V1_Stage_2 [14:0] $end
$var reg 15 8 V2_Stage_2 [14:0] $end
$scope module MS1 $end
$var wire 8 9 Operand_1 [7:0] $end
$var wire 8 : Operand_2 [7:0] $end
$var wire 15 ; V2 [14:0] $end
$var wire 15 < V1 [14:0] $end
$var wire 11 = P6 [10:0] $end
$var wire 11 > P5 [10:0] $end
$var wire 9 ? P4 [8:0] $end
$var wire 9 @ P3 [8:0] $end
$var wire 9 A P2 [8:0] $end
$var wire 9 B P1 [8:0] $end
$scope begin genblk1[1] $end
$var parameter 2 C i $end
$upscope $end
$scope begin genblk1[2] $end
$var parameter 3 D i $end
$upscope $end
$scope begin genblk1[3] $end
$var parameter 3 E i $end
$upscope $end
$scope begin genblk1[4] $end
$var parameter 4 F i $end
$upscope $end
$scope begin genblk1[5] $end
$var parameter 4 G i $end
$upscope $end
$scope begin genblk1[6] $end
$var parameter 4 H i $end
$upscope $end
$scope begin genblk1[7] $end
$var parameter 4 I i $end
$upscope $end
$scope begin genblk1[8] $end
$var parameter 5 J i $end
$upscope $end
$scope module atc_4 $end
$var wire 15 K V2 [14:0] $end
$var wire 11 L Q6 [10:0] $end
$var wire 11 M Q5 [10:0] $end
$var wire 11 N P6 [10:0] $end
$var wire 11 O P5 [10:0] $end
$var wire 9 P P4 [8:0] $end
$var wire 9 Q P3 [8:0] $end
$var wire 9 R P2 [8:0] $end
$var wire 9 S P1 [8:0] $end
$scope module iCAC_5 $end
$var wire 11 T Q [10:0] $end
$var wire 11 U P [10:0] $end
$var wire 11 V D2_Shifted [10:0] $end
$var wire 9 W D2 [8:0] $end
$var wire 9 X D1 [8:0] $end
$var parameter 32 Y SHIFT_BITS $end
$var parameter 32 Z WIDTH $end
$upscope $end
$scope module iCAC_6 $end
$var wire 11 [ Q [10:0] $end
$var wire 11 \ P [10:0] $end
$var wire 11 ] D2_Shifted [10:0] $end
$var wire 9 ^ D2 [8:0] $end
$var wire 9 _ D1 [8:0] $end
$var parameter 32 ` SHIFT_BITS $end
$var parameter 32 a WIDTH $end
$upscope $end
$upscope $end
$scope module atc_8 $end
$var wire 15 b V1 [14:0] $end
$var wire 9 c Q4 [8:0] $end
$var wire 9 d Q3 [8:0] $end
$var wire 9 e Q2 [8:0] $end
$var wire 9 f Q1 [8:0] $end
$var wire 8 g PP_8 [7:0] $end
$var wire 8 h PP_7 [7:0] $end
$var wire 8 i PP_6 [7:0] $end
$var wire 8 j PP_5 [7:0] $end
$var wire 8 k PP_4 [7:0] $end
$var wire 8 l PP_3 [7:0] $end
$var wire 8 m PP_2 [7:0] $end
$var wire 8 n PP_1 [7:0] $end
$var wire 9 o P4 [8:0] $end
$var wire 9 p P3 [8:0] $end
$var wire 9 q P2 [8:0] $end
$var wire 9 r P1 [8:0] $end
$scope module iCAC_1 $end
$var wire 9 s Q [8:0] $end
$var wire 9 t P [8:0] $end
$var wire 9 u D2_Shifted [8:0] $end
$var wire 8 v D2 [7:0] $end
$var wire 8 w D1 [7:0] $end
$var parameter 32 x SHIFT_BITS $end
$var parameter 32 y WIDTH $end
$upscope $end
$scope module iCAC_2 $end
$var wire 9 z Q [8:0] $end
$var wire 9 { P [8:0] $end
$var wire 9 | D2_Shifted [8:0] $end
$var wire 8 } D2 [7:0] $end
$var wire 8 ~ D1 [7:0] $end
$var parameter 32 !" SHIFT_BITS $end
$var parameter 32 "" WIDTH $end
$upscope $end
$scope module iCAC_3 $end
$var wire 9 #" Q [8:0] $end
$var wire 9 $" P [8:0] $end
$var wire 9 %" D2_Shifted [8:0] $end
$var wire 8 &" D2 [7:0] $end
$var wire 8 '" D1 [7:0] $end
$var parameter 32 (" SHIFT_BITS $end
$var parameter 32 )" WIDTH $end
$upscope $end
$scope module iCAC_4 $end
$var wire 9 *" Q [8:0] $end
$var wire 9 +" P [8:0] $end
$var wire 9 ," D2_Shifted [8:0] $end
$var wire 8 -" D2 [7:0] $end
$var wire 8 ." D1 [7:0] $end
$var parameter 32 /" SHIFT_BITS $end
$var parameter 32 0" WIDTH $end
$upscope $end
$upscope $end
$upscope $end
$scope module MS2 $end
$var wire 7 1" ORed_PPs [10:4] $end
$var wire 11 2" P5 [10:0] $end
$var wire 11 3" P6 [10:0] $end
$var wire 15 4" V1 [14:0] $end
$var wire 15 5" V2 [14:0] $end
$var wire 15 6" SumSignal [14:0] $end
$var wire 15 7" Q7 [14:0] $end
$var wire 15 8" P7 [14:0] $end
$var wire 15 9" CarrySignal [14:0] $end
$scope module FA_1 $end
$var wire 1 :" A $end
$var wire 1 ;" B $end
$var wire 1 <" Cin $end
$var wire 1 =" Cout $end
$var wire 1 >" Sum $end
$upscope $end
$scope module FA_10 $end
$var wire 1 ?" A $end
$var wire 1 @" B $end
$var wire 1 A" Cin $end
$var wire 1 B" Cout $end
$var wire 1 C" Sum $end
$upscope $end
$scope module FA_11 $end
$var wire 1 D" A $end
$var wire 1 E" B $end
$var wire 1 F" Cin $end
$var wire 1 G" Cout $end
$var wire 1 H" Sum $end
$upscope $end
$scope module FA_2 $end
$var wire 1 I" A $end
$var wire 1 J" B $end
$var wire 1 K" Cin $end
$var wire 1 L" Cout $end
$var wire 1 M" Sum $end
$upscope $end
$scope module FA_3 $end
$var wire 1 N" A $end
$var wire 1 O" B $end
$var wire 1 P" Cin $end
$var wire 1 Q" Cout $end
$var wire 1 R" Sum $end
$upscope $end
$scope module FA_4 $end
$var wire 1 S" A $end
$var wire 1 T" B $end
$var wire 1 U" Cin $end
$var wire 1 V" Cout $end
$var wire 1 W" Sum $end
$upscope $end
$scope module FA_5 $end
$var wire 1 X" A $end
$var wire 1 Y" B $end
$var wire 1 Z" Cin $end
$var wire 1 [" Cout $end
$var wire 1 \" Sum $end
$upscope $end
$scope module FA_6 $end
$var wire 1 ]" A $end
$var wire 1 ^" B $end
$var wire 1 _" Cin $end
$var wire 1 `" Cout $end
$var wire 1 a" Sum $end
$upscope $end
$scope module FA_7 $end
$var wire 1 b" A $end
$var wire 1 c" B $end
$var wire 1 d" Cin $end
$var wire 1 e" Cout $end
$var wire 1 f" Sum $end
$upscope $end
$scope module FA_8 $end
$var wire 1 g" A $end
$var wire 1 h" B $end
$var wire 1 i" Cin $end
$var wire 1 j" Cout $end
$var wire 1 k" Sum $end
$upscope $end
$scope module FA_9 $end
$var wire 1 l" A $end
$var wire 1 m" B $end
$var wire 1 n" Cin $end
$var wire 1 o" Cout $end
$var wire 1 p" Sum $end
$upscope $end
$scope module HA_1 $end
$var wire 1 q" A $end
$var wire 1 r" B $end
$var wire 1 s" Cout $end
$var wire 1 t" Sum $end
$upscope $end
$scope module HA_2 $end
$var wire 1 u" A $end
$var wire 1 v" B $end
$var wire 1 w" Cout $end
$var wire 1 x" Sum $end
$upscope $end
$scope module iCAC_7 $end
$var wire 11 y" D1 [10:0] $end
$var wire 11 z" D2 [10:0] $end
$var wire 15 {" Q [14:0] $end
$var wire 15 |" P [14:0] $end
$var wire 15 }" D2_Shifted [14:0] $end
$var parameter 32 ~" SHIFT_BITS $end
$var parameter 32 !# WIDTH $end
$upscope $end
$upscope $end
$scope module MS3 $end
$var wire 15 "# CarrySignal [14:0] $end
$var wire 7 ## Er [6:0] $end
$var wire 15 $# SumSignal [14:0] $end
$var wire 9 %# inter_Carry [13:5] $end
$var wire 16 &# Result [15:0] $end
$scope module ECA_FA_1 $end
$var wire 1 '# A $end
$var wire 1 (# B $end
$var wire 1 )# Cin $end
$var wire 1 *# Cout $end
$var wire 1 +# Er $end
$var wire 1 ,# Sum $end
$upscope $end
$scope module ECA_FA_2 $end
$var wire 1 -# A $end
$var wire 1 .# B $end
$var wire 1 /# Cin $end
$var wire 1 0# Cout $end
$var wire 1 1# Er $end
$var wire 1 2# Sum $end
$upscope $end
$scope module ECA_FA_3 $end
$var wire 1 3# A $end
$var wire 1 4# B $end
$var wire 1 5# Cin $end
$var wire 1 6# Cout $end
$var wire 1 7# Er $end
$var wire 1 8# Sum $end
$upscope $end
$scope module ECA_FA_4 $end
$var wire 1 9# A $end
$var wire 1 :# B $end
$var wire 1 ;# Cin $end
$var wire 1 <# Cout $end
$var wire 1 =# Er $end
$var wire 1 ># Sum $end
$upscope $end
$scope module ECA_FA_5 $end
$var wire 1 ?# A $end
$var wire 1 @# B $end
$var wire 1 A# Cin $end
$var wire 1 B# Cout $end
$var wire 1 C# Er $end
$var wire 1 D# Sum $end
$upscope $end
$scope module ECA_FA_6 $end
$var wire 1 E# A $end
$var wire 1 F# B $end
$var wire 1 G# Cin $end
$var wire 1 H# Cout $end
$var wire 1 I# Er $end
$var wire 1 J# Sum $end
$upscope $end
$scope module ECA_FA_7 $end
$var wire 1 K# A $end
$var wire 1 L# B $end
$var wire 1 M# Cin $end
$var wire 1 N# Cout $end
$var wire 1 O# Er $end
$var wire 1 P# Sum $end
$upscope $end
$scope module FA_12 $end
$var wire 1 Q# A $end
$var wire 1 R# B $end
$var wire 1 S# Cin $end
$var wire 1 T# Cout $end
$var wire 1 U# Sum $end
$upscope $end
$scope module FA_13 $end
$var wire 1 V# A $end
$var wire 1 W# B $end
$var wire 1 X# Cin $end
$var wire 1 Y# Cout $end
$var wire 1 Z# Sum $end
$upscope $end
$scope module FA_14 $end
$var wire 1 [# A $end
$var wire 1 \# B $end
$var wire 1 ]# Cin $end
$var wire 1 ^# Cout $end
$var wire 1 _# Sum $end
$upscope $end
$upscope $end
$upscope $end
$upscope $end
$enddefinitions $end
$comment Show the parameter values. $end
$dumpall
b1011 !#
b100 ~"
b1000 0"
b1 /"
b1000 )"
b1 ("
b1000 ""
b1 !"
b1000 y
b1 x
b1001 a
b10 `
b1001 Z
b10 Y
b1000 J
b111 I
b110 H
b101 G
b100 F
b11 E
b10 D
b1 C
b1000 "
$end
#0
$dumpvars
x_#
x^#
x]#
x\#
x[#
xZ#
xY#
xX#
xW#
xV#
xU#
xT#
xS#
xR#
xQ#
xP#
1O#
xN#
xM#
xL#
xK#
xJ#
1I#
xH#
xG#
xF#
xE#
xD#
1C#
xB#
xA#
x@#
x?#
x>#
1=#
x<#
x;#
x:#
x9#
x8#
17#
x6#
x5#
x4#
x3#
x2#
11#
x0#
x/#
x.#
x-#
x,#
1+#
x*#
0)#
x(#
x'#
bx &#
bx %#
bx $#
b1111111 ##
bx "#
bx0000 }"
bx |"
b0xxxxxxx0000 {"
bx z"
bx y"
xx"
xw"
xv"
xu"
xt"
xs"
xr"
xq"
xp"
xo"
xn"
xm"
xl"
xk"
xj"
xi"
xh"
xg"
xf"
xe"
xd"
xc"
xb"
xa"
x`"
x_"
x^"
x]"
x\"
x["
xZ"
xY"
xX"
xW"
xV"
xU"
xT"
xS"
xR"
xQ"
xP"
xO"
xN"
xM"
xL"
xK"
xJ"
xI"
xH"
xG"
xF"
xE"
xD"
xC"
xB"
xA"
x@"
x?"
x>"
x="
x<"
x;"
x:"
bx00 9"
bx 8"
b0xxxxxxx0000 7"
bx 6"
bx 5"
bx 4"
bx 3"
bx 2"
bx 1"
b0 ."
b100100 -"
b1001000 ,"
b1001000 +"
b0 *"
b0 '"
b0 &"
b0 %"
b0 $"
b0 #"
b0 ~
b0 }
b0 |
b0 {
b0 z
b100100 w
b0 v
b0 u
b100100 t
b0 s
b100100 r
b0 q
b0 p
b1001000 o
b100100 n
b0 m
b0 l
b0 k
b0 j
b0 i
b0 h
b100100 g
b0 f
b0 e
b0 d
b0 c
b0 b
b0 _
b1001000 ^
b100100000 ]
b100100000 \
b0 [
b100100 X
b0 W
b0 V
b100100 U
b0 T
b100100 S
b0 R
b0 Q
b1001000 P
b100100 O
b100100000 N
b0 M
b0 L
b0 K
b100100 B
b0 A
b0 @
b1001000 ?
b100100 >
b100100000 =
b0 <
b0 ;
b10000001 :
b100100 9
bx 8
bx 7
bx 6
bx 5
bx 4
bx 3
bx00 2
b100100 1
b100100000 0
bx /
bx .
b0 -
b0 ,
b10000001 +
b100100 *
b1111111 )
b10100 (
b0 '
b10000001 &
b100100 %
b1111111 $
0#
bx !
$end
#10
0V"
0p"
1k"
0f"
0a"
0\"
0R"
1W"
0o"
0j"
0e"
0`"
0["
0Q"
1H"
0C"
0="
0L"
0B"
0G"
0x"
0l"
1g"
0b"
0]"
0X"
0N"
0T"
0P"
0U"
0Z"
0_"
0d"
0i"
0n"
0u"
1D"
0?"
1S"
0m"
0h"
0c"
0^"
0Y"
0O"
1>"
0M"
b0 1"
b10010001001000 2
b10010001001000 9"
0t"
0s"
0w"
0I"
1:"
0q"
b0 .
b0 6"
b0 7"
b0 {"
0<"
0K"
0A"
0F"
0r"
0;"
0J"
0@"
0E"
0v"
b1001000000000 }"
b1001000100100 8"
b1001000100100 |"
b0 8
b0 5"
b0 7
b0 4"
b100100000 5
b100100000 3"
b100100000 z"
b100100 4
b100100 2"
b100100 y"
bx00 3
bx00 "#
1#
#20
0#
#30
0P#
1_#
1]#
0Y#
08#
1J#
0M#
1Z#
0>#
0D#
0H#
0X#
12#
05#
0U#
00#
0;#
0A#
0G#
0S#
06#
0<#
0B#
0N#
0,#
0/#
0T#
0^#
b100000000 %#
0*#
0(#
1.#
04#
0:#
0@#
1F#
0L#
0R#
1W#
0\#
b1000010001001000 !
b1000010001001000 /
b1000010001001000 &#
0'#
0-#
03#
09#
0?#
0E#
0K#
0Q#
0V#
0[#
b10010001001000 3
b10010001001000 "#
b0 6
b0 $#
1#
#40
0#
#50
1#
#60
0#
#70
1#
#80
0#
#90
1#
#100
b110110 0
b110110 =
b110110 N
b110110 \
b10010 @
b10010 Q
b10010 _
b10010 p
b10010 $"
b100100 ]
b10010 u
b10010 %"
b1001 ?
b1001 P
b1001 ^
b1001 o
b1001 +"
b11011 1
b11011 >
b11011 O
b11011 U
b1001 m
b1001 v
b1001 i
b1001 &"
b1001 h
b1001 ."
b11011 B
b11011 S
b11011 X
b11011 r
b11011 t
b0 ,"
b1001 n
b1001 w
b0 g
b0 -"
0#
b1100011 &
b1100011 +
b1100011 :
b1001 %
b1001 *
b1001 9
b1 '
#110
1f"
1\"
0H"
1W"
1R"
1b"
1X"
1M"
0>"
0D"
b11011110100 2
b11011110100 9"
1t"
1S"
1N"
1I"
0:"
1q"
b1 .
b1 6"
b1101100000 }"
b1101111011 8"
b1101111011 |"
b110110 5
b110110 3"
b110110 z"
b11011 4
b11011 2"
b11011 y"
1#
#120
0#
#130
0_#
1,#
18#
1D#
0]#
b0 %#
0Z#
1(#
14#
1@#
0W#
b11011110101 !
b11011110101 /
b11011110101 &#
b11011110100 3
b11011110100 "#
b1 6
b1 $#
1#
#140
0#
#150
1#
#160
0#
#170
1#
#180
0#
#190
1#
#200
b1100 ,
b1100 ;
b1100 K
b1100 M
b1100 T
b100000 -
b100000 <
b100000 b
b1101000 0
b1101000 =
b1101000 N
b1101000 \
b0 L
b0 [
b1111101 1
b1111101 >
b1111101 O
b1111101 U
b1000 e
b1000 z
b1111100 V
b0 @
b0 Q
b0 _
b0 p
b0 $"
b1101000 ]
b11111 A
b11111 R
b11111 W
b11111 q
b11111 {
b11010 |
b11010 ,"
b0 f
b0 s
b1101 B
b1101 S
b1101 X
b1101 r
b1101 t
b11010 ?
b11010 P
b11010 ^
b11010 o
b11010 +"
b1101 l
b1101 ~
b1101 k
b1101 }
b1101 g
b1101 -"
b0 u
b0 %"
b1101 n
b1101 w
b0 m
b0 v
b0 i
b0 &"
b0 h
b0 ."
0#
b10001101 &
b10001101 +
b10001101 :
b1101 %
b1101 *
b1101 9
b10 '
#210
1p"
0f"
1a"
0W"
0["
1\"
1V"
1="
b101101 .
b101101 6"
1L"
1l"
0b"
1]"
1U"
0t"
0Y"
0T"
0>"
b110110100000 2
b110110100000 9"
0M"
b10 1"
1:"
0q"
b0 7"
b0 {"
1<"
1K"
b11010000000 }"
b11011111101 8"
b11011111101 |"
b1100 8
b1100 5"
b100000 7
b100000 4"
b1101000 5
b1101000 3"
b1101000 z"
b1111101 4
b1111101 2"
b1111101 y"
1#
#220
0#
#230
12#
1>#
0D#
1P#
0,#
1/#
b1 %#
1*#
b110111001101 !
b110111001101 /
b110111001101 &#
0.#
1:#
0@#
1L#
1'#
b110110100000 3
b110110100000 "#
b101101 6
b101101 $#
1#
#240
0#
#250
1#
#260
0#
#270
1#
#280
0#
#290
1#
#300
b0 -
b0 <
b0 b
b0 L
b0 [
b0 ,
b0 ;
b0 K
b0 M
b0 T
b0 ]
b11001010 1
b11001010 >
b11001010 O
b11001010 U
b1100101 0
b1100101 =
b1100101 N
b1100101 \
b0 V
b0 ?
b0 P
b0 ^
b0 o
b0 +"
b11001010 u
b1100101 @
b1100101 Q
b1100101 _
b1100101 p
b1100101 $"
b11001010 B
b11001010 S
b11001010 X
b11001010 r
b11001010 t
b0 e
b0 z
b0 A
b0 R
b0 W
b0 q
b0 {
b1100101 m
b1100101 v
b1100101 j
b1100101 '"
b0 |
b0 ,"
b0 n
b0 w
b0 l
b0 ~
b0 k
b0 }
b0 g
b0 -"
0#
b10010 &
b10010 +
b10010 :
b1100101 %
b1100101 *
b1100101 9
b11 '
#310
1["
0\"
0V"
0`"
1R"
1a"
0="
0L"
1Y"
0U"
1t"
0S"
1N"
0^"
0>"
b110100110100 2
b110100110100 9"
1M"
b0 1"
0:"
1q"
b1000000 .
b1000000 6"
b1000000 7"
b1000000 {"
0<"
0K"
b11001010000 }"
b11011011010 8"
b11011011010 |"
b0 8
b0 5"
b0 7
b0 4"
b1100101 5
b1100101 3"
b1100101 z"
b11001010 4
b11001010 2"
b11001010 y"
1#
#320
0#
#330
12#
08#
1,#
0/#
05#
0*#
b0 %#
00#
04#
b110101110100 !
b110101110100 /
b110101110100 &#
0'#
1-#
b110100110100 3
b110100110100 "#
b1000000 6
b1000000 $#
1#
#340
0#
#350
1#
#360
0#
#370
1#
#380
0#
#390
1#
#400
b1101 1
b1101 >
b1101 O
b1101 U
b1100 V
b0 0
b0 =
b0 N
b0 \
b1 B
b1 S
b1 X
b1 r
b1 t
b11 A
b11 R
b11 W
b11 q
b11 {
b10 |
b0 @
b0 Q
b0 _
b0 p
b0 $"
b1 n
b1 w
b1 l
b1 ~
b1 k
b1 }
b0 u
b0 m
b0 v
b0 j
b0 '"
0#
b1101 &
b1101 +
b1101 :
b1 %
b1 *
b1 9
b100 '
#410
0p"
0k"
0R"
0["
0a"
0\"
0l"
0g"
0X"
0N"
1>"
b11000 2
b11000 9"
0t"
0]"
0Y"
1:"
0q"
b1 .
b1 6"
b0 7"
b0 {"
b0 }"
b1101 8"
b1101 |"
b0 5
b0 3"
b0 z"
b1101 4
b1101 2"
b1101 y"
1#
#420
0#
#430
0,#
0>#
0J#
0P#
02#
0(#
0:#
0F#
0L#
b11001 !
b11001 /
b11001 &#
0-#
b11000 3
b11000 "#
b1 6
b1 $#
1#
#440
0#
#450
1#
#460
0#
#470
1#
#480
0#
#490
1#
#500
b11111010000 -
b11111010000 <
b11111010000 b
b1110000 ,
b1110000 ;
b1110000 K
b1110000 M
b1110000 T
b11111110 0
b11111110 =
b11111110 N
b11111110 \
b1100100 d
b1100100 #"
b11111110 @
b11111110 Q
b11111110 _
b11111110 p
b11111110 $"
b11101100 %"
b1111111110 1
b1111111110 >
b1111111110 O
b1111111110 U
b1100100 e
b1100100 z
b1111111000 V
b1110110 j
b1110110 '"
b1110110 i
b1110110 &"
b1110110 B
b1110110 S
b1110110 X
b1110110 r
b1110110 t
b11111110 A
b11111110 R
b11111110 W
b11111110 q
b11111110 {
b11101100 |
b1110110 n
b1110110 w
b1110110 l
b1110110 ~
b1110110 k
b1110110 }
0#
b111101 &
b111101 +
b111101 :
b1110110 %
b1110110 *
b1110110 9
b101 '
#510
1o"
1k"
1f"
1a"
1\"
1W"
1Q"
1V"
1["
1`"
1e"
1j"
1C"
0p"
1l"
1h"
1c"
1^"
1Y"
1T"
1P"
1U"
1Z"
1_"
1d"
1i"
1n"
1?"
b1111100000 7"
b1111100000 {"
b1011111011100 2
b1011111011100 9"
1t"
1g"
1b"
1]"
1X"
1S"
1N"
b1111111 1"
1q"
b11111110000 .
b11111110000 6"
b111111100000 }"
b111111111110 8"
b111111111110 |"
b1110000 8
b1110000 5"
b11111010000 7
b11111010000 4"
b11111110 5
b11111110 3"
b11111110 z"
b1111111110 4
b1111111110 2"
b1111111110 y"
1#
#520
0#
#530
18#
1>#
1D#
1J#
1P#
1_#
1]#
15#
1;#
1A#
1G#
1M#
1Z#
10#
16#
1<#
1B#
1H#
1X#
1,#
b110111110 %#
1U#
1.#
14#
1:#
1@#
1F#
1R#
b1000111110111100 !
b1000111110111100 /
b1000111110111100 &#
1'#
1-#
13#
19#
1?#
1E#
b1011111011100 3
b1011111011100 "#
b11111110000 6
b11111110000 $#
1#
#540
0#
#550
1#
#560
0#
#570
1#
#580
0#
#590
1#
#600
b0 ,
b0 ;
b0 K
b1100100000 -
b1100100000 <
b1100100000 b
b11101101000 ]
b0 M
b0 T
b111011010 ?
b111011010 P
b111011010 ^
b111011010 o
b111011010 +"
b111011010 ,"
b11111111100 1
b11111111100 >
b11111111100 O
b11111111100 U
b11001000 e
b11001000 z
b11111111100 V
b0 d
b0 #"
b11101101000 0
b11101101000 =
b11101101000 N
b11101101000 \
b11101101 g
b11101101 -"
b0 B
b0 S
b0 X
b0 r
b0 t
b111111111 A
b111111111 R
b111111111 W
b111111111 q
b111111111 {
b111011010 |
b0 @
b0 Q
b0 _
b0 p
b0 $"
b0 %"
b0 n
b0 w
b11101101 l
b11101101 ~
b11101101 k
b11101101 }
b0 j
b0 '"
b0 i
b0 &"
0#
b10001100 &
b10001100 +
b10001100 :
b11101101 %
b11101101 *
b11101101 9
b110 '
#610
0Q"
0["
0f"
0W"
1H"
0C"
1R"
1\"
0a"
1x"
0c"
0Y"
0T"
0P"
0Z"
0_"
0n"
b100011110100000 .
b100011110100000 6"
1u"
1D"
0?"
b110010010111000 2
b110010010111000 9"
0t"
1m"
b110010 1"
0q"
b11010000000 7"
b11010000000 {"
b111011010000000 }"
b111011111111100 8"
b111011111111100 |"
b0 8
b0 5"
b1100100000 7
b1100100000 4"
b11101101000 5
b11101101000 3"
b11101101000 z"
b11111111100 4
b11111111100 2"
b11111111100 y"
1#
#620
0#
#630
12#
0>#
0D#
08#
1/#
1_#
0,#
1*#
0X#
1]#
05#
0U#
1Z#
0Y#
1^#
b100111101 %#
00#
b1100110001011000 !
b1100110001011000 /
b1100110001011000 &#
1(#
0.#
0:#
0@#
0R#
1W#
1\#
0-#
1[#
b110010010111000 3
b110010010111000 "#
b100011110100000 6
b100011110100000 $#
1#
#640
0#
#650
1#
#660
0#
#670
1#
#680
0#
#690
1#
#700
b111100000 ,
b111100000 ;
b111100000 K
b1111110110 1
b1111110110 >
b1111110110 O
b1111110110 U
b11111101100 0
b11111101100 =
b11111101100 N
b11111101100 \
b111100000 M
b111100000 T
b11110000000000 -
b11110000000000 <
b11110000000000 b
b111110010 B
b111110010 S
b111110010 X
b111110010 r
b111110010 t
b11111101100 ]
b1111100100 V
b11110000 c
b11110000 *"
b111110010 u
b111111011 ?
b111111011 P
b111111011 ^
b111111011 o
b111111011 +"
b0 e
b0 z
b11111001 A
b11111001 R
b11111001 W
b11111001 q
b11111001 {
b11111001 m
b11111001 v
b11111001 h
b11111001 ."
b0 |
b111110010 ,"
b11111001 l
b11111001 ~
b0 k
b0 }
b11111001 g
b11111001 -"
0#
b11000110 &
b11000110 +
b11000110 :
b11111001 %
b11111001 *
b11111001 9
b111 '
#710
1B"
1["
1\"
1a"
0k"
1G"
1Y"
0M"
1Z"
1_"
0i"
1n"
0C"
0H"
1?"
1t"
0m"
b1011110 1"
b110101100 2
b110101100 9"
0x"
b111111111100000 .
b111111111100000 6"
1w"
0I"
1q"
b1011000000 7"
b1011000000 {"
1@"
1E"
1v"
b111111011000000 }"
b111111111110110 8"
b111111111110110 |"
b111100000 8
b111100000 5"
b11110000000000 7
b11110000000000 4"
b11111101100 5
b11111101100 3"
b11111101100 z"
b1111110110 4
b1111110110 2"
b1111110110 y"
1#
#720
0#
#730
1^#
1T#
0Y#
1>#
0J#
02#
18#
0P#
1]#
1Z#
15#
1S#
0X#
0_#
10#
1N#
b101111111 %#
0U#
b101000110001100 !
b101000110001100 /
b101000110001100 &#
1:#
0F#
0W#
0\#
1-#
1K#
1Q#
1V#
b110101100 3
b110101100 "#
b111111111100000 6
b111111111100000 $#
1#
#740
0#
#750
1#
#760
0#
#770
1#
#780
0#
#790
1#
#800
b10001000 ,
b10001000 ;
b10001000 K
b11110101010 1
b11110101010 >
b11110101010 O
b11110101010 U
b1000 M
b1000 T
b11110101010 0
b11110101010 =
b11110101010 N
b11110101010 \
b1000 L
b1000 [
b0 -
b0 <
b0 b
b110001010 @
b110001010 Q
b110001010 _
b110001010 p
b110001010 $"
b110001010 B
b110001010 S
b110001010 X
b110001010 r
b110001010 t
b11000101000 V
b11000101000 ]
b110001010 |
b110001010 %"
b110001010 A
b110001010 R
b110001010 W
b110001010 q
b110001010 {
b0 c
b0 *"
b110001010 ?
b110001010 P
b110001010 ^
b110001010 o
b110001010 +"
b11000101 k
b11000101 }
b11000101 i
b11000101 &"
b110001010 u
b110001010 ,"
b11000101 m
b11000101 v
b0 l
b0 ~
b0 h
b0 ."
b11000101 g
b11000101 -"
0#
b10101010 &
b10101010 +
b10101010 :
b11000101 %
b11000101 *
b11000101 9
b1000 '
#810
0o"
0e"
0\"
1p"
0["
0R"
1L"
0W"
1f"
0B"
0G"
0X"
1T"
0>"
0U"
0Z"
0d"
0n"
1C"
1H"
0N"
0m"
0Y"
0M"
b1000 1"
b111101100000100 2
b111101100000100 9"
1x"
b100001010101000 .
b100001010101000 6"
0w"
1I"
0:"
b1010100000 7"
b1010100000 {"
1K"
0@"
0E"
0v"
b111101010100000 }"
b111111110101010 8"
b111111110101010 |"
b10001000 8
b10001000 5"
b0 7
b0 4"
b11110101010 5
b11110101010 3"
b11110101010 z"
b11110101010 4
b11110101010 2"
b11110101010 y"
1#
#820
0#
#830
0A#
0<#
0;#
0]#
1Y#
06#
1P#
0Z#
0D#
02#
1>#
1J#
1X#
0T#
0/#
1U#
1,#
0*#
05#
0M#
0S#
b110110110101100 !
b110110110101100 /
b110110110101100 &#
0_#
00#
0H#
b10010000 %#
0N#
0(#
04#
1@#
1L#
1R#
1W#
1\#
0-#
09#
0E#
0K#
0Q#
0V#
b111101100000100 3
b111101100000100 "#
b100001010101000 6
b100001010101000 $#
1#
#840
0#
#850
1#
#860
0#
#870
1#
#880
0#
#890
1#
#900
b1100111000100 ,
b1100111000100 ;
b1100111000100 K
b110000100 M
b110000100 T
b110000100 L
b110000100 [
b110011000000 -
b110011000000 <
b110011000000 b
b1111111111 1
b1111111111 >
b1111111111 O
b1111111111 U
b1110010100 V
b1111111111 0
b1111111111 =
b1111111111 N
b1111111111 \
b1110010100 ]
b11000000 f
b11000000 s
b0 e
b0 z
b11000000 d
b11000000 #"
b0 c
b0 *"
b111101111 B
b111101111 S
b111101111 X
b111101111 r
b111101111 t
b11100101 A
b11100101 R
b11100101 W
b11100101 q
b11100101 {
b111101111 @
b111101111 Q
b111101111 _
b111101111 p
b111101111 $"
b11100101 ?
b11100101 P
b11100101 ^
b11100101 o
b11100101 +"
b11100101 n
b11100101 w
b11100101 l
b11100101 ~
b11100101 j
b11100101 '"
b11100101 h
b11100101 ."
b111001010 u
b0 |
b111001010 %"
b0 ,"
b11100101 m
b11100101 v
b0 k
b0 }
b11100101 i
b11100101 &"
b0 g
b0 -"
0#
b1110111 &
b1110111 +
b1110111 :
b11100101 %
b11100101 *
b11100101 9
b1001 '
#910
1o"
1Q"
0p"
1\"
1["
1e"
0R"
1="
0L"
1G"
1f"
1c"
1Y"
1O"
1Z"
1d"
1n"
1B"
b1111110000 7"
b1111110000 {"
1l"
1X"
1N"
0>"
1M"
b101001110010100 2
b101001110010100 9"
0H"
b1011100 1"
1:"
b1111111110101 .
b1111111110101 6"
1<"
0K"
1A"
1F"
1@"
b11111111110000 }"
b11111111111111 8"
b11111111111111 |"
b1100111000100 8
b1100111000100 5"
b110011000000 7
b110011000000 4"
b1111111111 5
b1111111111 3"
b1111111111 z"
b1111111111 4
b1111111111 2"
b1111111111 y"
1#
#920
0#
